######################################
category = {
 name = "Speeches"
 soundeffects = {
	sp_ger_goebbels
	5Uhr45
	ToilSweat
	NeverSurrender
	FinestHour
	sp_ita_musso
	sp_sov_stalin
	wehrmachtmann
 }
 
}


category = {
 name = "Effects"
 soundeffects = {
	####### NOTIFICATIONS
	peace_conference
	peace_summary_message
	world_news_effect
	event_popup
	diplomatic_notification
	complete_focus
	research_complete
	agency_complete
	join_faction
	stage_coup
	justify_wargoals
	player_declare_war
	enemy_declare_war
	horse_walking
	tutorial_objective_done
	operation_complete
	
	######## INGAME ALERT - topbar
	# simple sound effect. at least important and less important
	alert_is_observer_sound #5
	alert_can_play_observed_sound #5
	alert_no_research_sound #3
	alert_war_sound #5
	alert_deployment_ready_sound #4
	alert_free_civilian_factories_sound #4
	alert_free_military_factories_sound #4
	alert_free_naval_dockyards_sound #4
	alert_pick_new_idea_sound #4
	alert_select_focus_sound #4
	alert_trade_import_unfullfilled_sound #4
	alert_expeditionary_force_sound #4
	alert_available_wargoal_sound #4
	alert_enemy_generate_wargoal_sound #1
	alert_volunteer_transfer_sound #5
	alert_few_manpower_sound #4
	alert_not_enough_garrison_sound # 4
	alert_faction_generate_wargoal_sound #3
	alert_faction_possible_invite_sound #5
	alert_faction_assume_leadership_possible_sound #5
	alert_faction_member_near_assuming_leadership_sound #5
	alert_air_reserve_unused_sound #4
	alert_air_wings_unassigned_sound #4
	alert_timed_activity_low_equipment_sound #4
	alert_blocked_national_focus_sound #4
	alert_naval_battle_results_sound #4
	alert_not_training_divisions_sound # 4
	alert_exiled_units_sound # 3
	alert_production_no_template_sound # 4
	alert_external_influences_sound # 3
	alert_lack_of_resources_sound # 4
	alert_naval_convoy_raiding_results_sound # 4
	alert_paused_diplomatic_actions_sound # 3
	alert_no_equipment_production_sound #4
	alert_port_strike_results_sound
	alert_outdated_equipment_sound #4
	alert_enemy_crypto_is_broken_sound
	alert_no_crypto_is_being_decrypted_sound
	alert_self_gain_autonomy_sound
	alert_self_lose_autonomy_sound
	alert_subject_lose_autonomy_sound
	alert_subject_gain_autonomy_sound
	alert_unassigned_divisions_sound
	alert_players_lagging_behind_sound
	alert_decision_new_sound
	alert_decision_timeout_sound
	alert_border_conflict_sound
	alert_is_at_war_sound
	alert_ally_pulling_its_expeditionaries_sound
	alert_operative_ready_to_recruit_sound
	
	######## INGAME ALERT - sidebar
	# important and less so by type (naval/air/land)
	alert_hostile_troops_sound #1
	alert_naval_invasion_sound #3
	alert_dangerous_naval_invasion_sound #1
	alert_low_supply_sound #3
	alert_very_low_supply_sound #2
	alert_base_low_supply_sound #3
	alert_base_very_low_supply_sound # 2
	alert_enemy_air_superiority_sound # 2 eget
	alert_naval_combat_sound #2
	alert_is_spotting_sound #2
	alert_expensive_ships_low_str_sound #2
	alert_resistance_sound # 3
	alert_battleplans_with_no_divs_sound # 5
	
	####### SHIPS
	ship_idle_battleship
	ship_idle_destroyer
	ship_idle_heavy_cruiser
	ship_idle_light_cruiser
	ship_idle_super_battleship
	ship_idle_transport
	ship_idle_transport_route
	ship_idle_carrier
	vehicle_move
	infantry_move_animation
	motorized_unit_move_animation
	select_army
	select_vehicle
	select_tank
	select_fleet
	infantry_move
	order_fleet_effect
	order_airwing_effect
	select_aircraft
	order_invalid_effect
	orders_disband
	order_convoy_transport
	
	###### OTHER
	nuke
	distance_nuke
	building_repaired
	building_collateral
	building_bombed
	ambient_town_entites
	building_sabotaged
	air_mission_select
	
	###### DECISIONS
 	decisions_ui_checkbox
 	decisions_ui_tab
 	decisions_ui_button

	
	####### TRAIT
 	traits_ui_click
 	traits_ui_over

	####### TEST
	pause_button
	time_down
	time_up
	

 }
 
 compressor = 
 {
	enabled = yes
	pregain = 3.0
	postgain = 0.0
	ratio = 10.0
	threshold = -15.0
	attacktime = 0.030
	releasetime = 1.2
 }
}
######################################
category = {
 name = "Battle"
 soundeffects = {
	mechanized_units_mg_fire
	infantry_rifle_attack
	infantry_rifle_cartridge
	infantry_mg_attack
	infantry_mg_support_attack
	artillery_unit_fire_01
	tank_engine_light_move
	tank_engine_medium_move
	heavy_armour_fire
	medium_armour_fire
	light_armour_fire
	ITA_light_armour_fire
	
	ship_hit_big_effect
	ship_miss_big_effect
	ship_hit_small_effect
	ship_miss_small_effect
	generic_ship_damaged_loop
	super_heavy_battleship_attack
	super_heavy_battleship_damaged_attack
	super_heavy_battleship_attacked
	super_heavy_battleship_defend
	super_heavy_battleship_damaged_defend
	super_heavy_battleship_destroyed
	ships_destroyer_attack
	ships_destroyer_attacked
	ship_destroyer_damaged_defending_01
	ship_destroyer_damaged_attacking_01
	ships_destroyer_death
	ships_heavy_cruiser_attack
	ships_heavy_cruiser_death
	ships_heavy_cruiser_attacked
	heavy_cruiser_damaged_defend_loop
	heavy_cruiser_damaged_attacked_loop
	light_cruiser_attack
	ships_light_cruiser_death
	ships_light_cruiser_attacked
	light_cruiser_attack_damaged
	light_cruiser_defend_damaged_01

	ENG_car_01_Moving
	ENG_car_03_Moving
	FRA_car_01_Moving
	FRA_car_03_Moving
	Generic_car_01_Moving
	Generic_car_03_Moving
	GER_car_01_Moving
	GER_car_03_Moving
	ITA_car_01_Moving
	ITA_car_03_Moving
	JAP_car_01_Moving
	JAP_car_03_Moving
	SOV_car_01_Moving
	SOV_car_03_Moving
	USA_car_01_Moving
	USA_car_03_Moving

	SPR_light_tank_Moving

	SOV_Scout_plane_Moving
	JAP_scout_plane_Moving
	ITA_scout_plane_Moving
	GER_scout_plane_Moving
	FRA_scout_plane_Moving
	ENG_scout_plane_Moving
	USA_scout_plane_Moving

	ENG_car_01_idle	
	ENG_car_03_idle
	FRA_car_01_idle
	FRA_car_03_idle
	Generic_car_01_idle
	Generic_car_03_idle
	GER_car_01_idle
	GER_car_03_idle
	ITA_car_01_idle
	ITA_car_03_idle
	JAP_car_01_idle
	JAP_car_03_idle
	SOV_car_01_idle
	SOV_car_03_idle
	USA_car_01_idle
	USA_car_03_idle

	SPR_light_tank_idle

	SOV_Scout_plane_idle
	JAP_scout_plane_idle
	ITA_scout_plane_idle
	GER_scout_plane_idle
	FRA_scout_plane_idle
	ENG_scout_plane_idle
	USA_scout_plane_idle






	distance_mechanized_units_mg_fire
	distance_artillery_unit_fire_01

	distance_ship_hit_big_effect
	distance_ship_miss_big_effect
	distance_ship_hit_small_effect
	distance_ship_miss_small_effect
	distance_super_heavy_battleship_attack
	distance_super_heavy_battleship_damaged_attack
	distance_super_heavy_battleship_attacked
	distance_super_heavy_battleship_defend
	distance_super_heavy_battleship_damaged_defend
	distance_super_heavy_battleship_destroyed
	distance_ships_destroyer_attack
	distance_ships_destroyer_attacked
	distance_ship_destroyer_damaged_defending_01
	distance_ship_destroyer_damaged_attacking_01
	distance_ships_destroyer_death
	distance_ships_heavy_cruiser_attack
	distance_ships_heavy_cruiser_death
	distance_ships_heavy_cruiser_attacked
	distance_heavy_cruiser_damaged_defend_loop
	distance_heavy_cruiser_damaged_attacked_loop
	distance_light_cruiser_attack
	distance_ships_light_cruiser_death
	distance_ships_light_cruiser_attacked
	distance_light_cruiser_attack_damaged
	distance_light_cruiser_defend_damaged_01
	
	airplane_bomb
	airplane_crash
	airplane_light_fire
	airplane_ger_jet_fire
	airplane_idle
	airplane_medium_idle_01
	airplane_heavy_idle_01
	airplane_jet_idle
	
	distance_airplane_bomb
	distance_airplane_crash
	distance_airplane_light_fire
	distance_airplane_ger_jet_fire
	distance_airplane_idle
	distance_airplane_medium_idle_01
	distance_airplane_heavy_idle_01
	distance_airplane_jet_idle
	
 }
 
 compressor = 
 {
	enabled = yes
	pregain = 4.0
	postgain = 1.5
	ratio = 10.0
	threshold = -9.0
	attacktime = 0.03
	releasetime = 0.0
 }
}
######################################
category = {
 name = "UI"
 soundeffects = {
	click_default
	click_close
	click_ok
	click_checkbox
	click_scroll
	click_chat 
	click_battleplan
	click_action
	click_send
	click_assign_frontline
	navalinvasion_confirmed
	land_mapmode
	naval_mapmode
	air_mapmode
	intel_mapmode
	ui_menu_over
	menu_open_window
	menu_close_window
	assign_leader
	disband
	click_expand
	confirm_dog
	click_dog
	debug_dog_yelping
	open_sub_window
	select_country
	production_tanks
	production_artillery
	production_aircraft
	production_navy
	construction
	pop_up
	set_research_effect
	select_focus
	click_province
	assign_unit_frontline
	edit_naval_orders
	assign_operative_boost_ideology
	assign_operative_build_network
	assign_operative_control_trade
	assign_operative_counter_intelligence
	assign_operative_diplomatic_pressure
	assign_operative_propaganda
	assign_operative_quiet_network
	assign_operative_root_out_resistance
	assign_operative_invalid_target

	hover_operative_build_network_target
	hover_operative_counter_intelligence_target
	hover_operative_quiet_network_target
	hover_operative_boost_ideology_target
	hover_operative_propaganda_target
	hover_operative_root_out_resistance_target
	hover_operative_control_trade_target
	hover_operative_diplomatic_pressure_target

	Spy_Map_Mode_Pointer_Over_State
	Spy_Map_Mode_Select_State
	Spy_Map_Mode_Selecting_Map_Mode
	Spy_Map_Mode_Pointer_Over_Agent
	Spy_Map_Mode_Select_Agent
	Spy_Agency_Build_Agency_Confirm
	Spy_Agency_Branch_Upgrade_Selection
	Spy_Agency_Branch_Upgrade_Window_Show_Sound
	Spy_Agency_Intel_Upgrades_Confirm
	Spy_Agency_Defense_Upgrades_Confirm
	Spy_Agency_Operations_Upgrades_Confirm
	Spy_Agency_Training_Facilities_Upgrades_Confirm
	Spy_Agency_Cryptology_Upgrades_Confirm
	
	Agent_Event_Event_Pop_Up_Operative_Injured
	Agent_Event_Event_Pop_Up_Operative_Forced_Underground
	Agent_Event_Event_Pop_Up_Operative_Captured
	Agent_Event_Event_Pop_Up_Operative_Killed
	Agent_Event_Notification_Enemy_Agent_Captured
	
	Spy_Agency_Cryptology_Notification_Cracking_Available
	Spy_Agency_Cryptology_Activate_Power
	Spy_Agency_Cryptology_Decipher_Pointer_Over_Target
	Spy_Agency_Cryptology_Decipher_Select_Target_Province
	
	Agent_Initiate_Mission_Infiltrate_Armed_Forces
	Agent_Initiate_Mission_Infiltrate_Civilian_Goverment
	Agent_Initiate_Mission_Make_Resistance_Contacts
	Agent_Initiate_Mission_Steal_Blueprints
	Agent_Initiate_Mission_Targeted_Sabotage
	Agent_Initiate_Mission_Boost_Resistance
	Agent_Initiate_Mission_Collaboration_Government
	Agent_Initiate_Mission_Capture_Ciphers
	Agent_Initiate_Mission_Coordinated_Strike
	Agent_Initiate_Mission_Fake_Intel
	Agent_Initiate_Mission_Rescue_Captured_Operative
	Agent_Initiate_Mission_Coup_Government
	
	Agent_Mission_Bar_Pointer_Over
	Agent_Mission_Bar_Mission_Select_Toggle
	Agent_Mission_Select_Target_On_Map
	Agent_Mission_Target_Pointer_Over

	Martial_Law_Interface_No_Garrison
	Martial_Law_Interface_Autonomous_Occupation_Unique_DEM
	Martial_Law_Interface_Foreign_Cvilian_Oversight
	Martial_Law_Interface_Secret_Police_Oversight
	Martial_Law_Interface_Local_Police_Force_Garrison
	Martial_Law_Interface_Liberate_Workers_Occupation_Unique_COM
	Martial_Law_Interface_Military_Governor_Occupation
	Martial_Law_Interface_Martial_Law_Occupation_Default
	Martial_Law_Interface_Forced_Labor_Occupation
	Martial_Law_Interface_Harsh_Quotas_Occupation
	Martial_Law_Interface_Brutally_Oppressive_Occupation_Unique_FAS
	
	Resistance_Notifcation_Low_Resource_For_Laws
	Resistance_Diplomatic_Action_Request_Garrsion_Forces
	Resistance_Switch_Map_Mode_Resistance
	Resistance_Switch_Map_Mode_Compliance
	
	cryptology_the_bombe_timer
	operative_event_close
 }
 
 compressor = 
 {
	enabled = yes
	pregain = 3.0
	postgain = 1.0
	ratio = 2.0
	threshold = -10.0
	attacktime = 0.03
	releasetime = 0.0
 }
}


category = {
 name = "Atmosphere"
 soundeffects = {
	amb_neutral_wind
	
		####### WEATHER
	weather_cloud_winds
	weather_lightning_storm
	weather_snow_blizzard
	weather_snow_light
	weather_sandstorm
	weather_rain_light
	weather_rain_heavy
	ambient_ocean
	amb_battle_distant
 }
  compressor = 
 {
	enabled = yes
	pregain = 5.0
	postgain = 6.0
	ratio = 15.0
	threshold = -15.0
	attacktime = 0.03
	releasetime = 0.0
 }
}
}
