ideas = {

	country = {

		fra_legit_idea = {
			picture = FRA_political_violence
			allowed = {	original_tag = FRA	}
			allowed_civil_war = {	original_tag = FRA	}
			removal_cost = -1
		}
		

 


		FRA_mech_strong = {
			picture = generic_production_bonus
			allowed = {
				original_tag = FRA
				always = no
			}

			removal_cost = -1
			
			equipment_bonus = {
				mechanized_equipment = {
					build_cost_ic = 999.999 instant = yes
				}
			}
		}
		FRA_tank_spirit = {
			name = "Armored Railways"
			picture = generic_armor

			allowed_civil_war = {
				
			}
			
			modifier = {
				army_armor_attack_factor = 0.1
			}
		}

		FRA_mobile_warfare = {
			name = "Mobile Warfare"
			picture = generic_armor

			allowed_civil_war = {
				
			}
			
			modifier = {
				army_speed_factor = 0.1
				army_morale_factor = 0.1
				planning_speed = 0.35
				army_org_factor = 0.1
				air_cas_present_factor = 0.1
			}
		}

		FRA_overtime_working = {
			name = "Overtime Working"
			picture = generic_production_bonus

			allowed_civil_war = {
				
			}
			
			modifier = {
				industrial_capacity_factory = 0.3
				production_factory_max_efficiency_factor = 0.25
				production_factory_efficiency_gain_factor = 1.5
			}
		}

		FRA_worker_strikes = {
			name = "Worker Strikes"
			picture = generic_production_bonus
			available = {
				NOT = {
					has_country_flag = france_is_kill
				}
			}
			allowed_civil_war = {
				
			}
			
			modifier = {
				industrial_capacity_factory = -0.125
				production_factory_efficiency_gain_factor = -0.5
			}
		}

		FRA_superior_firepower = {
			name = "Superior Firepower"
			picture = generic_production_bonus

			allowed_civil_war = {
				
			}
			
			modifier = {
				army_armor_attack_factor = 0.05
				army_armor_defence_factor = 0.05
				army_speed_factor = -0.1
				max_planning = 0.05
				max_dig_in_factor = 0.1
			}
		}

		FRA_full_employment = {
			picture = generic_production_bonus
			allowed = {
				original_tag = FRA
				always = no
			}

			allowed_civil_war = {
				tag = FRA #stays with main country
			}

			removal_cost = -1
			
			modifier = {
				conscription_factor = -0.45
			}
		}
		FRA_full_employment_2 = {
			name = "Foreign Guest Workers"
			picture = generic_production_bonus
			allowed = {
				original_tag = FRA
				always = no
			}

			allowed_civil_war = {
				tag = FRA #stays with main country
			}

			removal_cost = -1
			
			modifier = {
				conscription_factor = -0.05
			}
		}
		
		FRA_inefficient_economy_2 = {
			picture = generic_local_self_management
			name = "Inefficient Economy"
			allowed = {
				original_tag = FRA
				always = no
			}

			allowed_civil_war = {
				tag = FRA
			}

			removal_cost = -1
			
			modifier = {
				industrial_capacity_factory = -0.2
				industrial_capacity_dockyard = -0.2
				
			}
		}

		FRA_inefficient_economy_3 = {
			picture = generic_local_self_management
			name = "Inefficient Economy"
			allowed = {
				original_tag = FRA
				always = no
			}

			allowed_civil_war = {
				tag = FRA
			}

			removal_cost = -1
			
			modifier = {
				industrial_capacity_factory = -0.1
				industrial_capacity_dockyard = -0.1
			}
		}

		FRA_inefficient_economy_4 = {
			picture = generic_local_self_management
			name = "Efficient Economy"
			allowed = {
				original_tag = FRA
				always = no
			}

			allowed_civil_war = {
				tag = FRA
			}

			removal_cost = -1
			
			modifier = {
				production_factory_efficiency_gain_factor = 0.1
				political_power_gain = 0.2
			}
		}

		FRA_devalue_the_franc = {
			picture = generic_foreign_capital
			allowed = {
				original_tag = FRA
				always = no
			}

			allowed_civil_war = {
				always = yes
			}

			removal_cost = -1
			
			modifier = {
				consumer_goods_factor = -0.05
				production_speed_industrial_complex_factor = 0.25
				production_speed_infrastructure_factor = 0.2
			}
		}
		
		FRA_matignon_deal = {
			name = "The Matignon Agreements"
			picture = FRA_economic
			allowed = {
				original_tag = FRA
				always = no
			}

			allowed_civil_war = {
				always = yes
			}

			removal_cost = -1
			
			modifier = {
				consumer_goods_factor = 0.05
				industrial_capacity_factory = 0.1
			}
		}
	
		FRA_global_investments = {
			picture = generic_exploit_mines
			allowed = {
				original_tag = FRA
				always = no
			}

			allowed_civil_war = {
				always = yes
			}

			removal_cost = -1
			
			modifier = {
				local_resources_factor = 0.1
			}
		}
		FRA_womens_suffrage = {
			picture = generic_constitutional_guarantees
			allowed = {
				original_tag = FRA
				always = no
			}

			allowed_civil_war = {
				has_government = communism
			}

			removal_cost = -1
			
			modifier = {
				political_power_gain = 0.25
			}
		}
		FRA_agricultural_collectivization = {
			picture = generic_agrarian_reform
			allowed = {
				original_tag = FRA
				always = no
			}

			allowed_civil_war = {
				has_government = communism
			}

			removal_cost = -1
			
			modifier = {
				conscription_factor = 0.15
			}
		}
		FRA_anti_fascist_immigrants = {
			picture = generic_manpower_bonus
			allowed = {
				original_tag = FRA
				always = no
			}
 
			allowed_civil_war = {
				has_government = communism
			}

			removal_cost = -1
			
			modifier = {
				research_speed_factor = 0.05
				weekly_manpower = 1000
			}
		}
		FRA_league_of_french_bolshevist_volunteers = {
			picture = fourth_international
			allowed = {
				original_tag = FRA
				always = no
			}

			allowed_civil_war = {
				has_government = communism
			}

			removal_cost = -1
			
			modifier = {
				send_volunteer_size = 3
			}
		}
		FRA_egalite_liberte_solidarite = {
			picture = FRA_liberte_egalite_solidarite
			allowed = {
				original_tag = FRA
				always = no
			}

			allowed_civil_war = {
				has_government = communism
			}

			removal_cost = -1
			
			modifier = {
			
				army_core_attack_factor = 0.1
				army_core_defence_factor = 0.1
			}
		}
		FRA_revolutionary_zeal = {
			picture = generic_morale_bonus
			allowed = {
				original_tag = FRA
				always = no
			}

			allowed_civil_war = {
				has_government = communism
			}

			removal_cost = -1
			
			modifier = {
				army_attack_factor = 0.1
				army_core_defence_factor = 0.25
			}
		}
		FRA_dirigisme = {
			picture = generic_central_management
			allowed = {
				original_tag = FRA
				always = no
			}

			allowed_civil_war = {
				always = yes
			}

			removal_cost = -1
			
			modifier = {
				economy_cost_factor = -0.5
				conversion_cost_civ_to_mil_factor = -0.5
			}
		}
		FRA_expanded_citizenship = {
			picture = generic_army_war_college
			allowed = {
				original_tag = FRA
				always = no
			}

			allowed_civil_war = {
				has_government = democratic
			}

			removal_cost = -1
			
			modifier = {
				non_core_manpower = 0.03
			}
		}
		FRA_france_undividable = {
			picture = FRA_undividable
			allowed = {
				original_tag = FRA
				always = no
			}

			allowed_civil_war = {
				has_government = democratic
			}

			removal_cost = -1
			
			modifier = {
				non_core_manpower = 0.08
			}
		}
		FRA_agricultural_protectionism = {
			picture = generic_agrarian_reform
			allowed = {
				original_tag = FRA
				always = no
			}

			allowed_civil_war = {
				has_government = democratic
			}

			removal_cost = -1
			
			modifier = {
				production_speed_industrial_complex_factor = 0.075
			}
		}
		FRA_entrepeneurship = {
			picture = chi_hyper_inflation2
			allowed = {
				original_tag = FRA
				always = no
			}

			allowed_civil_war = {
				has_government = democratic
			}

			removal_cost = -1
			
			modifier = {
				min_export = -1
			}

			research_bonus = { industry = 0.05}
		}
		FRA_market_dynamism = {
			
			allowed = {
				original_tag = FRA
				always = no
			}

			allowed_civil_war = {
				has_government = democratic
			}

			removal_cost = -1
			
			modifier = {
				production_factory_efficiency_gain_factor = 0.35
					
			}
		}

		FRA_industrialisation_of_africa = {
			name = "Industrialisation of Africa"
			picture = generic_production_bonus
			allowed = {
				original_tag = FRA
				always = no
			}

			allowed_civil_war = {
				has_government = democratic
			}

			removal_cost = -1
			
			modifier = {
				production_factory_efficiency_gain_factor = 0.2
				industrial_capacity_factory = 0.15
			}
		}

		FRA_anti_decandence = {
			picture = generic_oppression
			allowed = {
				original_tag = FRA
				always = no
			}

			allowed_civil_war = {
				has_government = fascism
			}

			removal_cost = -1
			
			modifier = {
				democratic_drift = -0.1
			}
		}
		FRA_travail = {
			picture = generic_production_bonus
			allowed = {
				original_tag = FRA
				always = no
			}

			allowed_civil_war = {
				has_government = fascism
			}

			removal_cost = -1
			
			modifier = {
				production_factory_efficiency_gain_factor = 0.1
			}
		}
		FRA_constitutional_revision = {
			picture = generic_constitutional_guarantees
			allowed = {
				original_tag = FRA
				always = no
			}

			allowed_civil_war = {
				not = { has_government = communism }
				not = { has_government = fascism }
			}

			removal_cost = -1
			
			modifier = {
				stability_weekly = 0.0025
			}
		}
		FRA_counter_action = {
			picture = generic_oppression
			allowed = {
				original_tag = FRA
				always = no
			}

			allowed_civil_war = {
				has_government = neutrality
			}

			removal_cost = -1
			
			modifier = {
				fascism_drift = -0.1
			}
		}
		FRA_la_deluge = {
			
			allowed = {
				original_tag = FRA
				always = no
			}

			allowed_civil_war = {
				has_government = neutrality
			}

			removal_cost = -1
			
			modifier = {
				conscription = 0.03
				conscription_factor = 0.25
				training_time_army_factor = -0.2
			}
		}
		FRA_firepower = {
			picture = generic_artillery_regiments
			allowed = {
				original_tag = FRA
				always = no
			}

			allowed_civil_war = {
				always = yes
			}

			removal_cost = -1
			
			equipment_bonus = {
				artillery_equipment = {
					build_cost_ic = -0.1
					instant = yes
				}
			}

			modifier = {
				
			}
		}
		FRA_air_dominance = {
			picture = generic_air_bonus
			allowed = {
				original_tag = FRA
				always = no
			}

			allowed_civil_war = {
				always = yes
			}

			removal_cost = -1
			
			equipment_bonus = {
				fighter_equipment = {
					build_cost_ic = -0.1
					instant = yes
				}
				CAS_equipment = {
					build_cost_ic = -0.1
					instant = yes
				}
			}

			modifier = {
				
			}
		}
		FRA_flying_artillery = {
			picture = combined_bomber_offensive
			allowed = {
				original_tag = FRA
				always = no
			}

			allowed_civil_war = {
				always = yes
			}

			removal_cost = -1
			
			equipment_bonus = {
				tac_bomber_equipment = {
					air_ground_attack = 0.15
					instant = yes
				}
				CAS_equipment = {
					air_ground_attack = 0.15
					instant = yes
				}
			}

			modifier = {
				
			}
		}
		FRA_down_with_marianne = {
			picture = FRA_down_marianne
			allowed = {
				original_tag = FRA #should probably be VIC
				always = no
			}

			allowed_civil_war = {
				has_government = fascism
			}

			removal_cost = -1
			
			modifier = {
				democratic_drift = -0.1
			}
		}
		FRA_up_with_jean_darc = {
			picture = generic_fascism_drift_bonus
			
			allowed = {
				original_tag = FRA #should probably be VIC
				always = no
			}

			allowed_civil_war = {
				has_government = fascism
			}

			removal_cost = -1
			
			modifier = {
				fascism_drift = 0.075
				neutrality_drift = 0.025
			}
		}
		FRA_venerate_the_craftsman = {
			picture = generic_production_bonus
			allowed = {
				original_tag = FRA #should probably be VIC
				always = no
			}

			allowed_civil_war = {
				has_government = fascism
			}

			removal_cost = -1
			
			modifier = {
				production_factory_max_efficiency_factor = 0.1
			}
		}
		FRA_occupation_costs_4 = {
			picture = generic_goods_red_bonus
			name = FRA_occupation_costs_1
			allowed = {
				original_tag = FRA #should probably be VIC
				always = no
			}

			allowed_civil_war = {
				has_government = fascism
			}

			removal_cost = -1
			
			modifier = {
				consumer_goods_factor = 0.2
			}
		}
		FRA_occupation_costs_3 = {
			picture = generic_goods_red_bonus
			name = FRA_occupation_costs_1
			allowed = {
				original_tag = FRA #should probably be VIC
				always = no
			}

			allowed_civil_war = {
				has_government = fascism
			}

			removal_cost = -1
			
			modifier = {
				consumer_goods_factor = 0.15
			}
		}
		FRA_occupation_costs_2 = {
			picture = generic_goods_red_bonus
			name = FRA_occupation_costs_1
			allowed = {
				original_tag = FRA #should probably be VIC
				always = no
			}

			allowed_civil_war = {
				has_government = fascism
			}

			removal_cost = -1
			
			modifier = {
				consumer_goods_factor = 0.1
			}
		}
		FRA_occupation_costs_1 = {
			picture = generic_goods_red_bonus
			allowed = {
				original_tag = FRA #should probably be VIC
				always = no
			}

			allowed_civil_war = {
				has_government = fascism
			}

			removal_cost = -1
			
			modifier = {
				consumer_goods_factor = 0.05
			}
		}
		FRA_mandatory_work_service = {
			picture = ast_all_in
			allowed = {
				original_tag = FRA #should probably be VIC
				always = no
			}

			allowed_civil_war = {
				has_government = fascism
			}

			removal_cost = -1
			
			modifier = {
				stability_factor = -0.1 #TODO_GABRIEL: replace with +15% resistance target in core states
			}
		}

		VIC_guest_workers = {
			picture = generic_exploit_mines
			allowed = {
				original_tag = GER #should probably be main occupier
				always = no
			}

			allowed_civil_war = {
				always = yes
			}

			removal_cost = -1
			
			modifier = {
				production_factory_efficiency_gain_factor = 0.1
			}
		}

		VIC_produce_aircraft_parts = {
			picture = generic_bomber_production_diverted
			allowed = {
				original_tag = FRA #should probably be VIC
				always = no
			}

			allowed_civil_war = {
				always = yes
			}

			removal_cost = -1
			
			equipment_bonus = {
				tac_bomber_equipment = {
					build_cost_ic = 0.25
					instant = yes
				}
				strat_bomber_equipment = {
					build_cost_ic = 0.25
					instant = yes
				}
				nav_bomber_equipment = {
					build_cost_ic = 0.25
					instant = yes
				}
				CAS_equipment = {
					build_cost_ic = 0.25
					instant = yes
				}
				fighter_equipment = {
					build_cost_ic = 0.25
					instant = yes
				}
				heavy_fighter_equipment = {
					build_cost_ic = 0.25
					instant = yes
				}

			}
		}

		FRA_national_bureau_of_statistics = {
			picture = SOV_scientist_defect
			allowed = {
				original_tag = FRA #should probably be VIC
				always = no
			}

			allowed_civil_war = {
				always = yes
			}

			removal_cost = -1
			
			modifier = {
				research_speed_factor = 0.1 
			}
		}
		FRA_legionary_service_order = {
			picture = ast_volunteer_defence_corps
			allowed = {
				original_tag = FRA #should probably be VIC
				always = no
			}

			allowed_civil_war = {
				always = yes
			}

			removal_cost = -1
			
			modifier = {
				resistance_growth = -0.1
			}
		}
		FRA_milice = {
			picture = generic_war_preparation
			allowed = {
				original_tag = FRA #should probably be VIC
				always = no
			}

			allowed_civil_war = {
				has_government = fascism
			}

			removal_cost = -1
			
			modifier = {
				resistance_growth = -0.2
			}
		}
		FRA_anti_bolshevist_volunteers = {
			picture = generic_manpower_bonus
			allowed = {
				original_tag = FRA #should probably be VIC
				always = no
			}

			allowed_civil_war = {
				has_government = fascism
			}

			removal_cost = -1
			
			modifier = {
				send_volunteer_size = 3
			}
			targeted_modifier = {
				tag = SOV
				attack_bonus_against = 0.1
				defense_bonus_against = 0.1
			}
		}
		FRA_rebuild_the_military = {
			picture = generic_infantry_bonus
			allowed = {
				original_tag = FRA #should probably be VIC
				always = no
			}

			allowed_civil_war = {
				has_government = fascism
			}
			available = {
				num_of_military_factories < 35
			}
			removal_cost = -1
			
			modifier = {
				production_speed_arms_factory_factor = 0.1
			}
		}
		FRA_hidden_materials = {
			picture = HUN_secret_rearmament
			allowed = {
				original_tag = FRA #should probably be VIC
				always = no
			}

			allowed_civil_war = {
				has_government = fascism
			}

			removal_cost = -1
			
			modifier = {
				production_factory_efficiency_gain_factor = 0.05
			}
		}
		FRA_buy_from_the_enemy = {
			picture = generic_license_production
			allowed = {
				original_tag = FRA #should probably be VIC
				always = no
			}

			allowed_civil_war = {
				has_government = fascism
			}

			removal_cost = -1
			
			modifier = {
				license_purchase_cost = -0.5
			}
		}
		FRA_defeatism = {
			picture = generic_army_problems
			allowed = {
				original_tag = FRA 
				always = no
			}

			allowed_civil_war = {
				has_government = democratic
			}

			removal_cost = -1
			
			modifier = {
				conscription_factor = -0.5
				resistance_growth_on_our_occupied_states  = -0.25
				legitimacy_gain_factor = -0.5
			}
		}
		FRA_maquis = {
			picture = MEX_politicised_army
			allowed = {
				original_tag = FRA 
				always = no
			}

			allowed_civil_war = {
				has_government = democratic
			}

			removal_cost = -1
			
			modifier = {
				resistance_growth_on_our_occupied_states  = 0.1 
			}
		}
		FRA_connections_to_trade_unions = {
			picture = generic_volunteer_expedition_bonus
			allowed = {
				original_tag = FRA 
				always = no
			}

			allowed_civil_war = {
				has_government = democratic
			}

			removal_cost = -1
			
			modifier = {
				resistance_growth_on_our_occupied_states  = 0.1 
			}
		}
		FRA_communist_cooperation = {
			picture = hol_haven_of_tolerance
			allowed = {
				original_tag = FRA 
				always = no
			}

			allowed_civil_war = {
				has_government = democratic
			}
			available = {
				communism < 0.2 #switched out at 15%
			}

			removal_cost = -1
			
			modifier = {
				resistance_growth_on_our_occupied_states = 0.1 
				communism_drift = 0.05
			}
		}
		FRA_communist_cooperation_2 = {
			name = FRA_communist_cooperation
			picture = hol_haven_of_tolerance
			allowed = {
				original_tag = FRA 
				always = no
			}

			allowed_civil_war = {
				has_government = democratic
			}

			removal_cost = -1
			
			modifier = {
				resistance_growth_on_our_occupied_states = 0.1 
			}
		}
		FRA_industrialist_connections = {
			picture = man_five_year_plan_industry
			allowed = {
				original_tag = FRA 
				always = no
			}

			allowed_civil_war = {
				has_government = democratic
			}

			removal_cost = -1
			
			modifier = {
				compliance_growth_on_our_occupied_states = -0.15
			}
		}
		FRA_civil_and_military_organization = {
			picture = FRA_scw_intervention_nationalists_focus
			allowed = {
				original_tag = FRA 
				always = no
			}

			allowed_civil_war = {
				has_government = democratic
			}

			removal_cost = -1
			
			modifier = {
				compliance_growth_on_our_occupied_states = -0.15
				resistance_growth_on_our_occupied_states  = 0.05
			}
		}
		FRA_national_council_of_the_resistance = {
			picture = FRA_national_resistance_council
			allowed = {
				original_tag = FRA 
				always = no
			}

			allowed_civil_war = {
				has_government = democratic
			}

			removal_cost = -1
			
			modifier = {
				compliance_growth_on_our_occupied_states = -0.25
				resistance_growth_on_our_occupied_states  = 0.1
			}
		}
		FRA_national_uprising = {
			picture = generic_intel_bonus
			allowed = {
				original_tag = FRA 
				always = no
			}

			allowed_civil_war = {
				has_government = democratic
			}

			removal_cost = -1
			
			modifier = {
				no_supply_grace = 336
				equipment_capture = 0.35
			}
		}
		FRA_colonial_recruitment = {
			picture = generic_manpower_bonus
			allowed = {
				original_tag = FRA 
				always = no
			}

			allowed_civil_war = {
				always = yes
			}

			removal_cost = -1
			
			modifier = {
				non_core_manpower = 0.05
			}
		}

		FRA_victors_of_wwi = {
			
			allowed = {
				original_tag = FRA
				always = no
			}

			allowed_civil_war = {
				always = no
			}

			removal_cost = -1

			picture = generic_victors_of_ww1
		
			modifier = {
				conscription = -0.003
				war_support_factor = -0.05
			}
		}

		FRA_disjointed_government = {
			
			allowed = {
				original_tag = FRA
				always = no
			}

			allowed_civil_war = {
				has_government = democratic
			}

			removal_cost = -1

			picture = generic_disjointed_gov
			
			modifier = {
				stability_factor = -0.10
				political_power_gain = -0.25
			}
		}

		FRA_the_young_school = {
			
			allowed = {
				original_tag = FRA
				always = no
			}

			allowed_civil_war = {
				always = yes
			}

			removal_cost = -1

			picture = generic_navy_bonus
			
			modifier = {
				industrial_capacity_dockyard = 0.05
			}
		}

		FRA_protected_by_the_maginot_line = {
			
			allowed = {
				always = no
			}

			allowed_civil_war = {
				
			}

			available = {
				 FRA = { controls_state = 16 } 
			}

			removal_cost = -1

			picture = generic_wall_line
			
			modifier = {
				max_planning = 0.25
			}
		}

		FRA_infantry_focus = {
		
			allowed = {
				original_tag = FRA
				always = no
			}

			allowed_civil_war = {
				always = yes
			}

			picture = generic_infantry_bonus
			
			removal_cost = -1

			equipment_bonus = {
				infantry_equipment = {
					build_cost_ic = -0.1 instant = yes
				}
			}
		}

		FRA_fortification_focus = {
		
			allowed = {
				original_tag = FRA
				always = no
			}

			allowed_civil_war = {
				always = yes
			}
			
			removal_cost = -1

			modifier = {
				production_speed_bunker_factor = 0.1
				production_speed_coastal_bunker_factor = 0.1
			}
		}

		FRA_motorized_focus = {
		
			allowed = {
				original_tag = FRA
				always = no
			}

			allowed_civil_war = {
				always = yes
			}
			
			removal_cost = -1

			equipment_bonus = {
				motorized_equipment = {
					build_cost_ic = -0.1 instant = yes
				}
				mechanized_equipment = {
					build_cost_ic = -0.1 instant = yes
				}
			}
		}

		FRA_heavy_tank_production = {
			name = "Heavy Tank Production"
			picture = generic_production_bonus
			allowed = {
				original_tag = FRA
				always = no
			}

			allowed_civil_war = {
				always = yes
			}
			
			removal_cost = -1

			equipment_bonus = {
				heavy_tank_equipment = {
					build_cost_ic = -0.05 instant = yes
				}
			}
		}

		FRA_medium_tank_production = {
			name = "Medium Tank Production"
			picture = generic_production_bonus
			allowed = {
				
				always = no
			}

			allowed_civil_war = {
			
			}
			
			removal_cost = -1

			equipment_bonus = {
				medium_tank_equipment = {
					build_cost_ic = -0.05 instant = yes
				}
			}
		}

		FRA_support_the_left_focus = {
				picture = generic_communism_drift_bonus
				allowed = {
					always = no # Added via focus
				}

				allowed_civil_war = {
					NOT = {
						OR = {
							has_government = fascism
							AND = {
								NOT = { has_government = communism }
								any_other_country = {
									original_tag = FRA
									has_government = communism
								}
							}
						}
					}
				}

				modifier = {
					communism_drift = 0.2
				}
		}

		FRA_scw_intervention_republicans_focus = {
			picture = FRA_scw_intervention_republicans_focus
			allowed = {
				always = no
			}

			allowed_civil_war = {
				NOT = {
					has_government = fascism
				}
			}

			modifier = {
				send_volunteer_divisions_required = -0.5
				send_volunteers_tension = -0.5
			}
		}

		FRA_national_mobilization_focus = {
			allowed = {
				always = no
			}

			allowed_civil_war = {
				has_government = communism
			}

			modifier = {
				conscription = 0.01
				industrial_capacity_dockyard = 0.15
				industrial_capacity_factory = 0.15
				production_factory_efficiency_gain_factor = 0.15
			}
		}		
		FRA_support_the_centre_focus = {
				picture = generic_democratic_drift_bonus				
				allowed = {
					always = no # Added via focus
				}

				allowed_civil_war = {
					has_government = democratic
				}

				modifier = {
					democratic_drift = 0.2
				}
		}		

		FRA_strengthen_government_support_focus = {
				picture = generic_pp_unity_bonus
				allowed = {
					always = no # Added via focus
				}

				allowed_civil_war = {
					has_government = democratic
				}

				modifier = {
					stability_weekly = 0.002					
				}
		}		
		FRA_support_the_right_focus = {
				picture = generic_fascism_drift_bonus
				allowed = {
					always = no # Added via focus
				}
				allowed_civil_war = {
					NOT = {
						OR = {
							has_government = communism
							AND = {
								NOT = { has_government = fascism }
								any_other_country = {
									original_tag = FRA
									has_government = fascism
								}
							}
						}
					}
				}
				modifier = {
					fascism_drift = 0.2
				}
		}

		FRA_scw_intervention_nationalists_focus = {
			picture = FRA_scw_intervention_nationalists_focus
			allowed = {
				always = no
			}

			allowed_civil_war = {
				NOT = {
					has_government = communism
				}
			}

			modifier = {
				send_volunteer_divisions_required = -0.5
				send_volunteers_tension = -0.5
			}
		}
		FRA_army_of_aggression_focus = {
			picture = FRA_army_of_aggression_focus
			allowed = {
				always = no
			}

			allowed_civil_war = {
				has_government = fascism
			}

			modifier = {
				army_org = 5
				justify_war_goal_time = -0.25
			}
		}

		FRA_matignon_agreements = {
			picture = generic_production_bonus
			allowed = {
				always = no
			}

			allowed_civil_war = {
				NOT = {
					has_government = fascism
				}
			}

			modifier = {
				industrial_capacity_factory = -0.1
				industrial_capacity_dockyard = -0.1
				stability_factor = 0.1
				consumer_goods_factor = 0.05
			}
		}

		FRA_communism_banned = {
			picture = anti_soviet_pact
			allowed = {
				always = no
			}

			allowed_civil_war = {
				NOT = {
					has_government = communism
				}
			}

			modifier = {
				communism_drift = -0.25
			}
		}
		
	}

	# POLITICAL
	political_advisor = {
		

		georges_bonnet = {
			
			
			allowed = {
				original_tag = "FRA"
			}
			
			available = {
				has_government = democratic
			}
			cost = 75 
			traits = { appeaser }

			do_effect = {
				
			}

			ai_will_do = {
				factor = 1
			}
		}
		
		FRA_pierre_pucheu = {
			
			
			allowed = {
				original_tag = "FRA"
			}
			
			available = {
				not = { has_government = communism }
			}
			cost = 150 
			traits = { technocrat }

			do_effect = {
				
			}

			ai_will_do = {
				factor = 1
			}
		}

		FRA_gaston_henry_haye = {
			
			allowed = {
				original_tag = "FRA"
			}
			
			picture = generic_political_advisor_europe_5
			
			traits = { silent_workhorse }
	
			on_add = {
			}
	
			do_effect = {
			}
			
			ai_will_do = {
				factor = 1
			}
		}	



		FRA_vincent_auriol = {
			
			allowed = {
				original_tag = "FRA"
			}
			

			cost = 150
			traits = { financial_expert }
	
			on_add = {
			}
	
			do_effect = {
			}
			
			ai_will_do = {
				factor = 1
			}
		}

		

		FRA_zivony_peshkov = {
			
			allowed = {
				original_tag = "FRA"
			}
			
			picture = generic_army_europe_5
			
			traits = { war_industrialist }
	
			on_add = {
			}
	
			do_effect = {
			}
			
			ai_will_do = {
				factor = 1
			}
		}	

		FRA_felix_gouin = {
			
			allowed = {
				original_tag = "FRA"
			}
			
			picture = generic_political_advisor_europe_3
			
			traits = { captain_of_industry }
	
			on_add = {
			}
	
			do_effect = {
			}
			
			ai_will_do = {
				factor = 1
			}
		}	

		FRA_charles_tillon = {
			
			allowed = {
				original_tag = "FRA"
			}
			
			picture = generic_political_advisor_europe_3
			
			traits = { armaments_organizer }
	
			on_add = {
			}
	
			do_effect = {
			}
			
			ai_will_do = {
				factor = 1
			}
		}	

		
	}
		
	# MILITARY
	army_chief = {
		
		
		maurice_gamelin = {
			
			
			allowed = {
				original_tag = FRA
			}
			available = {
				has_completed_focus = FRA_appeal_to_the_french_nation
			}

			cost = 50
			
			traits = { army_chief_offensive_3 }
			
			ai_will_do = {
				factor = 1
			}
		}
		
		maxime_weygand = {
			
			
			allowed = {
				original_tag = FRA
			}
			available = {
				
			}

			cost = 50
			
			traits = { army_chief_offensive_1 }
			
			ai_will_do = {
				factor = 1
			}
		}
		
		alphonse_georges = {
			
			
			allowed = {
				original_tag = FRA
			}
			

			
			traits = { army_chief_maneuver_1 }
			
			ai_will_do = {
				factor = 1
			}
		}	
	}
	navy_chief = {
		
		francois_darlan = {
			
			
			allowed = {
				original_tag = FRA
			}
			

			
			traits = { navy_chief_decisive_battle_2 }
			
			ai_will_do = {
				factor = 1
			}
		}
		
		marcel_gensoul = {
			
			
			allowed = {
				original_tag = FRA
			}
			

			
			traits = { navy_chief_naval_aviation_1 }
			
			ai_will_do = {
				factor = 1
			}
		}
		
		jean_marie_abrial = {
			
			
			allowed = {
				original_tag = FRA
			}
			

			
			traits = { navy_chief_commerce_raiding_2 }
			
			ai_will_do = {
				factor = 1
			}
		}	
	}
	air_chief = {
			
		joseph_vuillemin = {
			
			
			allowed = {
				original_tag = FRA
			}
			

			
			traits = { air_chief_ground_support_1 }
			
			ai_will_do = {
				factor = 1
			}
		}
		
		robert_odic = {
			
			
			allowed = {
				original_tag = FRA
			}
			

			
			traits = { air_chief_all_weather_1 }
			
			ai_will_do = {
				factor = 1
			}
		}
		
	}
	
	high_command = {
		
		rene_prioux = {
			ledger = army
			
			
			allowed = {
				original_tag = FRA
			}
			available = {
				has_completed_focus = FRA_defensive_focus
			}

			
			traits = { army_infantry_2 }
			
			ai_will_do = {
				factor = 1
			}
		}
		
		charles_huntziger = {
			ledger = army
			
			
			allowed = {
				original_tag = FRA
			}
			

			
			traits = { army_armored_2 }
					
			ai_will_do = {
				factor = 1
			}
		}
		
		philippe_leclerc = {
			ledger = army
			
			
			allowed = {
				original_tag = FRA
			}
			

			
			traits = { army_regrouping_2 }
			
			ai_will_do = {
				factor = 1
			}
		}	
		
		jean_francois_jannekeyn = {
			ledger = air
			
			
			allowed = {
				original_tag = FRA
			}
			

			
			traits = { air_tactical_bombing_2 }
			
			ai_will_do = {
				factor = 1
			}
		}	
		
		jean_de_laborde = {
			ledger = navy
			
			
			allowed = {
				original_tag = FRA
			}
			

			
			traits = { navy_capital_ship_1 }
			
			ai_will_do = {
				factor = 1
			}
		}
		
	
		
		rene_emile_godfroy = {
			ledger = navy
			
			
			allowed = {
				original_tag = FRA
			}
			

			
			traits = { navy_screen_2 }
			
			ai_will_do = {
				factor = 1
			}
		}
	}
	
	materiel_manufacturer = {
			
		designer = yes
		
		somua = {
			on_add = { hidden_effect = { mech_designers_free = yes } }
			allowed = {
				original_tag = FRA
			}

			research_bonus = {
				motorized_equipment = 0.15
			}
			
			traits = { motorized_equipment_manufacturer }

		}
		
		mas = {
			on_add = { hidden_effect = { mech_designers_free = yes } }		
			allowed = {
				original_tag = FRA
			}
						
			research_bonus = {
				infantry_weapons = 0.15
			}
			
			traits = { infantry_equipment_manufacturer }
		}
	
		schneider = {
			on_add = { hidden_effect = { mech_designers_free = yes } }		
			allowed = {
				original_tag = FRA
			}		
			
			research_bonus = {
				artillery = 0.15
			}
			
			traits = { artillery_manufacturer }
		}
	}
	
	aircraft_manufacturer = {

		
	}
	naval_manufacturer = {

		designer = yes
		
		fcm = {
						
			allowed = {
				original_tag = FRA
			}
						
			research_bonus = {
				naval_equipment = 0.15
			}
			
			traits = { mediterranean_naval_manufacturer }
		}
		aeb = {
			picture = FRA_aeb		
			allowed = {
				original_tag = FRA
			}
						
			research_bonus = {
				naval_equipment = 0.15
			}
			
			traits = { convoy_escort_naval_manufacturer }
		}
		acl = {
			picture = FRA_acl	
			allowed = {
				original_tag = FRA
			}
						
			research_bonus = {
				naval_equipment = 0.15
			}
			
			traits = { atlantic_fleet_naval_manufacturer }
		}
		acf = {
			picture = FRA_acf			
			allowed = {
				original_tag = FRA
			}
						
			research_bonus = {
				naval_equipment = 0.15
			}
			
			traits = { raiding_fleet_naval_manufacturer }
		}
	}
	
	industrial_concern = {	
		
		famh = {
						
			allowed = {
				original_tag = FRA
			}
						
			research_bonus = {
				industry = 0.15
			}
			
			traits = { industrial_concern }
		}

		FRA_renault_concern = {
			name = "Renault Civil Works"
			picture = renault
			allowed = {
				original_tag = FRA
			}
						
			research_bonus = {
				industry = 0.15
			}
			
			traits = { electronics_concern }
		}
	}
	
	
	theorist = {
		charles_de_gaulle = {
			ledger = army
						
			allowed = {
				original_tag = FRA
			}
			available = {
				has_completed_focus = "Adapt to new German Strategies"
			}
			
			cost = 75
						
			research_bonus = {
				land_doctrine = 0.35
			}
			
			traits = { blitzkrieg_theorist }

			ai_will_do = {
				factor = 1
				modifier = {
					factor = 0

					GER = { is_ai = yes }
					date < 1939.1.1
				}
			}

		}
		
		henri_giraud = {
			ledger = army
						
			allowed = {
				original_tag = FRA
			}
						
			research_bonus = {
				land_doctrine = 0.35
			}

			ai_will_do = {
				factor = 1
				modifier = {
					factor = 0

					GER = { is_ai = yes }
					date < 1939.1.1
				}
			}
			
			traits = { military_theorist }
		}
		
		jean_decoux = {
			ledger = navy
			
			
			allowed = {
				original_tag = FRA
			}
			
			
			research_bonus = {
				naval_doctrine = 0.10
			}
			
			traits = { naval_theorist }
		}
	}	
}