ideas = {
	
	country = {
		MAN_exiled_imperial_family = {

			allowed = {
				always = no
			}

			allowed_civil_war = {
				has_government = fascism
			}
			
			removal_cost = -1

			picture = state_shintoism
			
			modifier = {
				army_morale_factor = 0.1
				stability_factor = 0.1
				war_support_factor = 0.05
			}
		}

		MAN_banditry = {

			available = {
				OR = {
					has_country_flag = MAN_northern_bandits
					has_country_flag = MAN_eastern_bandits
					has_country_flag = MAN_western_bandits
				}
			}

			allowed = {
				always = no
			}

			allowed_civil_war = {
				original_tag = MAN
			}
			
			removal_cost = -1

			picture = chi_army_corruption2
			
			modifier = {
				stability_factor = -0.1
				war_support_factor = -0.1
			}
		}

		MAN_kwantung_veto = {

			allowed = {
				always = no
			}

			allowed_civil_war = {
				original_tag = MAN
			}
			
			removal_cost = -1

			picture = generic_secret_police
			
			modifier = {
				political_advisor_cost_factor = 0.25
				trade_laws_cost_factor = 0.25
				mobilization_laws_cost_factor = 0.25
				economy_cost_factor = 0.25
			}
		}

		MAN_low_legitimacy_5 = {
			
			name = MAN_low_legitimacy

			allowed = {
				always = no
			}

			allowed_civil_war = {
				original_tag = MAN
			}
			
			removal_cost = -1

			picture = man_low_legitimacy
			
			modifier = {
				stability_factor = -0.5
				war_support_factor = -0.5
			}
		}
		MAN_low_legitimacy_4 = {
			
			name = MAN_low_legitimacy

			allowed = {
				always = no
			}

			allowed_civil_war = {
				original_tag = MAN
			}
			
			removal_cost = -1

			picture = man_low_legitimacy2
			
			modifier = {
				stability_factor = -0.4
				war_support_factor = -0.4
			}
		}
		MAN_low_legitimacy_3 = {
			
			name = MAN_low_legitimacy

			allowed = {
				always = no
			}

			allowed_civil_war = {
				original_tag = MAN
			}
			
			removal_cost = -1

			picture = man_low_legitimacy3
			
			modifier = {
				stability_factor = -0.3
				war_support_factor = -0.3
			}
		}
		MAN_low_legitimacy_2 = {
			
			name = MAN_low_legitimacy

			allowed = {
				always = no
			}

			allowed_civil_war = {
				original_tag = MAN
			}
			
			removal_cost = -1

			picture = man_low_legitimacy4
			
			modifier = {
				stability_factor = -0.2
				war_support_factor = -0.2
			}
		}
		MAN_low_legitimacy_1 = {
			
			name = MAN_low_legitimacy

			allowed = {
				always = no
			}

			allowed_civil_war = {
				original_tag = MAN
			}
			
			removal_cost = -1

			picture = man_low_legitimacy5
			
			modifier = {
				stability_factor = -0.1
				war_support_factor = -0.1
			}
		}

		MAN_mukden_military_academy = {

			allowed = {
				always = no
			}

			allowed_civil_war = {
				original_tag = MAN
			}
			
			removal_cost = -1

			picture = generic_army_war_college
			
			modifier = {
				max_command_power = 25
			}
		}

		MAN_national_defense_state = {

			allowed = {
				always = no
			}

			allowed_civil_war = {
				original_tag = MAN
			}
			
			removal_cost = -1

			picture = ast_naval_auxiliary_patrol
			
			modifier = {
				industrial_capacity_factory = 0.1
			}
		}

		MAN_white_russian_advisers = {

			allowed = {
				always = no
			}

			allowed_civil_war = {
				original_tag = MAN
			}
			
			removal_cost = -1

			picture = generic_war_preparation
			
			modifier = {
				army_morale_factor = 0.05
				army_core_attack_factor = 0.05
				army_core_defence_factor = 0.05
			}
		}

		MAN_five_people_armies = {

			allowed = {
				always = no
			}

			allowed_civil_war = {
				original_tag = MAN
			}
			
			removal_cost = -1

			picture = generic_manpower_bonus
			
			modifier = {
				conscription = 0.02
			}
		}

		MAN_five_year_plan_air = {

			name = MAN_five_year_plan

			allowed = {
				always = no
			}

			allowed_civil_war = {
				original_tag = MAN
			}
			
			removal_cost = -1

			picture = man_five_year_plan_air
			
			research_bonus = { air_equipment = 0.1 }

			modifier = {
				production_speed_arms_factory_factor = 0.05
				production_speed_air_base_factor = 0.05
			}
		}
		MAN_five_year_plan_tank = {

			name = "Mengukuoan Workers"

			allowed = {
				always = no
			}

			allowed_civil_war = {
				original_tag = MAN
			}
			
			removal_cost = -1

			picture = man_five_year_plan_tank
			
			modifier = {
				production_speed_arms_factory_factor = 0.1
			}
		}

		MAN_research_bonus = {

			name = "Research & Education Department"

			allowed = {
				always = no
			}

			allowed_civil_war = {
				original_tag = MAN
			}
			
			removal_cost = -1

			picture = man_five_year_plan_tank
			
			modifier = {
				research_speed_factor = 0.05
			}
		}
		MAN_five_year_plan_industry = {

			name = MAN_five_year_plan

			allowed = {
				always = no
			}

			allowed_civil_war = {
				original_tag = MAN
			}
			
			removal_cost = -1

			picture = man_five_year_plan_industry
			
			research_bonus = { industry = 0.05 }
			modifier = {
				production_speed_industrial_complex_factor = 0.1
			}
		}
		MAN_underground_gun_shops = {

			allowed = {
				always = no
			}

			allowed_civil_war = {
				original_tag = MAN
			}
			
			removal_cost = -1

			picture = generic_central_management
			
			equipment_bonus = {
				infantry_equipment = {
					build_cost_ic = -0.25
					reliability = -0.4
					instant = yes
				}
			}
		}
		MAN_arms_seized_1 = {

			allowed = {
				always = no
			}

			allowed_civil_war = {
				original_tag = MAN
			}
			
			removal_cost = -1

			picture = generic_army_problems
			
			targeted_modifier = {
				tag = MAN
				attack_bonus_against = -0.1
				defense_bonus_against = -0.1
			}
		}
		MAN_arms_seized_2 = {

			allowed = {
				always = no
			}
			name = MAN_arms_seized_1
			allowed_civil_war = {
				original_tag = MAN
			}
			
			removal_cost = -1

			picture = generic_army_problems
			
			targeted_modifier = {
				tag = MAN
				attack_bonus_against = -0.25
				defense_bonus_against = -0.25
			}
		}
		MAN_arms_seized_3 = {

			allowed = {
				always = no
			}

			allowed_civil_war = {
				original_tag = MAN
			}
			
			removal_cost = -1
			name = MAN_arms_seized_1
			picture = generic_army_problems
			
			targeted_modifier = {
				tag = MAN
				attack_bonus_against = -0.4
				defense_bonus_against = -0.4
			}
		}

		MAN_bolster_nationalism = {

			allowed = {
				always = no
			}

			allowed_civil_war = {
				always = yes
			}
			
			removal_cost = -1

			picture = chi_war_of_resistance
			
			targeted_modifier = {
				tag = JAP
				attack_bonus_against = 0.1
				defense_bonus_against = 0.1
			}
		}
	}

	political_advisor = {

		MAN_Zheng_Jinghui = {
		name = "Zehng Jinghui"
			picture = generic_political_advisor_asia_1
			
			allowed = {
				original_tag = MAN
			}
			
			traits = { silent_workhorse }
		}


		MAN_megata_toshiro = {

			picture = generic_political_advisor_asia_2
			
			allowed = {
				original_tag = MAN
			}
			
			traits = { armaments_organizer }
		}

		MAN_nalan_kang_an = {

			picture = generic_political_advisor_asia_3
				
			allowed = {
				original_tag = MAN
			}
			
			traits = { war_industrialist }
		}

		MAN_songgotu_zhanshan = {

			picture = generic_political_advisor_asia_1
			
			allowed = {
				original_tag = MAN
			}

			available = {
				if = {
					limit = { has_dlc = "Waking the Tiger" }
				}
			}
			
			traits = { captain_of_industry }
		}
	}	

	army_chief = {

		MAN_guan_xingde = {
			
			picture = generic_army_asia_4

			allowed = {
				original_tag = MAN
			}
			
			traits = { army_chief_offensive_2 }
			
			ai_will_do = {
				factor = 1
			}
		}
	}

	air_chief = {
		
		MAN_nakajima_kesago = {

			picture = generic_air_asia_3
			
			allowed = {
				original_tag = MAN
			}
			
			traits = { air_chief_ground_support_2 }
			
			ai_will_do = {
				factor = 1
			}
		}

	}

	navy_chief = {
		
		MAN_yin_zuoqian = {

			picture = generic_navy_asia_3
			
			allowed = {
				original_tag = MAN
			}
			
			traits = { navy_chief_decisive_battle_1 }
			
			ai_will_do = {
				factor = 1
			}
		}

	}

	
	materiel_manufacturer = {
			
		designer = yes
		
		MAN_tokyo_arsenal = {
			on_add = { hidden_effect = { mech_designers_free = yes } }
			picture = tokyo_arsenal
			
			allowed = {
				original_tag = MAN
			}
			
			research_bonus = {
				infantry_weapons = 0.15
			}
			
			traits = { infantry_equipment_manufacturer }
		}
		
		MAN_nissan = {
			on_add = { hidden_effect = { mech_designers_free = yes } }
			picture = nissan
						
			allowed = {
				original_tag = MAN
			}
						
			research_bonus = {
				artillery = 0.15
			}
			
			traits = { artillery_manufacturer }
		}
	}

	high_command = {

		MAN_yonimitsu_kasahara = {
			ledger = army

			picture = generic_army_asia_3
			
			allowed = {
				original_tag = MAN
			}
			
			traits = { army_regrouping_2 }
			
			ai_will_do = {
				factor = 1
			}
		}

		MAN_kyoiji_tomonaga = {
			ledger = army

			picture = generic_air_asia_2
			
			allowed = {
				original_tag = MAN
			}
			
			traits = { army_infantry_2 army_commando_2}
			
			ai_will_do = {
				factor = 1
			}
		}

		MAN_hesehn_tiemei = {
			ledger = army

			picture = generic_army_asia_1
			
			allowed = {
				original_tag = MAN
			}
			
			traits = { army_armored_2 }
			
			ai_will_do = {
				factor = 1
			}
		}

		
	
		
		MAN_mitsuo_fuchida = {
			ledger = air
			
			
			allowed = {
				original_tag = JAP
			}
			

			
			traits = { air_tactical_bombing_2 }
			
			ai_will_do = {
				factor = 1
			}
		}
			
		MAN_soemu_toyoda = {
			ledger = navy
			
			
			allowed = {
				original_tag = JAP
			}
			

			
			traits = { navy_screen_2 navy_capital_ship_2 }
			
			ai_will_do = {
				factor = 1
			}
		}
	}



	theorist = {
		MAN_hung_zhehuang = {
			ledger = army

			picture = generic_army_asia_1
			
			allowed = {
				original_tag = MAN
			}
			
			research_bonus = {
				land_doctrine = 0.35
			}
			
			traits = { military_theorist }
		}

		MAN_xian_yuan = {
			ledger = navy

			picture = generic_navy_asia_1
			
			allowed = {
				original_tag = MAN
			}
			
			research_bonus = {
				naval_doctrine = 0.10
			}
			
			traits = { naval_theorist }
		}
	}

	aircraft_manufacturer = {
		designer = yes

	}
	industrial_concern = {
		MAN_south_manchuria_railway_company = {

			picture = generic_industrial_concern_2			
			
			available = {
				
			}

			allowed = {
				has_dlc = "Waking the Tiger"
				original_tag = MAN
			}

			traits = {
				construction_company
			}
			
			ai_will_do = {
				factor = 1
			}
		}

		MAN_kawasaki = {

			picture = kawasaki
			
			allowed = {
				original_tag = MAN
			}
			
			research_bonus = {
				industry = 0.15
			}
			
			traits = { industrial_concern }
		}
		
		
		MAN_sumitomo = {

			picture = sumitomo
						
			allowed = {
				original_tag = MAN
			}
						
			research_bonus = {
				electronics = 0.15
			}
			
			traits = { electronics_concern }
		}

		MAN_idemitsu_kosan = {
						
			picture = generic_industrial_concern_2
			
			allowed = {
				original_tag = MAN
			}
						
			research_bonus = {
				industry = 0.05
				synth_resources = 0.1
			}
			
			traits = { refinery_concern }
		}
	}


}