ideas = {

	country = {
		USA_war_plan_silver = {
			allowed = {
				always = no
			}
			picture = usa_island_hopping
			removal_cost = -1

			targeted_modifier = {
				tag = ITA
				attack_bonus_against = 0.1
			}
		}
		USA_defense_plan_silver = {
			allowed = {
				always = no
			}
			picture = usa_island_hopping
			removal_cost = -1

			targeted_modifier = {
				tag = ITA
				defense_bonus_against = 0.05
			}
		}

		USA_war_plan_black = {
			allowed = {
				always = no
			}
			picture = usa_island_hopping
			removal_cost = -1

			targeted_modifier = {
				tag = GER
				attack_bonus_against = 0.1
			}
		}
		USA_defense_plan_black = {
			allowed = {
				always = no
			}
			picture = usa_island_hopping
			removal_cost = -1

			targeted_modifier = {
				tag = GER
				defense_bonus_against = 0.05
			}
		}

		USA_war_plan_orange = {
			allowed = {
				always = no
			}
			picture = usa_island_hopping
			removal_cost = -1

			targeted_modifier = {
				tag = JAP
				attack_bonus_against = 0.1
			}
		}
		USA_defense_plan_orange = {
			allowed = {
				always = no
			}
			picture = usa_island_hopping
			removal_cost = -1

			targeted_modifier = {
				tag = JAP
				defense_bonus_against = 0.05
			}
		}


		USA_island_hopping1 = {
			allowed = {
				always = no
			}
			picture = usa_island_hopping
			removal_cost = -1

			modifier = {
				consumer_goods_factor = 0.15
				political_power_gain = -0.35
				war_support_factor = -0.20
				stability_factor = -0.20
			}
		}
		USA_island_hopping2 = {
			allowed = {
				always = no
			}
			picture = usa_island_hopping
			removal_cost = -1

			modifier = {
				consumer_goods_factor = 0.10
				political_power_gain = -0.35
				war_support_factor = -0.20
				stability_factor = -0.20
			}
		}
		USA_island_hopping3 = {
			allowed = {
				always = no
			}
			picture = usa_island_hopping
			removal_cost = -1

			modifier = {
				consumer_goods_factor = 0.20
				political_power_gain = -0.25
				war_support_factor = -0.25
				stability_factor = -0.25
			}
		}
		USA_island_hopping4 = {
			allowed = {
				always = no
			}
			picture = usa_island_hopping
			removal_cost = -1

			modifier = {
				consumer_goods_factor = 0.10
				political_power_gain = -0.20
				war_support_factor = -0.20
				stability_factor = -0.20
				army_core_attack_factor = -0.2
				army_core_defence_factor = -0.2 
				industrial_capacity_factory = -0.10
			}
			targeted_modifier = {
				tag = GER
				attack_bonus_against = -0.15
				defense_bonus_against = -0.15
			}
			targeted_modifier = {
				tag = ITA
				attack_bonus_against = -0.15
				defense_bonus_against = -0.15
			}
			targeted_modifier = {
				tag = SPR
				attack_bonus_against = -0.15
				defense_bonus_against = -0.15
			}
			targeted_modifier = {
				tag = ROM
				attack_bonus_against = -0.15
				defense_bonus_against = -0.15
			}
			targeted_modifier = {
				tag = HUN
				attack_bonus_against = -0.15
				defense_bonus_against = -0.15
			}
			targeted_modifier = {
				tag = BUL
				attack_bonus_against = -0.15
				defense_bonus_against = -0.15
			}			
		}
		USA_island_hopping5 = {
			allowed = {
				always = no
			}
			picture = usa_island_hopping
			removal_cost = -1

			modifier = {
				consumer_goods_factor = 0.05
				political_power_gain = -0.15
				war_support_factor = -0.15
				stability_factor = -0.15
				army_core_attack_factor = -0.1
				army_core_defence_factor = -0.1 
				industrial_capacity_factory = -0.05
			}
			targeted_modifier = {
				tag = GER
				attack_bonus_against = -0.1
				defense_bonus_against = -0.1
			}
			targeted_modifier = {
				tag = ITA
				attack_bonus_against = -0.1
				defense_bonus_against = -0.1
			}
			targeted_modifier = {
				tag = SPR
				attack_bonus_against = -0.1
				defense_bonus_against = -0.1
			}
			targeted_modifier = {
				tag = ROM
				attack_bonus_against = -0.1
				defense_bonus_against = -0.1
			}
			targeted_modifier = {
				tag = HUN
				attack_bonus_against = -0.1
				defense_bonus_against = -0.1
			}
			targeted_modifier = {
				tag = BUL
				attack_bonus_against = -0.1
				defense_bonus_against = -0.1
			}	
		}
		USA_island_hopping6 = {
			allowed = {
				always = no
			}
			picture = usa_island_hopping
			removal_cost = -1

			modifier = {
				consumer_goods_factor = 0.025
				political_power_gain = -0.1
				war_support_factor = -0.10
				stability_factor = -0.10
			}
			targeted_modifier = {
				tag = GER
				attack_bonus_against = -0.05
				defense_bonus_against = -0.05
			}
			targeted_modifier = {
				tag = ITA
				attack_bonus_against = -0.05
				defense_bonus_against = -0.05
			}
			targeted_modifier = {
				tag = SPR
				attack_bonus_against = -0.05
				defense_bonus_against = -0.05
			}
			targeted_modifier = {
				tag = ROM
				attack_bonus_against = -0.05
				defense_bonus_against = -0.05
			}
			targeted_modifier = {
				tag = HUN
				attack_bonus_against = -0.05
				defense_bonus_against = -0.05
			}
			targeted_modifier = {
				tag = BUL
				attack_bonus_against = -0.05
				defense_bonus_against = -0.05
			}		
		}
		USA_island_hopping7 = {
			allowed = {
				always = no
			}
			picture = usa_island_hopping
			removal_cost = -1

			modifier = {
			    consumer_goods_factor = 0.01
				political_power_gain = -0.05
				war_support_factor = -0.05
				stability_factor = -0.05
				army_core_attack_factor = 0.25
				army_core_defence_factor = 0.25
			}
			targeted_modifier = {
				tag = GER
				attack_bonus_against = -0.025
				defense_bonus_against = -0.025
			}
			targeted_modifier = {
				tag = ITA
				attack_bonus_against = -0.025
				defense_bonus_against = -0.025
			}
			targeted_modifier = {
				tag = SPR
				attack_bonus_against = -0.025
				defense_bonus_against = -0.025
			}
			targeted_modifier = {
				tag = ROM
				attack_bonus_against = -0.025
				defense_bonus_against = -0.025
			}
			targeted_modifier = {
				tag = HUN
				attack_bonus_against = -0.025
				defense_bonus_against = -0.025
			}
			targeted_modifier = {
				tag = BUL
				attack_bonus_against = -0.025
				defense_bonus_against = -0.025
			}
		}
		USA_island_hopping8 = {
			allowed = {
				always = no
			}
			picture = usa_island_hopping
			removal_cost = -1

			modifier = {
				political_power_gain = 0
				war_support_factor = 0
				stability_factor = 0
				army_core_attack_factor = 0.5
				army_core_defence_factor = 0.5
			}
		}
		USA_island_hopping9 = {
			allowed = {
				always = no
			}
			picture = usa_island_hopping
			removal_cost = -1

			modifier = {
				consumer_goods_factor = -0.01
				political_power_gain = 0.05
				war_support_factor = 0.05
				stability_factor = 0.05
				army_core_attack_factor = 0.6
				army_core_defence_factor = 0.6
			}
		}
		USA_island_hopping10 = {
			allowed = {
				always = no
			}
			picture = usa_island_hopping
			removal_cost = -1

			modifier = {
				consumer_goods_factor = -0.02
				political_power_gain = 0.10
				war_support_factor = 0.10
				stability_factor = 0.10
				army_core_attack_factor = 0.7
				army_core_defence_factor = 0.7
			}
		}
		USA_island_hopping11 = {
			allowed = {
				always = no
			}
			picture = usa_island_hopping
			removal_cost = -1

			modifier = {
				consumer_goods_factor = -0.03
				political_power_gain = 0.15
				war_support_factor = 0.15
				stability_factor = 0.15
				army_core_attack_factor = 0.8
				army_core_defence_factor = 0.8
			}
		}
		USA_island_hopping12 = {
			allowed = {
				always = no
			}
			picture = usa_island_hopping
			removal_cost = -1

			modifier = {
				consumer_goods_factor = -0.04
				political_power_gain = 0.20
				war_support_factor = 0.20
				stability_factor = 0.20
				army_core_attack_factor = 0.8
				army_core_defence_factor = 0.8
			}
		}
		USA_island_hopping13 = {
			allowed = {
				always = no
			}
			picture = usa_island_hopping
			removal_cost = -1

			modifier = {
			consumer_goods_factor = -0.05
				political_power_gain = 0.25
				war_support_factor = 0.25
				stability_factor = 0.25
				army_core_attack_factor = 0.8
				army_core_defence_factor = 0.8
			}
		}
		USA_island_hopping14 = {
			allowed = {
				always = no
			}
			picture = usa_island_hopping
			removal_cost = -1

			modifier = {
				consumer_goods_factor = -0.06
				political_power_gain = 0.30
				war_support_factor = 0.18
				stability_factor = 0.18
				army_core_attack_factor = 0.8
				army_core_defence_factor = 0.8
			}
		}
		USA_island_hopping15 = {
			allowed = {
				always = no
			}
			picture = usa_island_hopping
			removal_cost = -1

			modifier = {
				consumer_goods_factor = -0.07
				political_power_gain = 0.35
				war_support_factor = 0.20
				stability_factor = 0.20
				army_core_attack_factor = 0.8
				army_core_defence_factor = 0.8
			}
		}

		"Depression Cooldown" = {
			picture = usa_department_of_defense
			allowed = {
				always = no
			}

			allowed_civil_war = {
				always = yes
			}

			removal_cost = -1
		}
		great_depression = {
			picture = usa_great_depression_3
			
			allowed = {
				always = no
			}

			allowed_civil_war = {
				always = yes
			}

			removal_cost = -1
			
			modifier = {
				political_power_cost = 1
				production_speed_industrial_complex_factor = 0.5
				conversion_cost_mil_to_civ_factor = 0.4
				consumer_goods_factor = 0.3
				conscription_factor = -0.5
				industrial_capacity_factory = -0.2
			}
		}
		great_depression_2 = {
			picture = usa_great_depression_2
			
			allowed = {
				always = no
			}

			allowed_civil_war = {
				always = yes
			}

			removal_cost = -1
			
			modifier = {
				political_power_cost = 0.65
				production_speed_industrial_complex_factor = 0.5
				consumer_goods_factor = 0.25
				conscription_factor = -0.4
				industrial_capacity_factory = -0.1
			}
		}
		great_depression_3 = {
			picture = usa_great_depression
			
			allowed = {
				always = no
			}

			allowed_civil_war = {
				always = yes
			}

			removal_cost = -1
			
			modifier = {
				political_power_cost = 0.25
				production_speed_industrial_complex_factor = 0.1
				consumer_goods_factor = 0.175
				conscription_factor = -0.2
				industrial_capacity_factory = 0.1
			}
		}
		USA_limited_intervention = {
			picture = generic_production_bonus
			
			allowed = {
				always = no
			}

			allowed_civil_war = {
				has_government = democratic
			}

			removal_cost = -1
			
			modifier = {
				join_faction_tension = -0.25
				send_volunteers_tension = -0.35
				guarantee_tension = -0.2
				mobilization_laws_cost_factor = 1
				economy_cost_factor = 1
			}
		}
		USA_neutrality_act = {
			picture = generic_production_bonus
			
			allowed = {
				always = no
			}

			allowed_civil_war = {
				has_government = democratic
			}

			removal_cost = -1
			
			modifier = {
				join_faction_tension = 0.25
				send_volunteers_tension = 0.5
				guarantee_tension = 0.5
			}
		}
		# version if player went down limited intervention
		USA_lend_lease_act_li = {
			picture = generic_production_bonus
			name = USA_lend_lease_act
			allowed = {
				always = no
			}

			allowed_civil_war = {
				has_government = democratic
			}

			removal_cost = -1
			
			modifier = {
				lend_lease_tension = -1
				join_faction_tension = -0.25
				send_volunteers_tension = -0.35
				guarantee_tension = -0.2
				mobilization_laws_cost_factor = 1
				economy_cost_factor = 1
			}
		}
		USA_lend_lease_act_na = {# version if player went down neutrality act
			picture = generic_production_bonus
			name = USA_lend_lease_act
			allowed = {
				always = no
			}

			allowed_civil_war = {
				has_government = democratic
			}

			removal_cost = -1
			
			modifier = {
				lend_lease_tension = -1
				join_faction_tension = 0.25
				send_volunteers_tension = 0.5
				guarantee_tension = 0.5
			}
		}
		USA_lend_lease_act_dummy = { #dummy version to show effects
			picture = generic_production_bonus
			name = USA_lend_lease_act
			allowed = {
				always = no
			}

			allowed_civil_war = {
				has_government = democratic
			}

			removal_cost = -1
			
			modifier = {
				lend_lease_tension = -1
			}
		}
		USA_accumulated_wealth_tax_act = {
			picture = generic_foreign_capital
			
			allowed = {
				always = no
			}

			allowed_civil_war = {
				always = yes
			}

			removal_cost = -1
			
			modifier = {
				consumer_goods_factor = -0.05
			}
		}

		USA_intervention_in_the_americas = {
			picture = generic_war_preparation
			
			allowed = {
				always = no
			}

			allowed_civil_war = {
				always = yes
			}

			removal_cost = -1
			
			modifier = {
				planning_speed = 0.05
			}
		}
		USA_intervention_in_europe = {
			picture = generic_fortify_the_borders
			
			allowed = {
				always = no
			}

			allowed_civil_war = {
				always = yes
			}

			removal_cost = -1
			
			modifier = {
				command_power_gain_mult = 0.1	
			}
		}
		USA_airborne_divisions = {
			picture = usa_airborne_divisions
			
			allowed = {
				always = no
			}

			allowed_civil_war = {
				always = yes
			}

			removal_cost = -1
			
			modifier = {
				special_forces_cap = 0.05	
			}
		}
		USA_womens_armed_service_integration_act = {
			
			picture = eng_imperial_conscription
			
			allowed = {
				always = no
			}

			allowed_civil_war = {
				always = yes
			}

			removal_cost = -1
			
			modifier = {
				conscription = 0.02	
			}
		}
		USA_war_department = {	
			picture = usa_war_department
			allowed = {
				always = no
			}

			allowed_civil_war = {
				always = yes
			}

			removal_cost = -1
			
			modifier = {
				max_command_power = 25	
			}
		}
		USA_department_of_defense = {	
			picture = usa_department_of_defense
			allowed = {
				always = no
			}

			allowed_civil_war = {
				always = yes
			}

			removal_cost = -1
			
			modifier = {
				max_command_power = 50	
			}
		}
		USA_state_funds_refused = {
			picture = mex_callistas
			allowed = {
				always = no
			}

			allowed_civil_war = {
				always = yes
			}

			removal_cost = -1
			
			modifier = {
				consumer_goods_factor = 0.05	
			}
		}
		USA_the_pentagon = {
			picture = generic_army_war_college
			allowed = {
				always = no
			}

			allowed_civil_war = {
				always = yes
			}

			removal_cost = -1
			
			modifier = {
				planning_speed = 0.1	
			}
		}
		USA_maritime_commission = {
			picture = generic_sea_focused_navy
			allowed = {
				always = no
			}

			allowed_civil_war = {
				always = yes
			}

			removal_cost = -1
			
			modifier = {
				production_speed_dockyard_factor = 0.2
			}
		}
		USA_us_air_force = {
			picture = usa_us_air_force
			allowed = {
				always = no
			}

			allowed_civil_war = {
				always = yes
			}

			removal_cost = -1
			
			research_bonus = {
				air_doctrine = 0.10
			}

			modifier = {
				
			}
		}

		USA_homeland_defense = {
			picture = YUG_federal_defense_council
			allowed = {
				always = no
			}
			allowed_civil_war = {
				always = no
			}

			removal_cost = -1

			

			modifier = {
				army_core_defence_factor = 0.2
				army_core_attack_factor = 0.2
			}
		}
		USA_armed_forces_desegregation = {
			
			picture = usa_desegregation_1
			allowed = {
				always = no
			}

			allowed_civil_war = {
				OR = {
					has_government = communism
					has_government = democratic
				}
			}

			removal_cost = -1
			
			modifier = {
				conscription = 0.02	
			}
		}
		USA_full_desegregation = {
			picture = usa_desegregation_2
			allowed = {
				always = no
			}

			allowed_civil_war = {
				OR = {
					has_government = communism
					has_government = democratic
				}
			}

			removal_cost = -1
			
			modifier = {
				conscription = 0.02	
				conscription_factor = 0.2
			}
		}
		USA_worker_management_act = {
			picture = generic_production_bonus
			
			allowed = {
				always = no
			}

			allowed_civil_war = {
				OR = {
					has_government = communism
					has_government = democratic
				}
			}

			removal_cost = -1
			
			modifier = {
				industrial_capacity_factory = 0.05	
			}
		}
		USA_labour_management_relations_act = {
			picture = generic_disjointed_gov
			
			allowed = {
				always = no
			}

			allowed_civil_war = {
				always = yes
			}

			removal_cost = -1
			
			modifier = {
				production_factory_max_efficiency_factor = 0.05	
			}
		}
		USA_militia_organization_act = {
			
			picture = generic_manpower_bonus
			allowed = {
				always = no
			}

			allowed_civil_war = {
				always = yes
			}

			removal_cost = -1
			
			modifier = {
				training_time_army_factor = -0.1
			}
		}
		USA_gold_standard = {
			
			picture = generic_goods_red_bonus
			allowed = {
				always = no
			}

			allowed_civil_war = {
				always = yes
			}

			removal_cost = -1
			
			modifier = {
				consumer_goods_factor = 0.05
				stability_factor = 0.1
			}
		}
		USA_magic = {	
			picture = usa_magic
			allowed = {
				always = no
			}

			allowed_civil_war = {
				always = yes
			}

			removal_cost = -1
			
			modifier = {
				spotting_chance = 0.2
			}
		}
		USA_banking_sector_deregulation = {	
			picture = generic_foreign_capital
			allowed = {
				always = no
			}

			allowed_civil_war = {
				always = yes
			}

			removal_cost = -1
			
			modifier = {
				production_speed_industrial_complex_factor = 0.1
				production_speed_arms_factory_factor = 0.1
			}
		}
		USA_privatization = {
			picture = man_five_year_plan_industry
			
			allowed = {
				always = no
			}

			allowed_civil_war = {
				always = yes
			}

			removal_cost = -1
			
			modifier = {
				production_speed_infrastructure_factor = 0.1
			}
		}
		USA_national_employment_strategy = {
			picture = man_five_year_plan_industry
			allowed = {
				always = no
			}

			allowed_civil_war = {
				always = yes
			}

			removal_cost = -1
			
			modifier = {
				production_speed_industrial_complex_factor = 0.1
				production_speed_arms_factory_factor = 0.1
				production_factory_efficiency_gain_factor = 0.1
			}
		}
		USA_war_powers_act = {
			picture = generic_reserve_divisions
			allowed = {
				always = no
			}

			allowed_civil_war = {
				always = yes
			}

			removal_cost = -1
			
			modifier = {
				defensive_war_stability_factor = 0.2
				offensive_war_stability_factor = 0.2
			}
		}
		USA_army_of_the_united_states = {
			picture = HUN_secret_rearmament
			allowed = {
				always = no
			}

			allowed_civil_war = {
				always = yes
			}

			removal_cost = -1
			
			modifier = {
				mobilization_speed = 0.2
			}
		}
		new_deal = {
			
			
			allowed = {
				always = no
			}

			allowed_civil_war = {
				has_government = democratic
			}

			removal_cost = -1
			
			modifier = {
				production_speed_infrastructure_factor = 0.2
				stability_factor = 0.10
			}
		}

		wilkies_new_deal = {
			
			
			allowed = {
				always = no
			}

			allowed_civil_war = {
				has_government = democratic
			}

			removal_cost = -1
			
			modifier = {
				production_speed_infrastructure_factor = 0.1
				stability_factor = 0.05
				drift_defence_factor = 0.2
			}
		}
		
		full_employment = {
			
			
			allowed = {
				always = no
			}

			allowed_civil_war = {
				always = yes
			}

			removal_cost = -1

			picture = generic_pp_unity_bonus
			
			modifier = {
				political_power_cost = 1
			}
		}
		
		
		wartime_industry_focus = {
			allowed = {
				always = no
			}

			allowed_civil_war = {
				always = yes
			}

			removal_cost = -1

			picture = generic_production_bonus

			modifier = {
				conversion_cost_civ_to_mil_factor= -0.5
			}
		}
	
		bureau_of_ships_focus = {
			
			
			allowed = {
				always = no
			}

			allowed_civil_war = {
				always = yes
			}

			removal_cost = -1

			picture = generic_navy_bonus

			
			
			equipment_bonus = {

				ship_hull_heavy = {
					build_cost_ic = -0.1 instant = yes
				}
				ship_hull_carrier = {
					build_cost_ic = -0.1 instant = yes
				}
				ship_hull_cruiser = {
					build_cost_ic = -0.1 instant = yes
				}
				ship_hull_light = {
					build_cost_ic = -0.1 instant = yes
				}
				
			}
		}

		USA_unrestricted_submarine_warfare = {
			
			
			allowed = {
				always = no
			}

			allowed_civil_war = {
				always = yes
			}

			removal_cost = -1

			picture = generic_navy_bonus
			
			equipment_bonus = {

				submarine = {
					surface_detection = 0.1 instant = yes
					sub_visibility = -0.1 instant = yes
				}
			}
		}
			

		
		USA_prepare_intervention = {
			
			
			allowed = {
				always = no
			}

			allowed_civil_war = {
				always = yes
			}

			removal_cost = -1

			picture = FRA_scw_intervention_nationalists_focus
			
			modifier = {
				lend_lease_tension = -0.15
			}
		}
		
		limited_interventionism = {
			
			
			allowed = {
				always = no
			}

			allowed_civil_war = {
				always = yes
			}

			removal_cost = -1

			picture = generic_volunteer_expedition_bonus
			
			modifier = {
				send_volunteers_tension = -0.20
				send_volunteer_divisions_required = -0.25
			}
		}


		combined_bomber_offensive = {
		name = "American Fighter Engineering"	
			allowed = {
				always = no
			}

			allowed_civil_war = {
				always = yes
			}

			removal_cost = -1

			picture = generic_air_bonus
			
			equipment_bonus = {
				fighter_equipment = {
					air_range = 0.1 instant = yes
				}	
			}
		}

		office_of_strategic_services = {
			allowed = {
				always = no
			}

			allowed_civil_war = {
				has_government = democratic
			}

			removal_cost = -1
			
			research_bonus = {
				decryption_tech = 0.05
				encryption_tech = 0.05
			}			

			modifier = {
				decryption_factor = 0.2
			}
		}

		office_of_strategic_services_lar = {
			name = office_of_strategic_services
			picture = office_of_strategic_services
			allowed = {
				always = no
			}

			allowed_civil_war = {
				has_government = democratic
			}

			removal_cost = -1			

			modifier = {

			}
		}

		USA_black_chamber = {

			picture = office_of_strategic_services
			allowed = {
				always = no
			}

			allowed_civil_war = {
				has_government = democratic
			}

			removal_cost = -1			

			modifier = {
				propaganda_mission_factor = 0.25
				boost_ideology_mission_factor = 0.25
			}
		}

		war_bonds_focus = {
			allowed = {
				always = no
			}

			allowed_civil_war = {
				has_government = democratic
			}
			removal_cost = -1

			picture = generic_goods_red_bonus
			
			modifier = {
				consumer_goods_factor = -0.05
			}
		}
		USA_adjusted_compensation_payment = {
			allowed = {
				always = no
			}

			allowed_civil_war = {
				has_government = democratic
			}
			removal_cost = -1

			picture = generic_goods_red_bonus
			
			modifier = {
				consumer_goods_factor = 0.05
			}
		}

		liberty_ships_focus = {
			
			allowed = {
				always = no
			}

			allowed_civil_war = {
				always = yes
			}
			
			removal_cost = -1
			
			modifier = {
				amphibious_invasion = 0.10
			}
			equipment_bonus = {
				convoy = {
					instant = yes
					build_cost_ic = -0.25
				}
			}
		}

		air_war_plans_division_focus = {
			
			allowed = {
				always = no
			}

			allowed_civil_war = {
				always = yes
			}
			
			removal_cost = -1
		
			equipment_bonus = {
				fighter_equipment = {
					build_cost_ic = -0.1 instant = yes
				}
				heavy_fighter_equipment = {
					build_cost_ic = -0.1 instant = yes
				}
			}
		}

		air_support_focus = {
			
			allowed = {
				always = no
			}

			allowed_civil_war = {
				always = yes
			}
			
			removal_cost = -1
			
			equipment_bonus = {
				CAS_equipment = {
					build_cost_ic = -0.1 instant = yes
				}
			}
		}

		strategic_bombing_focus = {
			
			allowed = {
				always = no
			}

			allowed_civil_war = {
				always = yes
			}
			
			removal_cost = -1
			
			equipment_bonus = {
					tac_bomber_equipment = {
					build_cost_ic = -0.1 instant = yes
				}
			}
		}

		escort_effort_focus = {
			
			allowed = {
				original_tag = "USA"
			}

			allowed_civil_war = {
				always = yes
			}
			
			removal_cost = -1
			
			equipment_bonus = {
				ship_hull_light = {
					build_cost_ic = -0.35 instant = yes
				}
				
			}
			
		}
		USA_Solidify_numbers_advatage = {
			
			allowed = {
				original_tag = "USA"
			}

			allowed_civil_war = {
				always = yes
			}
			
			removal_cost = -1
			
			equipment_bonus = {
				ship_hull_heavy = {
					build_cost_ic = -0.10
				}				
			}
			modifier = {
				navy_capital_ship_attack_factor = -0.05
				navy_capital_ship_defence_factor = -0.075
			}
			
		}	
		USA_Super_Cruisers = {
			
			allowed = {
				original_tag = "USA"
			}
			
			allowed_civil_war = {
				always = yes
			}

		    removal_cost= -1

		    equipment_bonus = {

			    ship_hull_cruiser = {
				build_cost_ic= 0.1 instant = yes
				}
			}

			modifier = {
				navy_capital_ship_attack_factor = 0.05
				navy_capital_ship_defence_factor = 0.05
			}
		}
		USA_improved_destroyers={
			
			allowed={
				 original_tag= "USA"
			}
			allowed_civil_war = {
				always = yes
			}

		    removal_cost= -1

		    modifier = {
				navy_screen_attack_factor = 0.15


			}
			equipment_bonus = {
			    ship_hull_light ={
				build_cost_ic= 0.1 instant = yes
			}
		    }
			
		}

		USA_increase_shipbuilding_quality = {
			
			allowed = {
				original_tag = "USA"
			}

			allowed_civil_war = {
				always = yes
			}
			
			removal_cost = -1
			
			modifier = {
				navy_capital_ship_attack_factor = 0.075
				navy_capital_ship_defence_factor = 0.075
			}
			equipment_bonus = {
				capital_ship	= { build_cost_ic = 0.1 instant = yes }
			}
		}
		
		USA_Train_Carrier_Crew = {

			allowed = {
				always = no
			}

			removal_cost = -1
			modifier = {
				sortie_efficiency = 0.8
				naval_strike_attack_factor = 0.5
				naval_strike_targetting_factor = 0.2
				naval_strike_agility_factor = 0.2
			}
		}
		USA_Counter_Japaneese_strategies = {

			allowed = {
				always = no
			}

			removal_cost = -1
			modifier = {
				sortie_efficiency = 0.1
				navy_capital_ship_attack_factor = 0.05
			}
		}
		home_of_the_free = {
			
			allowed = {
				always = no
			}

			allowed_civil_war = {
				
			}
			
			removal_cost = -1

			picture = generic_pp_unity_bonus
			
			rule = {
				can_join_opposite_factions = no
				can_create_factions = yes
			}
			modifier = {
				lend_lease_tension = 1
			}
		}

		# idea for the protect Amercians focus - USA democratic
		american_influence_defence_democratic = {
			allowed = { always = no	}

			allowed_civil_war = {
				has_government = democratic
			}

			removal_cost = -1
			picture = generic_democratic_drift_bonus
			modifier = {
				drift_defence_factor = 0.5
			}
		}
		american_influence_drift_democratic = {
			allowed = { always = no	}

			allowed_civil_war = {
				has_government = democratic
			}

			removal_cost = -1
			picture = generic_democratic_drift_bonus
			modifier = {
				democratic_drift = 0.05
			}
		} 
		american_protection_defence_democratic = {
			allowed = { always = no	}

			allowed_civil_war = {
				has_government = democratic
			}

			removal_cost = -1
			picture = generic_intel_bonus
			modifier = {
				drift_defence_factor = 0.5
			}
		}
		american_protection_drift_democratic = {
			allowed = { always = no	}

			allowed_civil_war = {
				has_government = democratic
			}

			removal_cost = -1
			picture = generic_intel_bonus
			modifier = {
				democratic_drift = 0.05
			}			
		}
			# idea for the protect Amercians focus - USA communist
		american_influence_defence_communism = {
			allowed = { always = no	}

			allowed_civil_war = {
				has_government = communism
			}

			removal_cost = -1
			picture = generic_communism_drift_bonus
			modifier = {
				drift_defence_factor = 0.5
			}
		}
		american_influence_drift_communism = {
			allowed = { always = no	}

			allowed_civil_war = {
				has_government = communism
			}

			removal_cost = -1
			picture = generic_communism_drift_bonus
			modifier = {
				communism_drift = 0.05
			}
		} 
		american_protection_defence_communism = {
			allowed = { always = no	}

			allowed_civil_war = {
				has_government = communism
			}

			removal_cost = -1
			picture = generic_intel_bonus
			modifier = {
				drift_defence_factor = 0.5
			}
		}
		american_protection_drift_communism = {
			allowed = { always = no	}

			allowed_civil_war = {
				has_government = communism
			}

			removal_cost = -1
			picture = generic_intel_bonus
			modifier = {
				communism_drift = 0.05
			}			
		}
			# idea for the protect Amercians focus - USA fascist
		american_influence_defence_fascism = {
			allowed = { always = no	}

			allowed_civil_war = {
				has_government = fascism
			}

			removal_cost = -1
			picture = generic_fascism_drift_bonus
			modifier = {
				drift_defence_factor = 0.5
			}
		}
		american_influence_drift_fascism = {
			allowed = { always = no	}

			allowed_civil_war = {
				has_government = fascism
			}

			removal_cost = -1
			picture = generic_fascism_drift_bonus
			modifier = {
				fascism_drift = 0.05
			}
		} 
		american_protection_defence_fascism = {
			allowed = { always = no	}

			allowed_civil_war = {
				has_government = fascism
			}

			removal_cost = -1
			picture = generic_intel_bonus
			modifier = {
				drift_defence_factor = 0.5
			}
		}
		american_protection_drift_fascism = {
			allowed = { always = no	}

			allowed_civil_war = {
				has_government = fascism
			}

			removal_cost = -1
			picture = generic_intel_bonus
			modifier = {
				fascism_drift = 0.05
			}			
		}
		USA_world_police = {
			allowed = { always = no	}

			allowed_civil_war = {
				always = yes
			}

			removal_cost = -1
			picture = generic_volunteer_expedition_bonus
			modifier = {			
				justify_war_goal_time = -0.35
			}			
		}
		CSA_spirit_of_rebellion = {
			allowed = { always = no	}

			allowed_civil_war = {
				always = yes
			}

			removal_cost = -1
			picture = generic_volunteer_expedition_bonus
			modifier = {			
				army_core_attack_factor = 0.25
				army_core_defence_factor = 0.25
				training_time_factor = -0.5
				equipment_capture = 0.125
				consumer_goods_factor = -0.1	
				conscription_factor = 0.25
			}			
		}
	
	}
	
	
	
	
	political_advisor = {

		USA_robert_taft = {
			
			picture = generic_political_advisor_europe_1
			
			allowed = {
				original_tag = USA
			}
			
			traits = { silent_workhorse }
		}

		USA_henry_morgenthau = {
			picture = generic_political_advisor_europe_6
			
			allowed = {
				original_tag = USA
			}
			available = {
			}
			
			traits = { financial_expert }
		}

		USA_henry_stimson = {
			
			picture = generic_political_advisor_europe_2
			
			allowed = {
				original_tag = USA
			}
			
			traits = { war_industrialist }
		}

		USA_donald_trump = {
			
			picture = USA_political_advisor_donald_trump
			
			allowed = {
				original_tag = USA
			}
			
			traits = { railroad_enthusiast }
		}

	}
	

	army_chief = {
		
	
		douglas_macarthur = {
			
			
			allowed = {
				original_tag = USA
			}
			available = {
				not = {
					has_country_leader = { ruling_only = yes name = "Douglas MacArthur"}
				}
			}

			
			traits = { army_chief_morale_2 }
			
			ai_will_do = {
				factor = 1
			}
		}
		
		george_marshall = {
			
			
			allowed = {
				original_tag = USA
			}
			

			
			traits = { army_chief_drill_2 }
			
			ai_will_do = {
				factor = 1
			}
		}
		
		dwight_eisenhower = {
			
			
			allowed = {
				original_tag = USA
			}
			

			
			traits = { army_chief_offensive_2 }
			
			ai_will_do = {
				factor = 1
			}
		}
		walter_krueger = {
			
			picture = USA_walter_krueger
			allowed = {
				original_tag = USA
			}
			available = {
			}
			

			
			traits = { army_chief_planning_2 }
			
			ai_will_do = {
				factor = 1
			}
		}	
	}
	
	air_chief = {
				
		carl_spaatz = {
			
			
			allowed = {
				original_tag = USA
			}
			

			
			traits = { air_chief_night_operations_2 }
			# TODO Strategic bombing secondary trait?
			
			ai_will_do = {
				factor = 1
			}
		}
		
		george_kenney = {
			
			
			allowed = {
				original_tag = USA
			}
			

			
			traits = { air_chief_safety_2 }
			
			ai_will_do = {
				factor = 1
			}
		}
		USA_charles_lindbergh = {
			
			picture = generic_air_europe_3
			allowed = {
				original_tag = USA
			}
			available = {
			}

			visible = {
				has_dlc = "Man the Guns"
			}

			cost = 50

			equipment_bonus = {
				fighter_equipment = {
					instant = yes
					fuel_consumption = -0.1
				}
				heavy_fighter_equipment = {
					instant = yes
					fuel_consumption = -0.1
				}
			}

			traits = {  }
			
			ai_will_do = {
				factor = 1
			}
		}	
	}
	
	navy_chief = {
	
		ernest_king = {
			
			
			allowed = {
				original_tag = USA
			}
			

			
			traits = { navy_chief_decisive_battle_2 }
			
			ai_will_do = {
				factor = 1
			}
		}
		
		chester_nimitz = {
			
			
			allowed = {
				original_tag = USA
			}
			

			
			traits = { navy_chief_commerce_raiding_2 }
			
			ai_will_do = {
				factor = 1
			}
		}
		
		william_halsey = {
			
			
			allowed = {
				original_tag = USA
			}
			

			
			traits = { navy_chief_maneuver_2  }
			
			ai_will_do = {
				factor = 1
			}
		}	
	}
	
	
	high_command = {
		courtney_hodges = {
			ledger = army
			
			
			allowed = {
				original_tag = USA
			}
			

			
			traits = { army_armored_2 }
			
			ai_will_do = {
				factor = 1
			}
		}
		
		
		mark_clark = {
			ledger = army
			
			
			allowed = {
				original_tag = USA
			}
			

			
			traits = { army_infantry_2 army_commando_2 }
			
			ai_will_do = {
				factor = 1
			}
		}	
	
		
		claire_lee_chennault = {
			ledger = air
			
			
			allowed = {
				original_tag = USA
			}
			

			
			traits = { air_tactical_bombing_2 }
			
			ai_will_do = {
				factor = 1
			}
		}
		
		raymond_spruance = {
			ledger = navy
			
			
			allowed = {
				original_tag = USA
			}
			

			
			traits = { navy_capital_ship_2 navy_screen_2 }
			
			ai_will_do = {
				factor = 1
			}
		}
		
		frank_jack_fletcher = {
			ledger = air
			
			
			allowed = {
				original_tag = USA
			}
			

			
			traits = { navy_carrier_2 }
			
			ai_will_do = {
				factor = 1
			}
		}
	}	
	
		
	tank_manufacturer = { 
	
		designer = yes

	}

	
	
	naval_manufacturer = { 
	
		designer = yes
		
		USA_yarrow_shipbuilders = {
			
			allowed = {
				original_TAG = USA
			}
			
			on_add = { hidden_effect = { naval_designers_free = yes } }
						
			research_bonus = {
				naval_equipment = 0.15
			}
			
			traits = { convoy_escort_naval_manufacturer }

		}
		
		USA_harland_wolff = {
			
			allowed = {
				original_TAG = USA
			}
						
			on_add = { hidden_effect = { naval_designers_free = yes } }
			
			research_bonus = {
				naval_equipment = 0.15
			}
			
			traits = { pacific_fleet_naval_manufacturer }
		}
		
		USA_cammell_laird = {
			
			allowed = {
				original_TAG = USA
			}
						
			on_add = { hidden_effect = { naval_designers_free = yes } }
			
			research_bonus = {
				naval_equipment = 0.15
			}
			
			traits = { atlantic_fleet_naval_manufacturer }
			
			modifier = {
			}
		}
		
		USA_john_brown_company = {
			
			allowed = {
				original_TAG = USA
			}
			
			on_add = { hidden_effect = { naval_designers_free = yes } }
			
			research_bonus = {
				naval_equipment = 0.15
			}
			
			traits = { coastal_defence_naval_manufacturer }
		}

		USA_electric_boat_company_american = {

			allowed = {
				original_TAG = USA
			}
			
			on_add = { hidden_effect = { naval_designers_free = yes } }

			research_bonus = {
				naval_equipment = 0.15
			}

			traits = { raiding_fleet_naval_manufacturer }
		}
		
	}
	
	aircraft_manufacturer = { 
		
		designer = yes
		
		north_american_aviation = {
			
			
			allowed = {
				original_tag = USA
			}
			

			
			research_bonus = {
				air_equipment = 0.15
			}
			
			traits = { light_aircraft_manufacturer }
			
			modifier = {
			}
		}
	}
	
	
	materiel_manufacturer = {
			
		designer = yes
		
		springfield_armory = {
			
			on_add = { hidden_effect = { mech_designers_free = yes } }
			allowed = {
				original_tag = USA
			}
			

			
			research_bonus = {
				infantry_weapons = 0.15
			}
			
			traits = { infantry_equipment_manufacturer }
			
			modifier = {
			}
		}
		
		ford_motor_company = {
			on_add = { hidden_effect = { mech_designers_free = yes } }
			
			allowed = {
				original_tag = USA
			}
			

			
			research_bonus = {
				motorized_equipment = 0.15
			}
			
			traits = { motorized_equipment_manufacturer }
			
			modifier = {
			}
		}
		
	
		
		rock_island_arsenal = {
			on_add = { hidden_effect = { mech_designers_free = yes } }
			
			allowed = {
				original_tag = USA
			}
			

			
			research_bonus = {
				artillery = 0.15
			}
			
			traits = { artillery_manufacturer }
			
			modifier = {
			}
		}
	}
	

	
	industrial_concern = {
					
		standard_oil_california = {
			
			
			allowed = {
				original_tag = USA
			}
			

			
			research_bonus = {
				industry = 0.05
				synth_resources = 0.15
			}
			
			traits = { refinery_concern }
			
			modifier = {
			}
		}
		
		general_electric = {
			
			
			allowed = {
				original_tag = USA
			}
			

			
			research_bonus = {
				electronics = 0.15
			}
			
			traits = { electronics_concern }
			
			modifier = {
			}
		}
		USA_general_motors = {
			
			picture = usa_general_motors
			allowed = {
				original_tag = USA
			}
			available = {
			}
			

			
			research_bonus = {
				industry = 0.15
			}
			
			traits = { industrial_concern }
			
			modifier = {
				industrial_capacity_factory = 0.05
			}
		}
	}
	
	
	theorist = {
		
		george_patton = {
			ledger = army
			
			
			allowed = {
				original_tag = USA
			}
			
			cost = 150
			
			research_bonus = {
				land_doctrine = 0.35
			}
			
			traits = { military_theorist }
		}
		
		dewitt_clinton_ramsey = {
			ledger = navy
			
			
			allowed = {
				original_tag = USA
			}
			

			
			research_bonus = {
				naval_doctrine = 0.10
			}
			
			traits = { naval_theorist }
		}
		
		robert_oppenheimer = {
			ledger = army
			
			
			allowed = {
				original_tag = USA
			}
			

			
			research_bonus = {
				nuclear = 0.15
			}
			
			traits = { nuclear_scientist }
		}
		
		robert_goddard = {
			ledger = air
			
			
			allowed = {
				original_tag = USA
			}
			

			
			research_bonus = {
				rocketry = 0.15
			}
			
			traits = { rocket_scientist }
		}
	}
	
}