﻿### search_filters = {FOCUS_FILTER_POLITICAL}
### search_filters = {FOCUS_FILTER_RESEARCH}
### search_filters = {FOCUS_FILTER_INDUSTRY}
### search_filters = {FOCUS_FILTER_STABILITY}
### search_filters = {FOCUS_FILTER_WAR_SUPPORT}
### search_filters = {FOCUS_FILTER_MANPOWER}
### search_filters = {FOCUS_FILTER_ANNEXATION}

focus_tree = {
	id = german_focus
	
	country = { 
		factor = 0
		
		modifier = {
			add = 10
			tag = GER
		}
	}
	continuous_focus_position = { x = 250 y = 1050 }
	
	default = no

	focus = {
		id = GER_four_year_plan 
		icon = GFX_goal_generic_construction
		mutually_exclusive = {
			focus = GER_focus_rushed_rearmament
		}
		x = 7
		y = 0
		cost = 10
		ai_will_do = {
			factor = 12
		}
		search_filters = { FOCUS_FILTER_RESEARCH FOCUS_FILTER_INDUSTRY }
		completion_reward = {
			add_ideas = GER_grosraumwirtschaft
			add_tech_bonus = {
				name = GER_four_year_plan
				bonus = 1.0
				uses = 2
				technology = assembly_line_production
				technology = streamlined_line
				technology = flexible_line
			
			}
		}
		
	}

	focus = {
		id = GER_focus_rushed_rearmament
		text = "Rushed Rearmament"
		icon = GFX_goal_generic_production
		mutually_exclusive = {
			focus = GER_four_year_plan
		}
		x = 9
		y = 0
		cost = 10
		ai_will_do = {
			factor = 12
		}
		search_filters = { FOCUS_FILTER_RESEARCH FOCUS_FILTER_INDUSTRY }
		completion_reward = {
			add_ideas = GER_rushed_rearmament 
			add_tech_bonus = {
				name = GER_four_year_plan
				bonus = 1.0
				uses = 2
				technology = assembly_line_production
				technology = streamlined_line
				technology = flexible_line
			
			}
		}
		
	}

	focus = {
		id = GER_west_wall
		icon = GFX_goal_generic_construct_military
		prerequisite = { focus = GER_four_year_plan focus = GER_focus_rushed_rearmament }
		x = -3
		y = 1
		relative_position_id = GER_four_year_plan
		cost = 5
		ai_will_do = {
			factor = 8
		}
			
		completion_reward = {
			50 = {
				if = {
					limit = { is_controlled_by = ROOT }
					custom_effect_tooltip = GER_west_wall_forts
					hidden_effect = {
						set_building_level = {
							type = bunker
							level = 5
							province = 11640
						}
						set_building_level = {
							type = bunker
							level = 5
							province = 6712
						}
						set_building_level = {
							type = bunker
							level = 5
							province = 6542
						}
						set_building_level = {
							type = bunker
							level = 5
							province = 3530
						}
					}
				}
			}
			42 = {
				custom_effect_tooltip = GER_west_wall_forts
			}
			hidden_effect = {
				42 = {
					if = {
						limit = { is_controlled_by = ROOT }
						set_building_level = {
							type = bunker
							level = 5
							province = 3558
						}
						
						set_building_level = {
							type = bunker
							level = 5
							province = 563
						}
						set_building_level = {
							type = bunker
							level = 5
							province = 11531
						}
						set_building_level = {
							type = bunker
							level = 5
							province = 9575
						}
					}
				}
			}			
		}
	}

	focus = {
		id = GER_atlantikwall
		icon = GFX_focus_generic_coastal_fort
		prerequisite = { focus = GER_west_wall }
		available = {
			OR = {
				has_full_control_of_state = 19
				has_full_control_of_state = 23
				has_full_control_of_state = 30
				has_full_control_of_state = 14
				has_full_control_of_state = 15
				has_full_control_of_state = 29
				has_full_control_of_state = 6
				has_full_control_of_state = 7
				has_full_control_of_state = 36
				has_full_control_of_state = 99
				has_full_control_of_state = 110
				has_full_control_of_state = 142
				has_full_control_of_state = 143
				has_full_control_of_state = 144
				has_full_control_of_state = 785
			}
		}
		cancel_if_invalid = yes
		x = -1
		y = 1
		relative_position_id = GER_west_wall
		cost = 5
		ai_will_do = {
			factor = 1
		}
		
		completion_reward = {
			add_ideas = GER_atlantikwall_idea
			custom_effect_tooltip = atlantikwall_tooltip
			hidden_effect = {
				every_state = { limit = { atlantikwall = yes }
				set_building_level = {
						type = anti_air_building
						level = 2
						instant_build = yes
					}
				set_building_level = {
						type = coastal_bunker
						level = 6
						province = {
							all_provinces = yes
							limit_to_coastal = yes
							level < 6
						}
					}
				}
			}
		}
	}

	focus = {
		id = GER_ostwall
		icon = GFX_goal_generic_fortify_city
		prerequisite = { focus = GER_west_wall }
		available = {
			any_country = {
				OR = {
					tag = GER
					is_in_faction_with = GER
				}
				OR = {
					has_full_control_of_state = 191
					has_full_control_of_state = 209
					has_full_control_of_state = 210
					has_full_control_of_state = 207
					has_full_control_of_state = 206
					has_full_control_of_state = 204
					has_full_control_of_state = 194
					has_full_control_of_state = 202
					has_full_control_of_state = 203
					has_full_control_of_state = 226
					has_full_control_of_state = 200
				}
			}
		}
		x = 1
		y = 1
		relative_position_id = GER_west_wall
		cost = 5
		ai_will_do = {
			factor = 1
		}
		
		completion_reward = {
			add_ideas = GER_ostwall_idea
			custom_effect_tooltip = GER_ostwall_forts
			custom_effect_tooltip = GER_ostwall_forts_2
			if = {
				limit = { 
					any_country = {
						OR = {
							tag = GER
							is_in_faction_with = GER
						}
						has_full_control_of_state = 191 
					}
				}
				hidden_effect = {
					191 = {
						add_building_construction = {
							type = bunker
							level = 2
							province = 4640
							instant_build = yes
						}
					}
				}
			}
			if = {
				limit = { 
					any_country = {
						OR = {
							tag = GER
							is_in_faction_with = GER
						}
						has_full_control_of_state = 209
					}
				}
				hidden_effect = {
					209 = {
						add_building_construction = {
							type = bunker
							level = 1
							province = 415
							instant_build = yes
						}
						add_building_construction = {
							type = bunker
							level = 1
							province = 3310
							instant_build = yes
						}
					}
				}
			}
			if = {
				limit = { 
					any_country = {
						OR = {
							tag = GER
							is_in_faction_with = GER
						}
						has_full_control_of_state = 210 
					}
				}
				hidden_effect = {
					210 = {
						add_building_construction = {
							type = bunker
							level = 1
							province = 3333
							instant_build = yes
						}
						add_building_construction = {
							type = bunker
							level = 1
							province = 11259
							instant_build = yes
						}
						add_building_construction = {
							type = bunker
							level = 1
							province = 9386
							instant_build = yes
						}
					}
				}
			}
			if = {
				limit = { 
					any_country = {
						OR = {
							tag = GER
							is_in_faction_with = GER
						}
						has_full_control_of_state = 207 
					}
				}
				hidden_effect = {
					207 = {
						add_building_construction = {
							type = bunker
							level = 1
							province = 323
							instant_build = yes
						}
						add_building_construction = {
							type = bunker
							level = 3
							province = 11241
							instant_build = yes
						}
						add_building_construction = {
							type = bunker
							level = 1
							province = 11220
							instant_build = yes
						}
						add_building_construction = {
							type = bunker
							level = 1
							province = 3331
							instant_build = yes
						}
					}
				}
			}
			if = {
				limit = { 
					any_country = {
						OR = {
							tag = GER
							is_in_faction_with = GER
						}
						has_full_control_of_state = 206 
					}
				}
				hidden_effect = {
					206 = {
						add_building_construction = {
							type = bunker
							level = 1
							province = 9289
							instant_build = yes
						}
						add_building_construction = {
							type = bunker
							level = 1
							province = 3378
							instant_build = yes
						}
					}
				}
			}
			if = {
				limit = { 
					any_country = {
						OR = {
							tag = GER
							is_in_faction_with = GER
						}
						has_full_control_of_state = 204 
					}
				}
				hidden_effect = {
					204 = {
						add_building_construction = {
							type = bunker
							level = 1
							province = 6373
							instant_build = yes
						}
					}
				}
			}
			if = {
				limit = { 
					any_country = {
						OR = {
							tag = GER
							is_in_faction_with = GER
						}
						has_full_control_of_state = 194 
					}
				}
				hidden_effect = {
					194 = {
						add_building_construction = {
							type = bunker
							level = 1
							province = 6319
							instant_build = yes
						}
						add_building_construction = {
							type = bunker
							level = 1
							province = 9249
							instant_build = yes
						}
						add_building_construction = {
							type = bunker
							level = 1
							province = 3507
							instant_build = yes
						}
					}
				}
			}
			if = {
				limit = { 
					any_country = {
						OR = {
							tag = GER
							is_in_faction_with = GER
						}
						has_full_control_of_state = 202 
					}
				}
				hidden_effect = {
					202 = {
						add_building_construction = {
							type = bunker
							level = 1
							province = 9568
							instant_build = yes
						}
						add_building_construction = {
							type = bunker
							level = 1
							province = 3543
							instant_build = yes
						}
						add_building_construction = {
							type = bunker
							level = 5
							province = 525
							instant_build = yes
						}
						add_building_construction = {
							type = bunker
							level = 1
							province = 3494
							instant_build = yes
						}
					}
				}
			}
			if = {
				limit = { 
					any_country = {
						OR = {
							tag = GER
							is_in_faction_with = GER
						}
						has_full_control_of_state = 203 
					}
				}
				hidden_effect = {
					203 = {
						add_building_construction = {
							type = bunker
							level = 1
							province = 11454
							instant_build = yes
						}
						add_building_construction = {
							type = bunker
							level = 1
							province = 488
							instant_build = yes
						}
						add_building_construction = {
							type = bunker
							level = 1
							province = 3468
							instant_build = yes
						}
						add_building_construction = {
							type = bunker
							level = 1
							province = 6478
							instant_build = yes
						}
					}
				}
			}
			if = {
				limit = { 
					any_country = {
						OR = {
							tag = GER
							is_in_faction_with = GER
						}
						has_full_control_of_state = 226 
					}
				}
				hidden_effect = {
					226 = {
						add_building_construction = {
							type = bunker
							level = 1
							province = 9433
							instant_build = yes
						}
						add_building_construction = {
							type = bunker
							level = 3
							province = 11437
							instant_build = yes
						}
					}
				}
			}
			if = {
				limit = { 
					any_country = {
						OR = {
							tag = GER
							is_in_faction_with = GER
						}
						has_full_control_of_state = 200 
					}
				}
				hidden_effect = {
					200 = {
						add_building_construction = {
							type = bunker
							level = 3
							province = 11405
							instant_build = yes
						}
						add_building_construction = {
							type = bunker
							level = 1
							province = 6596
							instant_build = yes
						}
						add_building_construction = {
							type = bunker
							level = 1
							province = 11700
							instant_build = yes
						}
					}
				}
			}
		}
	}

	focus = {
		id = "Funkmessstellungen"
		icon = GFX_goal_generic_radar
		prerequisite = { focus = GER_west_wall }
		available = {
			OR = {
				has_tech = radio_detection
				has_full_control_of_state = 19
				has_full_control_of_state = 23
				has_full_control_of_state = 30
				has_full_control_of_state = 14
				has_full_control_of_state = 15
				has_full_control_of_state = 29
				has_full_control_of_state = 6
				has_full_control_of_state = 7
				has_full_control_of_state = 36
				has_full_control_of_state = 99
				has_full_control_of_state = 110
				has_full_control_of_state = 142
				has_full_control_of_state = 143
				has_full_control_of_state = 144
				has_full_control_of_state = 785
			}
		}
		cancel_if_invalid = yes
		x = 0
		y = 2
		relative_position_id = GER_west_wall
		cost = 5
		ai_will_do = {
			factor = 1
		}
		
		completion_reward = {
			add_timed_idea = {
				idea = GER_Funkmessgeraete
				days = 100
			} 
			14 = {
				add_building_construction = {
				type = radar_station
				level = 1
				instant_build = yes
			}		
			add_building_construction = {
				type = anti_air_building
				level = 2
				instant_build = yes
			}	
			}
			29 = {
				add_building_construction = {
				type = radar_station
				level = 1
				instant_build = yes
			}		
			add_building_construction = {
				type = anti_air_building
				level = 2
				instant_build = yes
			}	
			}
			7 = {
				add_building_construction = {
				type = radar_station
				level = 1
				instant_build = yes
			}		
			add_building_construction = {
				type = anti_air_building
				level = 2
				instant_build = yes
			}	
			}
			65 = {
				add_building_construction = {
				type = radar_station
				level = 1
				instant_build = yes
			}		
			add_building_construction = {
				type = anti_air_building
				level = 2
				instant_build = yes
			}	
			}
			
		}
	}

	focus = {
		id = GER_autarky
		icon = GFX_goal_generic_construct_civilian
		prerequisite = { focus = GER_four_year_plan focus = GER_focus_rushed_rearmament }
		x = 5
		y = 1
		relative_position_id = GER_four_year_plan
		cost = 10
		
		ai_will_do = {
			factor = 9
		}
		search_filters = { FOCUS_FILTER_RESEARCH FOCUS_FILTER_INDUSTRY }
		completion_reward = {
			add_tech_bonus = {
				name = GER_autarky
				bonus = 1.0
				uses = 2
				technology = excavation1
				technology = excavation2
				technology = excavation3
				technology = excavation4
				technology = excavation5
			}
			every_state = { 
				limit = { is_core_of = GER}
				add_state_modifier = { modifier = { local_building_slots_factor = 0.4  } }
				}
		swap_ideas = {	remove_idea = GER_autarky_idea	add_idea = GER_autarky_idea2	}	
		}
	}

	focus = {
		id = GER_hermann_goring_werke
		icon = GFX_goal_generic_construct_civ_factory
		prerequisite = { focus = GER_autarky }
		x = 3
		y = 1
		relative_position_id = GER_autarky
		cost = 10
		ai_will_do = {
			factor = 9
		}

		available_if_capitulated = no

		complete_tooltip = {
	
		}
		search_filters = { FOCUS_FILTER_INDUSTRY }
		completion_reward = {
			custom_effect_tooltip = GER_industry_first2
			if = {
				limit = { 
					NOT = {
						OR = {
							has_completed_focus = GER_manstein
							has_completed_focus = GER_guderian
						}
					}
				}
				52 = {
					add_extra_state_shared_building_slots = 8
					add_building_construction = {
					type = industrial_complex
					level = 8
					instant_build = yes 
				}
			}
			}
			else = {
				52 = {
				add_extra_state_shared_building_slots = 6
				add_building_construction = {
					type = industrial_complex
					level = 6
					instant_build = yes
				}
			}
			}
		}
	}

	focus = {
		id = GER_kdf_wagen
		icon = GFX_goal_generic_construct_civ_factory
		dynamic = yes
		prerequisite = { focus = GER_hermann_goring_werke }
		x = 0
		y = 1
		relative_position_id = GER_hermann_goring_werke
		cost = 10
		ai_will_do = {
			factor = 5
		}

		available_if_capitulated = no

		complete_tooltip = {

		}
		search_filters = { FOCUS_FILTER_INDUSTRY }
		completion_reward = {
			custom_effect_tooltip = GER_industry_first
			if = {
				limit = { 
					NOT = {
						OR = {
							has_completed_focus = GER_manstein
							has_completed_focus = GER_guderian
						}
					}
				}
				53 = {
					add_extra_state_shared_building_slots = 5
					add_building_construction = {
					type = industrial_complex
					level = 5
					instant_build = yes
				}
			}
			}
			else = {
				53 = {
				add_extra_state_shared_building_slots = 4
				add_building_construction = {
					type = industrial_complex
					level = 4
					instant_build = yes
				}
			}
			}
		}
	}

	focus = {
		id = GER_coal_liquidization
		icon = GFX_goal_generic_oil_refinery
		prerequisite = { focus = GER_autarky }
		x = 1
		y = 1
		relative_position_id = GER_autarky
		cost = 10
		ai_will_do = {
			factor = 4
		}

		available = {
			has_full_control_of_state = 65
		}
		search_filters = { FOCUS_FILTER_RESEARCH FOCUS_FILTER_INDUSTRY }
		completion_reward = {
			add_tech_bonus = {
				name = GER_coal_liquidization
				bonus = 3.0
				uses = 2
				category = synth_resources
			}
			42 = {
				add_building_construction = {
					type = synthetic_refinery
					level = 3
					instant_build = yes
				}
			}	
						51 = {
				add_building_construction = {
					type = synthetic_refinery
					level = 3
					instant_build = yes
		}
		}
		54 = {
				add_building_construction = {
					type = synthetic_refinery
					level = 3
					instant_build = yes
				}
			}
			
				62 = {
					add_building_construction = {
						type = synthetic_refinery
						level = 3
						instant_build = yes
					}
				}
								50 = {
					add_building_construction = {
						type = synthetic_refinery
						level = 3
						instant_build = yes
					}
			}
		63 = {
			add_building_construction = {
				type = synthetic_refinery
				level = 3
				instant_build = yes
			}
		}
	}
}
	
	focus = {
		id = GER_synthetic_rubber
		icon = GFX_focus_generic_rubber
		prerequisite = { focus = GER_coal_liquidization }
		x = 0
		y = 1
		relative_position_id = GER_coal_liquidization
		cost = 10
		ai_will_do = {
			factor = 4
		}
		search_filters = { FOCUS_FILTER_INDUSTRY }
		completion_reward = {
	
        	modify_building_resources = {
        	   building = synthetic_refinery
        	   resource = rubber
        	   amount = 3
        	}
		}
	}

	focus = {
		id = GER_extra_tech_slot
		icon = GFX_focus_research
		text = extra_tech_slot
		prerequisite = { focus = GER_kdf_wagen focus = GER_synthetic_rubber }
		x = -1
		y = 1
		relative_position_id = GER_kdf_wagen
		cost = 5
		ai_will_do = {
			factor = 1
		}

		available_if_capitulated = yes
		search_filters = { FOCUS_FILTER_RESEARCH }
		completion_reward = {
			add_research_slot = 1
		}
	}

	focus = {
		id = GER_autobahn
		icon = GER_Deutsches_Reichbahn
		prerequisite = { focus = GER_autarky }
		x = -1
		y = 1
		relative_position_id = GER_autarky
		cost = 5
		ai_will_do = {
			factor = 12
		}

		available = {
			
		}
		search_filters = { FOCUS_FILTER_INDUSTRY }
		completion_reward = {
			custom_effect_tooltip = GER_autobahn_tt
			hidden_effect = {
				64 = {
					if = {
						limit = { is_controlled_by = ROOT }
						add_building_construction = {
							type = infrastructure
							level = 10
							instant_build = yes
						}
					}
				}
				59 = {
					if = {
						limit = { is_controlled_by = ROOT }

						add_building_construction = {
							type = infrastructure
							level = 10
							instant_build = yes
						}
					}
				}
				60 = {
					if = {
						limit = { is_controlled_by = ROOT }
						add_building_construction = {
							type = infrastructure
							level = 10
							instant_build = yes
						}
					}
				}
				54 = {
					if = {
						limit = { is_controlled_by = ROOT }
						add_building_construction = {
							type = infrastructure
							level = 10
							instant_build = yes
						}
					}
				}
			}		
		}
	}

	focus = {
		id = GER_german_war_economy
		icon = GER_disperse_industry
		prerequisite = { focus = GER_autobahn }
		mutually_exclusive = {
			focus = GER_focus_civ_economy
		}
		x = -3
		y = 1
		relative_position_id = GER_autobahn
		cost = 5
		ai_will_do = {
			factor = 1
		}

		available_if_capitulated = no
		search_filters = { FOCUS_FILTER_INDUSTRY }
		completion_reward = {
			68 = {
				add_extra_state_shared_building_slots = 3
				add_building_construction = {
					type = synthetic_refinery
					level = 3
					instant_build = yes
				}
			}
			65 = {
				add_extra_state_shared_building_slots = 3
				add_building_construction = {
					type = synthetic_refinery
					level = 3
					instant_build = yes
				}
			}
			64 = {
				add_extra_state_shared_building_slots = 10
				add_building_construction = {
					type = arms_factory
					level = 10
					instant_build = yes
				}
			}
		}
	}
	

	focus = {
		id = GER_focus_civ_economy
		text = "The Volkswagen"
		icon = GER_KdF_Wagon
		mutually_exclusive = {
			focus = GER_german_war_economy
		}
		prerequisite = { focus = GER_autobahn }
		x = -1
		y = 1
		relative_position_id = GER_autobahn
		cost = 5
		ai_will_do = {
			factor = 1
		}

		available_if_capitulated = no
		
		search_filters = { FOCUS_FILTER_INDUSTRY }
		completion_reward = {
			42 = {
				add_extra_state_shared_building_slots = 6
				add_building_construction = {
					type = infrastructure
					level = 2
					instant_build = yes
				}
				add_building_construction = {
					type = industrial_complex
					level = 2
					instant_build = yes
				}
			}
			57 = {
				add_extra_state_shared_building_slots = 6
				add_building_construction = {
					type = infrastructure
					level = 2
					instant_build = yes
				}
				add_building_construction = {
					type = industrial_complex
					level = 2
					instant_build = yes
				}
			}
			65 = {
				add_extra_state_shared_building_slots = 6
				add_building_construction = {
					type = infrastructure
					level = 2
					instant_build = yes
				}
				add_building_construction = {
					type = industrial_complex
					level = 2
					instant_build = yes
				}
			}
		}
	}

	focus = {
		id = GER_focus_appoint_donald
		text = "Appoint Donald"
		icon = focus_GER_four_year_plan
		
		prerequisite = { focus = GER_focus_civ_economy }
		x = -1
		y = 2
		relative_position_id = GER_autobahn
		cost = 5
		ai_will_do = {
			factor = 1
		}

		available_if_capitulated = no
		
		search_filters = { FOCUS_FILTER_INDUSTRY }
		completion_reward = {
			remove_ideas = GER_hjalmar_schacht
			add_ideas = GER_macro_mann
		}
	}
	

	focus = {
		id = GER_focus_krupp
		text = "Expand the Essener Krupp-Gussstahlfabrik"
		icon = goal_GER_reichswerke
		
		prerequisite = { focus = GER_german_war_economy }
		x = -3
		y = 2
		relative_position_id = GER_autobahn
		cost = 5
		ai_will_do = {
			factor = 1
		}

		available_if_capitulated = no
		
		search_filters = { FOCUS_FILTER_INDUSTRY }
		completion_reward = {
			add_ideas = GER_krupp_mill 
			51 = {
				add_extra_state_shared_building_slots = 3
				add_building_construction = {
					type = infrastructure
					level = 1
					instant_build = yes
				}
				add_building_construction = {
					type = arms_factory
					level = 3
					instant_build = yes
				}
			}
		}
	}

	focus = {
		id = GER_focus_greater_german_reich
		icon = GER_bigreich
		x = 0
		y = 0 
		cost = 5
		ai_will_do = {
			factor = 1
		}
		available = {
			FRA = {
				has_country_flag = france_is_kill
			}
		}

		available_if_capitulated = no
		completion_reward = {
			set_cosmetic_tag = GER_greater_german_reich2
		}
	}

	focus = {
		id = GER_focus_the_new_berlin
		text = "A New Berlin"
		icon = GER_Reichstag
		prerequisite = { focus = GER_focus_greater_german_reich }
		x = -1
		y = 1 
		relative_position_id = GER_focus_greater_german_reich
		cost = 5
		ai_will_do = {
			factor = 1
		}
		available = {
			
		}

		available_if_capitulated = no
		completion_reward = {
			set_province_name = {
				id = 6521
				name = "Germania"
			}
			64 = {
				add_extra_state_shared_building_slots = 8
			}
		}
	}
 
	focus = {
		id = GER_focus_expand_the_welthauptstadt
		text = "Expand The Welthauptstadt"
		icon = GER_Germania
		prerequisite = { focus = GER_focus_the_new_berlin }
		x = -1
		y = 2 
		relative_position_id = GER_focus_greater_german_reich
		cost = 5
		ai_will_do = {
			factor = 1
		}
		available = {
			
		}

		available_if_capitulated = no
		completion_reward = {
			64 = {
				add_dynamic_modifier = {
					modifier = GER_welthauptstadt
				}
			} 
			show_ideas_tooltip = GER_welthauptstadt_idea
		}
	}

	focus = {
		id = GER_focus_tausendjahre
		text = "Tausendjähriges Reich"
		icon = GER_1000
		prerequisite = { focus = "Reintegrate Luxemburg & Alsace Lorraine" }
		prerequisite = { focus = GER_focus_expand_the_welthauptstadt }
		x = 0
		y = 3
		relative_position_id = GER_focus_greater_german_reich
		cost = 5
		ai_will_do = {
			factor = 1
		}
		available = {
			
		}

		available_if_capitulated = no
		completion_reward = {
			every_owned_state = {
				limit = {
					is_core_of = GER
				}
				add_extra_state_shared_building_slots = 2
			}
		}
	}

	focus = {
		id = GER_focus_Hitlerjugend
		text = "Die Hitlerjugend"
		icon = GER_hitlerjugend
		prerequisite = { focus = GER_focus_tausendjahre }
		x = 0
		y = 4
		relative_position_id = GER_focus_greater_german_reich
		cost = 5
		ai_will_do = {
			factor = 1
		}
		available = {
			
		}

		available_if_capitulated = no
		completion_reward = {
			add_ideas = GER_aryan_race
		}
	}

	focus = {
		id = GER_focus_deutsches_europa
		text = "Deutsches Europa" 
		icon = GER_europa
		prerequisite = { focus = GER_focus_tausendjahre }
		x = -3
		y = 4
		relative_position_id = GER_focus_greater_german_reich
		cost = 5
		ai_will_do = {
			factor = 1
		}
		available = {
			
		}

		available_if_capitulated = no
		completion_reward = {
			set_province_name = {
				id = 9904
				name = "Rom"
			}
			set_province_name = {
				id = 11542
				name = "Prag"
			}
			set_province_name = {
				id = 9617
				name = "Bukarest"
			}
			set_province_name = {
				id = 11586
				name = "Belgrad" 
			}
			every_country = {
				limit = {
					is_in_faction_with = GER
					NOT = {
						tag = GER
					}
				}
				add_ideas = GER_influence
			    add_stability = 0.025
			}
			
		}
	}

	focus = {
		id = GER_focus_lebensraum_im_osten
		text = "Lebensraum im Osten"
		icon = GER_DICK
		prerequisite = { focus = GER_focus_tausendjahre }
		x = 3
		y = 4
		relative_position_id = GER_focus_greater_german_reich
		cost = 5
		ai_will_do = {
			factor = 1
		}
		available = {
			GER = {
				controls_state = 202
				controls_state = 13
				controls_state = 11
				controls_state = 200
			}
		}

		available_if_capitulated = no
		completion_reward = {
			set_province_name = {
				id = 6296
				name = "Kauen"
			}
			set_province_name = {
				id = 3152
				name = "Reval"
			}
			set_province_name = {
				id = 525
				name = "Kiew"
			}
			set_province_name = {
				id = 3320
				name = "Wilna"
			}
			set_province_name = {
				id = 310
				name = "Dünaburg"
			}
			set_province_name = {
				id = 11405
				name = "Saporoshje"
			}
			set_province_name = {
				id = 3457
				name = "Hegewald"
			}
			set_province_name = {
				id = 3544
				name = "Warschau"
			}
			set_province_name = {
				id = 9427
				name = "Krakau"
			}
			set_province_name = {
				id = 6558
				name = "Posen"
			}
			set_province_name = {
				id = 6464
				name = "Kattowitz"
			}
			set_province_name = {
				id = 3392
				name = "Bjelostock"
			}
			every_state = {
				limit = {
					is_core_of = POL
				}
				add_extra_state_shared_building_slots = 1
			}
		}
	}

	focus = {
		id = GER_focus_heim_ins_reich
		text = "Heim ins Reich"
		icon = GER_heimins
		prerequisite = { focus = GER_focus_lebensraum_im_osten }
		prerequisite = { focus = GER_focus_Hitlerjugend }
		prerequisite = { focus = GER_focus_deutsches_europa }
		x = 2
		y = 5
		relative_position_id = GER_focus_greater_german_reich
		cost = 5
		ai_will_do = {
			factor = 1
		}
		available = {
			
		}

		available_if_capitulated = no
		completion_reward = {
			every_owned_state = {
				limit = {
					is_core_of = GER
				}
				add_extra_state_shared_building_slots = 1
				add_building_construction = {
					type = arms_factory
					level = 1
					instant_build = yes
				}
			}
			effect_tooltip = {
				swap_ideas = {
					remove_idea = GER_war_consumer_goods
					add_idea = GER_war_consumer_goods2
				}
			}
			hidden_effect = {
				swap_ideas = {
					remove_idea = GER_war_consumer_goods
					add_idea = GER_war_consumer_goods2 
				}
			}
		}
	}

	focus = {
		id = GER_triumph 
		Text = "Triumphant Will"
		icon = GER_triumph
		prerequisite = { focus = GER_focus_lebensraum_im_osten }
		prerequisite = { focus = GER_focus_Hitlerjugend }
		prerequisite = { focus = GER_focus_deutsches_europa }
		x = -2
		y = 2
		relative_position_id = GER_focus_tausendjahre
		cost = 5
		available = {
			
		}
		ai_will_do = {
			factor = 1
		}
		completion_reward = {
			add_timed_idea = {
				idea = triumphant_will
				days = 30
			}
			
		}
	}

	focus = {
		id = GER_endloesung
		Text = "Expand the Reichsarbeitsdienst"
		icon = GER_rad
		prerequisite = { focus = GER_focus_Hitlerjugend }
		x = 0
		y = 2
		relative_position_id = GER_focus_tausendjahre
		cost = 5
		available = {
			
		}
		ai_will_do = {
			factor = 1
		}
		completion_reward = {
			add_stability = 0.05
			add_ideas = GER_endloesung_idea
		}
	}

	focus = {
		id = GER_ordenstaat_burgund
		Text = "Ordenstaat Burgund"
		icon = GER_burgundy
		prerequisite = { focus = GER_triumph }
		prerequisite = { focus = GER_endloesung }
		prerequisite = { focus = GER_focus_heim_ins_reich }
		x = 0
		y = 3
		relative_position_id = GER_focus_tausendjahre
		cost = 5 
		available = {
			
		}
		ai_will_do = {
			factor = 1
		}
		completion_reward = {
			every_state = {
				limit= {
					OR = {
						state=17 state=18 state=27 state=27 state=29 state=785 state=16 state=27 state=24 state=15 state=30 state=14 state=23 state=19 state=806
					}
				}
				add_core_of = GER
			}
		}
	}
 
	focus = {
		id = "Mitteldeutsche Stahlwerke"
		icon = GER_mittel
		prerequisite = { focus = GER_autobahn }
		x = 1
		y = 2
		relative_position_id = GER_autobahn
		cost = 5
		ai_will_do = {
			factor = 1
		}

		available_if_capitulated = no
		complete_tooltip = {
			
		}
		search_filters = { FOCUS_FILTER_INDUSTRY }
		completion_reward = {
			add_ideas = GER_excavation 
			add_resource = {
				type = steel
				amount = 20
				state = 66
			}
		}
	}

	focus = {
		id = "Gleiwitzwerke"
		icon = GFX_focus_generic_steel
		prerequisite = { focus = "Mitteldeutsche Stahlwerke" }
		x = 1
		y = 1
		relative_position_id = "Mitteldeutsche Stahlwerke"
		cost = 5
		ai_will_do = {
			factor = 1
		}

		available_if_capitulated = no
		complete_tooltip = {
			
		}
		search_filters = { FOCUS_FILTER_INDUSTRY }
		completion_reward = {
			67 = {
				add_building_construction = {
					type = infrastructure
					level = 4
					instant_build = yes
				}
			}
			add_resource = {
				type = steel
				amount = 31
				state = 67
			}
			add_resource = {
				type = aluminium
				amount = 21
				state = 67
			}
			add_resource = {
				type = tungsten
				amount = 9
				state = 67
			}
		}
	}

	focus = {
		id = GER_focus_exploit_workforce
		text = "Slave Labour"
		icon = GFX_focus_CZE_german_puppet
		prerequisite = { focus = "Mitteldeutsche Stahlwerke" }
		x = -1
		y = 1
		relative_position_id = "Mitteldeutsche Stahlwerke"
		cost = 5
		ai_will_do = {
			factor = 1
		}
		available = {
			has_completed_focus = "Organise Todt"
		}
		available_if_capitulated = no
		complete_tooltip = {
			
		}
		search_filters = { FOCUS_FILTER_INDUSTRY }
		completion_reward = {
			add_resource = {
				type = steel
				amount = 233
				state = 42
			}
			add_resource = {
				type = aluminium
				amount = 127
				state = 42
			}
			add_resource = {
				type = tungsten
				amount = 41
				state = 42
			}
			add_resource = {
				type = chromium
				amount = 242
				state = 42
			}
		}
	}

	focus = {
		id = GER_grosraumwirtschaft
		icon = GFX_goal_generic_construct_infrastructure
		prerequisite = { focus = GER_four_year_plan }
		x = -1
		y = 1
		relative_position_id = GER_four_year_plan
		cost = 5
		
		ai_will_do = {
			factor = 1
		}
		search_filters = { FOCUS_FILTER_INDUSTRY }
		completion_reward = {
			56 = {
				add_extra_state_shared_building_slots = 2
				add_building_construction = {
					type = infrastructure
					level = 2
				}
				add_building_construction = {
					type = industrial_complex
					level = 2
					instant_build = yes 
				}
			}
			58 = {
				add_extra_state_shared_building_slots = 2
				add_building_construction = {
					type = infrastructure
					level = 2
				}
				add_building_construction = {
					type = industrial_complex
					level = 2
					instant_build = yes 
				}
			}
			68 = {
				add_extra_state_shared_building_slots = 2
				add_building_construction = {
					type = infrastructure
					level = 2
				}
				add_building_construction = {
					type = industrial_complex
					level = 2
					instant_build = yes 
				}
			}
		}
	}

	focus = {
		id = GER_integrate_war_economies
		icon = GFX_goal_generic_construct_mil_factory
		prerequisite = { focus = GER_four_year_plan focus = GER_focus_rushed_rearmament }
		x = 1
		y = 1
		relative_position_id = GER_four_year_plan
		cost = 10
		ai_will_do = {
			factor = 1
		}

		


		available_if_capitulated = no
		complete_tooltip = {
		}
		
		search_filters = { FOCUS_FILTER_INDUSTRY }
		completion_reward = {
			60 = {
					add_extra_state_shared_building_slots = 6
					add_building_construction = {
					type = arms_factory
					level = 6
					instant_build = yes
				}		
			}
			43 = {
					add_extra_state_shared_building_slots = 3
					add_building_construction = {
					type = arms_factory
					level = 2
					instant_build = yes
				}
				add_building_construction = {
					type = industrial_complex
					level = 1
					instant_build = yes		
				}
			}
		}	
	}

	focus = {
		id = GER_focus_mills1
		text = "Military Factories"
		icon = GFX_goal_generic_construct_mil_factory
		prerequisite = { focus = GER_focus_rushed_rearmament }
		x = 3
		y = 1
		relative_position_id = GER_four_year_plan
		cost = 10
		ai_will_do = {
			factor = 1
		}

		available_if_capitulated = no
		complete_tooltip = {
		}
		
		search_filters = { FOCUS_FILTER_INDUSTRY }
		completion_reward = {
			56 = {
				add_extra_state_shared_building_slots = 4
				add_building_construction = {
					type = arms_factory
					level = 4
				}
			}
			53 = {
				add_extra_state_shared_building_slots = 2
				add_building_construction = {
					type = arms_factory
					level = 2
				}
			}
			763 = {
				add_extra_state_shared_building_slots = 2
				add_building_construction = {
					type = arms_factory
					level = 2
				}
			}
		}	
	}

	focus = {
		id = GER_focus_mills2
		text = "Rush for Conversion"
		icon = GFX_goal_continuous_repairments
		prerequisite = { focus = GER_focus_mills1 }
		x = -1
		y = 1
		relative_position_id = GER_focus_mills1
		cost = 10
		ai_will_do = {
			factor = 1
		}
		available = {
			date > 1940.1.1
		}
		available_if_capitulated = no
		complete_tooltip = {
		}
		
		search_filters = { FOCUS_FILTER_INDUSTRY }
		completion_reward = {
			add_timed_idea = {
				idea = GER_mills_idea 
				days = 400
			}
			set_technology = {
				improved_equipment_conversion = 1
				advanced_equipment_conversion = 2
			}
		}	
	}

	focus = {
		id = GER_focus_infra_into_civs
		text = "Finish the Four Year Plan"
		icon = GFX_goal_generic_construct_civilian
		prerequisite = { focus = GER_grosraumwirtschaft }
		x = 1
		y = 1
		relative_position_id = GER_grosraumwirtschaft
		cost = 5
		ai_will_do = {
			factor = 1
		}
		available = {
			date > 1940.1.1
		}

		available_if_capitulated = no
		complete_tooltip = {
		}
		
		search_filters = { FOCUS_FILTER_INDUSTRY }
		completion_reward = {
			custom_effect_tooltip = GER_infra_tt
			every_state = {
				limit = {
					AND = {
						is_core_of = GER
						infrastructure > 9
					}
				}
				add_extra_state_shared_building_slots = 2
				add_building_construction = {
					type = arms_factory
					level = 1
				}
				add_building_construction = {
					type = industrial_complex
					level = 1
				}
			}
		}	
	}

	focus = {
		id = GER_extra_tech_slot2
		text = "Combined Axis Research"
		icon = GFX_focus_research2
		prerequisite = { focus = GER_autobahn }
		x = -5
		y = 1
		relative_position_id = GER_autobahn
		cost = 10
		ai_will_do = {
			factor = 1
		}

		available_if_capitulated = yes
		search_filters = { FOCUS_FILTER_RESEARCH }
		completion_reward = {
			add_research_slot = 1
			ITA = {
				add_research_slot = 1
			}
		}
	}

	focus = {
		id = GER_air_innovation
		text = "Luftwaffe"
		icon = GFX_GER_luftwaffe
		x = 20
		y = 1
		cost = 5
		ai_will_do = {
			factor = 1
		}
		available = {date > 1938.1.1}
        prerequisite = { focus = GER_wehrmacht}
		available_if_capitulated = yes
		complete_tooltip = {
			
		}
		
		search_filters = { FOCUS_FILTER_RESEARCH }
		completion_reward = {
		if = { limit = { NOT = { has_idea = messerschmitt }} add_ideas = messerschmitt add_political_power = -50  }
		set_technology = { fighter2 = 1 }
		hidden_effect = {
		
			GER = {
				add_equipment_production = {
					equipment = {
						type = fighter_equipment_2
					}		
					requested_factories = 150
					amount = 0
				}
			}
			
		}
			
			custom_effect_tooltip = available_chief_of_airforce
			show_ideas_tooltip = ritter_von_greim
		}
	}

	focus = {
		id = GER_tactical_air_effort
		icon = GFX_GER_CAS_new
		prerequisite = { focus = GER_air_innovation }
		x = -1
		y = 1
		relative_position_id = GER_air_innovation
		cost = 5
		ai_will_do = {
			factor = 0.25
		}

		available_if_capitulated = yes
		search_filters = { FOCUS_FILTER_RESEARCH }
		completion_reward = {
			add_tech_bonus = {
				name = bomber_bonus
				bonus = 3.0
				uses = 1
				category = cas_bomber			
			}
		}
	}

	focus = {
		id = GER_flying_artillery
		icon = GER_german_cas_doctrine
		prerequisite = { focus = GER_tactical_air_effort }
		mutually_exclusive = { focus = GER_design_simplifications3}
		x = -1
		y = 1
		relative_position_id = GER_tactical_air_effort
		cost = 5
		ai_will_do = {
			factor = 1
		}

		available_if_capitulated = yes
		search_filters = { FOCUS_FILTER_RESEARCH }
		completion_reward = {
			add_tech_bonus = {
				name = GER_flying_artillery
				bonus = 3.5
				uses = 1
				category = cas_bomber			
			}
			add_ideas = GER_flying_artillery
		}
	}

	focus = {
		id = GER_design_simplifications3
		Text = "Design Simplifications"
		icon = focus_GER_stukatablets
		prerequisite = { focus = GER_tactical_air_effort }
		mutually_exclusive = { focus = GER_flying_artillery}
		x = 1
		y = 1
		relative_position_id = GER_tactical_air_effort
		cost = 5
		ai_will_do = {
			factor = 1
		}

		available_if_capitulated = yes
		search_filters = { FOCUS_FILTER_RESEARCH }
		completion_reward = {
			add_timed_idea = {
				idea = GER_design_simplifications
				days = 200
			}
		}
	}

	

	focus = {
		id = GER_naval_air_effort
		text = naval_air_effort
		icon = GFX_goal_generic_air_naval_bomber
		prerequisite = { focus = GER_tactical_air_effort }
		x = 0
		y = 2
		relative_position_id = GER_tactical_air_effort
		cost = 5
		ai_will_do = {
			factor = 1
		}

		available_if_capitulated = yes
		search_filters = { FOCUS_FILTER_RESEARCH }
		completion_reward = {
			add_tech_bonus = {
				name = nav_bomber_bonus
				bonus = 1.0
				uses = 2
				category = naval_bomber
			}
		}
	}

	focus = {
		id = GER_strategic_air_effort
		icon = GFX_goal_generic_air_bomber
		prerequisite = { focus = GER_air_innovation }
		x = -3
		y = 1
		relative_position_id = GER_air_innovation
		cost = 5
		ai_will_do = {
			factor = 1
		}

		available_if_capitulated = yes
		search_filters = { FOCUS_FILTER_RESEARCH }
		completion_reward = {
			# Balance research bonus for 2 techs in battlefield_support_tree
			add_tech_bonus = {
				name = bomber_bonus
				bonus = 1.0
				uses = 2
				category = tactical_bomber
			}
		}
	}

	focus = {
		id = "Luftüberlegenheitsjäger"
		icon = GFX_GER_modern_fighter
		prerequisite = { focus = GER_air_innovation }
		mutually_exclusive = {
			focus = "Abfangjäger"
		}
		x = 1
		y = 1
		relative_position_id = GER_air_innovation
		cost = 5
		ai_will_do = {
			factor = 1
		}

		available_if_capitulated = yes
		search_filters = { FOCUS_FILTER_RESEARCH }
		completion_reward = {
			add_ideas = GER_luftueberlegenheitsjaeger
		}
	}

	focus = {
		id = "Abfangjäger"
		icon = GFX_GER_heavy_fighter
		prerequisite = { focus = GER_air_innovation }
		mutually_exclusive = {
			focus = "Luftüberlegenheitsjäger"
		}
		x = 3
		y = 1
		relative_position_id = GER_air_innovation
		cost = 5
		ai_will_do = {
			factor = 1
		}

		available_if_capitulated = yes
		search_filters = { FOCUS_FILTER_RESEARCH }
		completion_reward = {
			add_timed_idea = {
				idea = GER_abfangjaeger
				days = 200
			}
		}
	}

	focus = {
		id = "Me-262"
		icon = GFX_GER_Me262
		prerequisite = { focus = GER_air_innovation }
		x = 2
		y = 2
		relative_position_id = GER_air_innovation
		cost = 5
		ai_will_do = {
			factor = 1
		} 
		available = {date > 1942.6.1}
		available_if_capitulated = yes
		search_filters = { FOCUS_FILTER_RESEARCH }
		completion_reward = {
			custom_effect_tooltip = ger_me-262
			hidden_effect = {
				if = { limit = { NOT = { has_idea = messerschmitt }} add_ideas = messerschmitt add_political_power = -50  }
			set_technology = { jet_fighter1 = 1 }
			}
			
			
		}
	}

focus = {
		id = GER_wehrmacht
		Text = "Form the OPKW"
		icon = GER_okw
		x = 23
		y = 0
		cost = 3
		ai_will_do = {
			factor = 1
		}
		available = {has_completed_focus = GER_rhineland}
		available_if_capitulated = yes
		search_filters = { FOCUS_FILTER_RESEARCH }
		completion_reward = {
			

			
			add_ideas = general_staff		
		}
	}
	
	focus = {
		id = GER_army_innovation
		text = "Heer"
		icon = GFX_army_innovation
		x = 25
		y = 1
		cost = 2
		ai_will_do = {
			factor = 1
		}

		available_if_capitulated = yes
		prerequisite = { focus = GER_wehrmacht}
		search_filters = { FOCUS_FILTER_RESEARCH }
		completion_reward = {
			# Balance research bonus for 2 techs under land_doctrine
			

			
			add_tech_bonus = {
				name = land_doc_bonus
				bonus = 2
				uses = 3
				category = land_doctrine
			}			
		}
	}
	
	focus = {
		id = GER_soviet_treaty
		icon = GFX_GER_soviet_treaty
		prerequisite = { focus = GER_army_innovation }
		
		#cancel = { 
		#	OR = {
		#		has_war_with = SOV
		#		NOT = { country_exists = SOV }
		#	} 
		#}

		x = 0
		y = 1
		relative_position_id = GER_army_innovation
		cost = 5

		search_filters = { FOCUS_FILTER_RESEARCH }
		completion_reward = {
			add_tech_bonus = {
				name = land_doc_bonus
				bonus = 1.0
				uses = 2
				category = land_doctrine
			}
			add_tech_bonus = {
				name = GER_soviet_treaty
				ahead_reduction = 2
				bonus = 0.8
				uses = 1
				technology = basic_medium_tank
			}
			add_tech_bonus = {
				name = armor_bonus
				bonus = 1.0
				uses = 1
				technology = advanced_light_tank
			}	
			
			set_technology = { armored_car_at_upgrade = 1 }
			hidden_effect = {country_event = { id = bhutan.7 }}
		}
	}

	focus = {
		id = GER_manstein
		icon = GFX_GER_manstein
		prerequisite = { focus = GER_soviet_treaty }
		mutually_exclusive = { focus = GER_guderian}

		x = -1
		y = 1
		relative_position_id = GER_soviet_treaty
		cost = 5

		search_filters = { FOCUS_FILTER_RESEARCH }
		completion_reward = {
			custom_effect_tooltip = available_theorist
			show_ideas_tooltip = manstein
		}
	}

	focus = {
		id = GER_guderian
		icon = GFX_GER_guderian
		prerequisite = { focus = GER_soviet_treaty }
		mutually_exclusive = { focus = GER_manstein}

		x = 1
		y = 1
		relative_position_id = GER_soviet_treaty
		cost = 5

		search_filters = { FOCUS_FILTER_RESEARCH }
		completion_reward = {
			custom_effect_tooltip = available_theorist
			show_ideas_tooltip = heinz_guderian			
		}
	}

	focus = {
		id = GER_heavy_tank
		icon = GFX_GER_heavy_tank
		prerequisite = { focus = GER_guderian focus = GER_manstein }
		mutually_exclusive = { focus = GER_medium_tank}

		x = 0
		y = 2
		relative_position_id = GER_guderian
		cost = 4

		search_filters = { FOCUS_FILTER_RESEARCH }
		completion_reward = {
			add_tech_bonus = {
				name = "German Tank Research"
				bonus = 1.0
				uses = 1
				technology = improved_heavy_tank
			}
			add_tech_bonus = {
				name = "German Tank Research"
				bonus = 1.0
				uses = 1
				technology = advanced_heavy_tank
			}
			hidden_effect = {country_event = { id = bhutan.7 }}
		}
	}
	



	focus = {
		id = GER_quality_infantry
		Text = "Brandenburger Kommandos"
		icon = GFX_GER_quality_infantry
		prerequisite = { focus = GER_army_innovation }
		available = {
			FRA = {
				has_country_flag = france_is_kill
			}
		}
		x = 2
		y = 1
		relative_position_id = GER_army_innovation
		cost = 5

		search_filters = { FOCUS_FILTER_RESEARCH }
		completion_reward = {
			set_technology = {
				improved_infantry_weapons = 1
				artillery1 = 1
				antiair2 = 1
				antitank2 = 1
				rocket_artillery = 1
			}

		}
	}
	focus = {
		id = GER_focus_loot_occupied_countries
		Text = "Open Equipment Stockpiles"
		icon = GER_German_Bazooka
		prerequisite = { focus = GER_quality_infantry }

		x = 1
		y = 1
		relative_position_id = GER_quality_infantry
		cost = 5

		search_filters = { FOCUS_FILTER_RESEARCH }
		completion_reward = {
			custom_effect_tooltip = GER_beute_guns
			hidden_effect = {  
				        add_equipment_to_stockpile = {
							type = infantry_equipment_2
							amount = 60000
						}
						add_equipment_to_stockpile = {
							type = support_equipment
							amount = 6000
						}	
						add_equipment_to_stockpile = {
							type = motorized_equipment
							amount = 4000
						}	
						add_equipment_to_stockpile = {
							type = artillery_equipment_2
							amount = 2000
						}
						add_equipment_to_stockpile = {
							type = artillery_equipment_1
							amount = 6000
						}
						add_equipment_to_stockpile = {
							type = anti_air_equipment_2
							amount = 4000
						}
						add_equipment_to_stockpile = {
							type = anti_tank_equipment_2
							amount = 2000
						}
						add_equipment_to_stockpile = {
							type = anti_tank_equipment_1
							amount = 6000
						}
						add_equipment_to_stockpile = {
							type = rocket_artillery_equipment_1
							amount = 2000
						}
		}
		}
	}

	focus = {
		id = GER_quantity_infantry
		Text = "Volksgrenadiere"
		icon = GFX_GER_quantity_infantry
		prerequisite = {
			focus = GER_focus_loot_occupied_countries
		}
		x = 0
		y = 2
		relative_position_id = GER_quality_infantry
		cost = 5

		search_filters = { FOCUS_FILTER_RESEARCH }
		completion_reward = {
			add_ideas = GER_quantity_infantry
		}
	}

	focus = {
		id = GER_mechanized
		icon = GFX_GER_mechanized
		prerequisite = { focus = GER_guderian focus = GER_manstein }

		x = -1
		y = 1
		relative_position_id = GER_guderian
		cost = 1

		search_filters = { FOCUS_FILTER_RESEARCH }
		completion_reward = {
			add_tech_bonus = {
				name = "German Mechanized Research"
				ahead_reduction = 1
				bonus = 2.0
				uses = 1
				technology = mechanised_infantry
			}
			add_tech_bonus = {
				name = "German Mechanized Research"
				bonus = 1.0
				uses = 1
				technology = mechanised_infantry2
			}
		}
	}

	focus = {
		id = GER_medium_tank
		icon = GFX_GER_medium_tank
		prerequisite = { focus = GER_guderian focus = GER_manstein }
		mutually_exclusive = { focus = GER_heavy_tank}

		x = -2
		y = 2
		relative_position_id = GER_guderian
		cost = 4

		search_filters = { FOCUS_FILTER_RESEARCH }
		completion_reward = {
			add_tech_bonus = {
				name = "German Tank Research"
				bonus = 1.0
				uses = 1
				technology = improved_medium_tank
			}
			add_tech_bonus = {
				name = "German Tank Research"
				bonus = 1.0
				uses = 1
				technology = advanced_medium_tank
			}
			hidden_effect = {country_event = { id = bhutan.7 }}
		}
	}

	focus = {
		id = GER_focus_jagdpanzer
		text = "Prioritise Jagdpanzer Production"
		icon = GER_Standardpanzer
		prerequisite = { focus = GER_medium_tank focus = GER_heavy_tank }

		x = -1
		y = 1
		relative_position_id = GER_medium_tank
		cost = 3

		search_filters = { FOCUS_FILTER_RESEARCH }
		completion_reward = {
			add_ideas = GER_td_production 
		}
	}

	focus = {
		id = GER_focus_selbstfahrlafette
		text = "Prioritise Selbstfahrlafette Production"
		icon = ger_second_gen_tanks
		prerequisite = { focus = GER_medium_tank focus = GER_heavy_tank }

		x = 3
		y = 1
		relative_position_id = GER_medium_tank
		cost = 3

		search_filters = { FOCUS_FILTER_RESEARCH }
		completion_reward = {
			add_ideas = GER_spg_production
		}
	}
	
	focus = {
		id = GER_focus_umrustung
		text = "Panzerumrüstungsprogramm"
		icon = GER_army_innovation_2
		prerequisite = { focus = GER_medium_tank focus = GER_heavy_tank }

		x = 1
		y = 1
		relative_position_id = GER_medium_tank
		cost = 4

		search_filters = { FOCUS_FILTER_RESEARCH }
		completion_reward = {
			add_ideas = GER_tank_conversion 
		}
	}

	focus = {
		id = GER_air_innovation_2
		text = "Focke-Wulf Ta 152"
		icon = GFX_air_innovation_2
		prerequisite = { focus = GER_strategic_air_effort focus = GER_tactical_air_effort }
		x = 0
		y = 2
		relative_position_id = GER_strategic_air_effort
		cost = 5
		ai_will_do = {
			factor = 1
		}

		available = {date > 1941.1.1}

		available_if_capitulated = yes
		search_filters = { FOCUS_FILTER_RESEARCH }
		completion_reward = { 
			if = { limit = { NOT = { has_idea = messerschmitt }} add_ideas = messerschmitt add_political_power = -50  }
			set_technology = { fighter3 = 1 }
			add_tech_bonus = {
				name = radar_tech_bonus
				bonus = 1.0
				uses = 1
				category = radar_tech
			}
			ENG = { add_ideas = ENG_41_consumer_goods }
		}
	}


	focus = {
		id = GER_wunderwaffe
		icon = GFX_wunderwaffe
		prerequisite = { focus = GER_extra_tech_slot focus = GER_air_innovation_2 }
		x = 2
		y = 1
		relative_position_id = GER_extra_tech_slot
		cost = 5
		ai_will_do = {
			factor = 1
		}
		available = {
			date > 1940.8.1
		}
		available_if_capitulated = yes
		search_filters = { FOCUS_FILTER_RESEARCH }
		completion_reward = {
			set_technology = { experimental_rockets = 1 }
			add_tech_bonus = {
				name = secret_bonus
				bonus = 1.0
				uses = 1
				category = nuclear
				category = rocketry
			}
		}
	}

	focus = {
		id = GER_rocketry_focus
		icon = GFX_v1
		prerequisite = { focus = GER_wunderwaffe }

		x = 2
		y = 1
		relative_position_id = GER_wunderwaffe
		cost = 1
		ai_will_do = {
			factor = 1
		}	
		available = {
			date > 1941.9.1
			AND {
				has_full_control_of_state = 7
				has_full_control_of_state = 6}  
		} 

		available_if_capitulated = yes
		search_filters = { FOCUS_FILTER_RESEARCH }
		completion_reward = {
			add_ideas = GER_rocketry_idea
			set_technology = { rocket_engines = 1 }
			7 = {
				add_extra_state_shared_building_slots = 2
				add_building_construction = {
					type = rocket_site
					level = 2
					instant_build = yes
				}
			}
			6 = {
				add_extra_state_shared_building_slots = 2
				add_building_construction = {
					type = rocket_site
					level = 2
					instant_build = yes
				}
			}
		}
	}

	focus = {
		id = "Aggregat 4"
		icon = GFX_v2
		prerequisite = { focus = GER_rocketry_focus }

		x = 0
		y = 1
		relative_position_id = GER_rocketry_focus
		cost = 1
		ai_will_do = {
			factor = 1
		}	
		available = {date > 1942.10.1
		AND {
				has_full_control_of_state = 35
				}  
		} 
		

		available_if_capitulated = yes
		search_filters = { FOCUS_FILTER_RESEARCH }
		completion_reward = {
			set_technology = { improved_rocket_engines = 1 }
			35 = {
				add_extra_state_shared_building_slots = 2
				add_building_construction = {
					type = rocket_site
					level = 2
					instant_build = yes
				}
			}
		}
	}

	focus = {
		id = "MP-43"
		icon = GFX_GER_mp43
		prerequisite = { focus = GER_wunderwaffe }

		x = 0
		y = 1
		relative_position_id = GER_wunderwaffe
		cost = 5
		ai_will_do = {
			factor = 1
		}	
		available = { 
		} 

		available_if_capitulated = yes
		search_filters = { FOCUS_FILTER_RESEARCH }
		completion_reward = {
			add_tech_bonus = {
				name = "MP-43 Research"
				bonus = 3
				uses = 1
				technology = advanced_infantry_weapons
			}
		}
	}

	focus = {
		id = "Panzerfaust"
		icon = GFX_GER_panzerfaust
		prerequisite = { focus = "MP-43" }

		x = 0
		y = 1
		relative_position_id = "MP-43"
		cost = 5
		ai_will_do = {
			factor = 1
		}	
		available = { 
		} 

		available_if_capitulated = yes
		search_filters = { FOCUS_FILTER_RESEARCH }
		completion_reward = {
			add_tech_bonus = {
				name = "Panzerfaust Research"
				bonus = 1
				uses = 2
				technology = infantry_at
				technology = infantry_at2
			}
		}
	}

	focus = {
		id = "Flak 41 8,8cm"
		icon = GER_flak88
		prerequisite = { focus = "Panzerfaust" } 

		x = 0
		y = 2
		relative_position_id = "MP-43"
		cost = 5
		ai_will_do = {
			factor = 1
		}	
		available = { 
		} 

		available_if_capitulated = yes
		search_filters = { FOCUS_FILTER_RESEARCH }
		completion_reward = {
			set_technology = {
				antiair5 = 1
			}
			add_ideas = GER_Flak 
		}
	}

	focus = {
		id = "Sd.Kfz. 251/20"
		icon = GFX_GER_mech3
		prerequisite = { focus = GER_wunderwaffe }
		x = -2
		y = 1
		relative_position_id = GER_wunderwaffe
		cost = 5
		ai_will_do = {
			factor = 1
		}

		available_if_capitulated = yes
		search_filters = { FOCUS_FILTER_RESEARCH }
		completion_reward = {
			add_tech_bonus = {
				name = "German Tank Research"
				bonus = 1
				uses = 1
				technology = mechanised_infantry3
			}
		}
	}

	focus = {
		id = "Panzergrenadiere"
		icon = GFX_GER_mech_spawnin
		prerequisite = { focus = "Sd.Kfz. 251/20" }
		x = 0
		y = 1
		relative_position_id = "Sd.Kfz. 251/20"
		cost = 5
		ai_will_do = {
			factor = 1
		}

		available_if_capitulated = yes
		search_filters = { FOCUS_FILTER_RESEARCH }
		completion_reward = {
			custom_effect_tooltip = GER_panzergrenadiere
			hidden_effect = {
			load_oob = GER_Panzergrenadiere
			}
		}
	}

	focus = {
		id = "Panzerjagd-Division Weichsel"
		icon = GFX_GER_tank_spawnin
		prerequisite = { focus = GER_wunderwaffe }
		x = 4
		y = 1
		relative_position_id = GER_wunderwaffe
		cost = 5
		ai_will_do = {
			factor = 1
		}

		available = {
			OR = {
				NOT = { SOV = { controls_province = 3580 }}
				date > 1942.1.1
			}
		}
		available_if_capitulated = yes
		search_filters = { FOCUS_FILTER_RESEARCH }
		completion_reward = {
			custom_effect_tooltip = GER_weichsel
			hidden_effect = {
			set_technology = { advanced_heavy_td = 1 }
			load_oob = GER_weichsel   
			
			}
		}
	}

	focus = {
		id = GER_focus_superpanzer
		text = "German Tank Engineering"
		icon =  GER_panzer_expansion
		prerequisite = { focus = GER_wunderwaffe }
		x = -5
		y = 1
		relative_position_id = GER_wunderwaffe
		cost = 5
		ai_will_do = {
			factor = 1
		}

		available_if_capitulated = yes
		search_filters = { FOCUS_FILTER_RESEARCH }
		completion_reward = {
			add_ideas = GER_tank_research
		}
	}

	focus = {
		id = GER_focus_maus
		text = "The Maus"
		icon = GOAL_german_super_heavy
		prerequisite = { focus = GER_focus_superpanzer }
		x = 1
		y = 1
		relative_position_id = GER_focus_superpanzer
		cost = 5
		ai_will_do = {
			factor = 1
		}

		available_if_capitulated = yes
		search_filters = { FOCUS_FILTER_RESEARCH }
		completion_reward = {
			set_technology = { super_heavy_tank = 1 }
		}
	}

	focus = {
		id = GER_focus_maus_armor
		text = "Hire Porsche"
		icon = focus_GER_porsche
		prerequisite = { focus = GER_focus_maus }
		mutually_exclusive = {
			focus = GER_focus_maus_firepower
		}
		x = 1
		y = 1
		relative_position_id = GER_focus_maus
		cost = 5
		ai_will_do = {
			factor = 1
		}

		available_if_capitulated = yes
		search_filters = { FOCUS_FILTER_RESEARCH }
		completion_reward = {
			add_ideas = GER_maus_armor  
		}
	}

	focus = {
		id = GER_focus_maus_firepower
		text = "Hire Krupp"
		icon = focus_GER_krupp
		prerequisite = { focus = GER_focus_maus }
		mutually_exclusive = {
			focus = GER_focus_maus_armor
		}
		x = -1
		y = 1
		relative_position_id = GER_focus_maus
		cost = 5
		ai_will_do = {
			factor = 1
		}

		available_if_capitulated = yes
		search_filters = { FOCUS_FILTER_RESEARCH }
		completion_reward = {
			add_ideas = GER_maus_firepower
		}
	}

	focus = {
		id = GER_focus_e50
		text = "The Standardpanzer"
		icon = GFX_GER_e50
		prerequisite = { focus = GER_focus_superpanzer }
		x = -1
		y = 1
		relative_position_id = GER_focus_superpanzer
		cost = 5
		ai_will_do = {
			factor = 1
		}

		available_if_capitulated = yes
		search_filters = { FOCUS_FILTER_RESEARCH }
		completion_reward = {
			add_tech_bonus = {
				name = "German Tank Research"
				bonus = 1
				uses = 1
				technology = main_battle_tank
			}
			hidden_effect = {country_event = { id = bhutan.7 }}
		}
	}

	focus = {
		id = GER_rhineland
		icon = GFX_rhineland
		x = 35
		y = 0
		cost = 10
		search_filters = { FOCUS_FILTER_POLITICAL }	
		completion_reward = {
			42 = { set_demilitarized_zone = no }
			51 = { set_demilitarized_zone = no } 
			add_political_power = 200
			add_war_support = 0.1  
			add_named_threat = { threat = 5 name = GER_rhineland }
			if = { limit = { NOT = { has_idea = joseph_goebbels }} add_ideas = joseph_goebbels add_political_power = -150  }
			hidden_effect = {
			news_event = { hours = 6 id = news.25 }
			
			}
		}		
	}

	

	
	
	focus = {
		id = GER_anschluss
		icon = GFX_anschluss
		prerequisite = { focus = GER_rhineland }
		will_lead_to_war_with = CZE
		will_lead_to_war_with = FRA		
		available = {date > 1938.1.1}		
		
	
		
		cancel_if_invalid = yes
		x = -2
		y = 1
		relative_position_id = GER_rhineland
		cost = 1
		ai_will_do = {
			factor = 10
		}	
		search_filters = { FOCUS_FILTER_ANNEXATION }
		completion_reward = {
			annex_country = { target = AUS transfer_troops = no }
		hidden_effect = {
		news_event = { hours = 6 id = news.36 }
		add_named_threat = { threat = 10 name = "Anschluss" }
		add_war_support = 0.1
		add_stability = 0.05
		add_political_power = 75
		4 = { add_core_of = GER }
		152 = { add_core_of = GER }
		153 = { add_core_of = GER }
			}
		}
	}

		
	focus = {
		id = GER_demand_sudetenland
		icon = GFX_GER_demand_sudetenland
		prerequisite = { focus = GER_anschluss }
		will_lead_to_war_with = CZE
		will_lead_to_war_with = FRA
		available = {
			
			NOT = {
				country_exists = AUS 
			}		
			
		}
	
		
		cancel_if_invalid = yes
		x = 0
		y = 1
		relative_position_id = GER_anschluss
		cost = 10
		ai_will_do = {
			factor = 10
		}	
		search_filters = { FOCUS_FILTER_ANNEXATION }
		completion_reward = {
			transfer_state = 69
			transfer_state = 74
		POL = {
			transfer_state = 72
		}
		add_named_threat = { threat = 5 name = GER_demand_sudetenland }
		add_war_support = 0.1
		add_stability = 0.05
		country_event = { hours = 6 id = news.56 }
			hidden_effect = {
				69 = { add_core_of = GER }
				74 = { add_core_of = GER }
			}
		}
		
	}



	focus = {
		id = GER_end_of_czechoslovakia
		icon = GFX_end_of_czechoslovakia
		prerequisite = { focus = GER_demand_sudetenland }

		x = 0
		y = 1
		relative_position_id = GER_demand_sudetenland
		cost = 10
		ai_will_do = {
			factor = 10
		}

		search_filters = { FOCUS_FILTER_ANNEXATION }
		completion_reward = {
			annex_country = { target = CZE transfer_troops = no }
			add_named_threat = { threat = 10 name = GER_end_of_czechoslovakia }	
			hidden_effect = {
			}
			ENG = {add_war_support = 0.1}
			FRA = {add_war_support = 0.1}
			country_event = { hours = 6 id = news.60 }		
		}		
	}
	
	focus = {
		id = GER_demand_memel
		icon = GFX_eastern_claims
		prerequisite = { focus = GER_end_of_czechoslovakia }
		x = 0
		y = 1
		relative_position_id = GER_end_of_czechoslovakia
		cost = 5
		search_filters = { FOCUS_FILTER_ANNEXATION }
		completion_reward = {
		188 = { GER = { transfer_state = PREV }	}
		add_named_threat = { threat = 5 name = GER_demand_memel }
		hidden_effect = {
			country_event = { days = 1 id = news.19 }
			188 = { add_core_of = GER }
		}			
		}
	}

	focus = {
		id = molotov_ribbentrop_pact
		icon = GFX_molotov_ribbentrop_pact
		prerequisite = { focus = GER_rhineland }
		x = 2
		y = 1
		relative_position_id = GER_rhineland
		cost = 1
		available = {date > 1939.8.1}
		completion_reward = {
			country_event = { hours = 6 id = news.32 }						
		}
	}

	focus = {
		id = GER_danzig_or_war
		icon = GFX_danzig_or_war
		prerequisite = { focus = molotov_ribbentrop_pact }
		x = 0
		y = 1
		relative_position_id = molotov_ribbentrop_pact
		cost = 0.15
		available = {date > 1939.8.31}
		completion_reward = {
			country_event = { id = news.24 days = 1}
			hidden_effect = {
				activate_decision = fall_weiss
			}
		}
	}

	focus = {
		id = GER_hit_the_nail_on_the_head_focus 
		icon = GFX_danzig_or_war
		prerequisite = { focus = GER_danzig_or_war }
		mutually_exclusive = { focus = GER_around_maginot_focus }
		bypass = { FRA = {has_completed_focus = FRA_appeal_to_the_french_nation}}
		x = -2
		y = 1
		relative_position_id = GER_danzig_or_war
		cost = 0.15
		completion_reward = {
			add_timed_idea = {
				idea = GER_maginot_offense
				days = 48
			}
		}
	}

	focus = { 
		id = GER_around_maginot_focus 
		icon = GFX_danzig_or_war
		prerequisite = { focus = GER_danzig_or_war }
		mutually_exclusive = { focus = GER_hit_the_nail_on_the_head_focus }
		x = 2
		y = 1
		relative_position_id = GER_danzig_or_war
		bypass = { FRA = {has_completed_focus = FRA_appeal_to_the_french_nation}}
		cost = 0.15
		completion_reward = {
				declare_war_on = { type = annex_everything    target = HOL }
				declare_war_on = { type = annex_everything    target = BEL }
				add_ideas = GER_fall_gelb_offense
		hidden_effect = {
		add_named_threat = { threat = 20 name = "Fall Gelb" } 
		ROM = { add_to_war = { targeted_alliance = GER enemy = HOL } }
		HUN = { add_to_war = { targeted_alliance = GER enemy = HOL } }
		SPR = { add_to_war = { targeted_alliance = GER enemy = HOL } }
		BUL = { add_to_war = { targeted_alliance = GER enemy = HOL } }
		ROM = { add_to_war = { targeted_alliance = GER enemy = BEL } }
		HUN = { add_to_war = { targeted_alliance = GER enemy = BEL } }
		SPR = { add_to_war = { targeted_alliance = GER enemy = BEL } }
		BUL = { add_to_war = { targeted_alliance = GER enemy = BEL } }	
			}	
		}
	}

	focus = {
		id = "Send Rommel to Africa" 
		text = "Form The Afrika Korps"
		icon = GFX_GER_Afrika_Korps 
		prerequisite = { focus = GER_hit_the_nail_on_the_head_focus focus = GER_around_maginot_focus  }
		x = 0
		y = 2
		relative_position_id = GER_danzig_or_war
		available = {
			FRA = { has_country_flag = france_is_kill }
		}
		cost = 5
		completion_reward = {
			create_corps_commander = {
				name = "Erwin Rommel"
				picture = "Portrait_Germany_Erwin_Rommel.dds"
				traits = { organizer urban_assault_specialist trickster expert_improviser offensive_doctrine  panzer_leader panzer_expert desert_fox hill_fighter  trait_mountaineer  }
				skill = 8
				id = 4
				attack_skill = 8
				defense_skill = 6
				planning_skill = 5
				logistics_skill = 6
			}
			add_timed_idea = {
				idea = GER_afrikafeldzug 
				days = 200
			}
			hidden_effect = {
				set_technology = {
					Afrikafeldzug_on = 1
				}
			}
		}
	}

	
	
	focus = {
		id = "Victory in Africa"
		icon = GFX_GER_seize_foreign_economy
		prerequisite = { focus = "Send Rommel to Africa"  }
		available = {
			OR = {
				
				any_country = {
					is_in_faction_with = ITA
					controls_state = 446
					
				}
				
			}
			
		}
		bypass = {
		}
		cancel_if_invalid = yes
		x = -3
		y = 1
		relative_position_id = "Send Rommel to Africa" 
		cost = 5
		ai_will_do = {
			factor = 10
		}
		
		completion_reward = {
			GER = { add_ideas = AXIS_victory_in_africa }
		hidden_effect = {
			HUN = { add_ideas = AXIS_victory_in_africa }
			ROM = { add_ideas = AXIS_victory_in_africa }
			ITA = { add_ideas = AXIS_victory_in_africa }
			SPR = { add_ideas = AXIS_victory_in_africa }
			BUL = { add_ideas = AXIS_victory_in_africa }
		}
		}
	}



	focus = {
		id = "Prepare Operation Barbarossa" 
		icon = GFX_barbarossa
		prerequisite = { focus = "Send Rommel to Africa"    }
		x = 5
		y = 1
		relative_position_id = "Send Rommel to Africa" 
		cost = 5
		available = {
			date > 1941.5.1
		}
		ai_will_do = {
			factor = 1
		}
		completion_reward = {
			add_ideas = GER_barbarossa	
			HUN = {
				add_ideas = GER_barbarossa
			}	
			SPR = {
				add_ideas = GER_barbarossa
			}
			ROM = {
				add_ideas = GER_barbarossa
			}
			BUL = {
				add_ideas = GER_barbarossa
			}
		}
	} 

focus = {
		id = "Combined Axis Offensive" 
		icon = GER_barb
		prerequisite = { focus = "Prepare Operation Barbarossa"     }
		mutually_exclusive = {
			focus = "Strengthen the Wehrmacht"
		}
		x = 1
		y = 1
		relative_position_id = "Prepare Operation Barbarossa" 
		cost = 1
		available = {
		}
		ai_will_do = {
			factor = 1
		}
		completion_reward = {
			swap_ideas = {
				remove_idea = GER_barbarossa
				add_idea = GER_barbarossa_3
			}	
			HUN = {
				swap_ideas = {
				remove_idea = GER_barbarossa
				add_idea = GER_barbarossa_3
			}	
			}	
			SPR = {
				swap_ideas = {
				remove_idea = GER_barbarossa
				add_idea = GER_barbarossa_3
			}	
			}
			ROM = {
				swap_ideas = {
				remove_idea = GER_barbarossa
				add_idea = GER_barbarossa_3
			}	
			}
			BUL = {
				swap_ideas = {
				remove_idea = GER_barbarossa
				add_idea = GER_barbarossa_3
			}	
			}
		}
	} 

focus = {
		id = "Strengthen the Wehrmacht"
		icon = GER_moscow_push
		prerequisite = { focus = "Prepare Operation Barbarossa"     }
		mutually_exclusive = {
			focus = "Combined Axis Offensive" 
		}
		x = -1
		y = 1
		relative_position_id = "Prepare Operation Barbarossa" 
		cost = 1
		available = {
		}
		ai_will_do = {
			factor = 1
		}
		completion_reward = {
			swap_ideas = {
				remove_idea = GER_barbarossa
				add_idea = GER_barbarossa_2
			}
		}
	} 

	focus = {
		id = GER_focus_winter
		text = "Winter Season"
		icon = GER_winter_season
		prerequisite = { focus = "Strengthen the Wehrmacht" focus = "Combined Axis Offensive" }
		x = 0
		y = 2
		relative_position_id = "Prepare Operation Barbarossa" 
		cost = 5
		available = {
			date > 1941.11.1
		}
		ai_will_do = {
			factor = 1
		}
		
		completion_reward = {
		custom_effect_tooltip = "THIS FOCUS WILL BE AUTOCOMPLETED"
			every_country = { 
				limit = {
					is_in_faction_with = GER
				}
				add_ideas = GER_winter
			}
		}
	}

	focus = {
		id = GER_focus_continue_the_offense
		text = "Operation Typhoon"
		icon = GER_moscow
		prerequisite = { focus = GER_focus_winter }
		mutually_exclusive = {
			focus = GER_focus_prepare_defense
		}
		x = -1
		y = 1
		relative_position_id = GER_focus_winter 
		cost = 2
		available = {
			
		}
		ai_will_do = {
			factor = 1
		}
		completion_reward = {
			every_country = { 
				limit = {
					is_in_faction_with = GER
				}
				remove_ideas = GER_winter
				add_timed_idea = {
					idea = GER_winter3
					days = 95
				}
			}
		}
	}

	focus = {
		id = GER_focus_prepare_defense
		text = "Prepare Our Defense"
		icon = ger_osttruppenn
		prerequisite = { focus = GER_focus_winter   }
		mutually_exclusive = {
			focus = GER_focus_continue_the_offense
		}
		x = 1
		y = 1
		relative_position_id = GER_focus_winter
		cost = 2
		available = {
			
		}
		ai_will_do = {
			factor = 1
		}
		completion_reward = {
			every_country = { 
				limit = {
					is_in_faction_with = GER
				}
				remove_ideas = GER_winter
				add_timed_idea = {
					idea = GER_winter2
					days = 95
				}
			} 
		}
	}

	focus = {
		id = GER_focus_mud_season
		text = "Mud Season of 1942"
		icon = GER_unternehmen_zitadelle
		prerequisite = { focus = GER_focus_continue_the_offense focus = GER_focus_prepare_defense   }
		
		x = 0
		y = 2
		relative_position_id = GER_focus_winter 
		cost = 7
		available = {
			GER = {
				NOT = {
					OR = {
						has_idea = GER_winter2
						has_idea = GER_winter3
					}
				}
			}
		}
		ai_will_do = {
			factor = 1
		}
		completion_reward = {
			custom_effect_tooltip = "THIS FOCUS WILL BE AUTOCOMPLETED"
			every_state = {
				limit={ is_core_of = SOV }
				add_dynamic_modifier = { modifier = mudseason days=60  }
			}
			hidden_effect = {
				BHU = { country_event = news.5005 }
			}
		}
	}
	focus = {
		id = "Fall Blau" 
		icon = GER_Manstein_Stalingrad
		prerequisite = { focus = GER_focus_mud_season }
		x = 0
		y = 1
		relative_position_id = GER_focus_mud_season
		cost = 1
		available = {
			date > 1942.3.1
			date < 1942.7.1
		}
		bypass = {
			date > 1942.7.2
		}
		ai_will_do = {
			factor = 1
		}
		completion_reward = {
			# add_timed_idea = {
			# 	idea = GER_fall_blau
			# 	days = 100
			# }
			activate_mission = GER_fall_blau_mission
			add_timed_idea = {
				idea = GER_Fall_blau_idea
				days = 100
			}
			hidden_effect = {
				hidden_effect = {scoped_sound_effect = "wehrmachtmann"}
			HUN = {
				add_timed_idea = {
					idea = GER_Fall_blau_idea
					days = 100
				}
			}	
			SPR = {
				add_timed_idea = {
					idea = GER_Fall_blau_idea
					days = 100
				}
			}
			ITA = {
				add_timed_idea = {
					idea = GER_Fall_blau_idea
					days = 100
				}
			}
			ROM = {
				add_timed_idea = {
					idea = GER_Fall_blau_idea
					days = 100
				}
			}
			BUL = {
				add_timed_idea = {
					idea = GER_Fall_blau_idea
					days = 100
				}
			}
		}
		}
	}

	focus = {
		id = "Unternehmen Zitadelle" 
		icon = GER_zitadelle
		prerequisite = { focus = "Fall Blau" }
		x = 0
		y = 1
		relative_position_id = "Fall Blau" 
		cost = 1
		available = {
			date > 1943.3.1
			date < 1943.7.1
		}
		bypass = {
			date > 1943.7.2
		}
		ai_will_do = {
			factor = 1
		}
		completion_reward = {
			add_timed_idea = {
				idea = GER_unternehmen_zitadelle
				days = 95
			}
			hidden_effect = {
			HUN = {
				add_timed_idea = {
					idea = GER_unternehmen_zitadelle
					days = 95
				}
			}	
			SPR = {
				add_timed_idea = {
					idea = GER_unternehmen_zitadelle
					days = 95
				}
			}
			ITA = {
				add_timed_idea = {
					idea = GER_unternehmen_zitadelle
					days = 95
				}
			}
			ROM = {
				add_timed_idea = {
					idea = GER_unternehmen_zitadelle
					days = 95
				}
			}
			BUL = {
				add_timed_idea = {
					idea = GER_unternehmen_zitadelle
					days = 95
				}
			}
		}
		}
	}

	

	focus = {
		id = "Crush the Soviets" 
		icon = gfx_ger_final_crusade
		prerequisite = { focus = "Unternehmen Zitadelle"       }
		x = 0
		y = 2
		relative_position_id = "Fall Blau"  
		cost = 1
		available = {
			date > 1944.3.1
			date < 1944.7.1
		}
		bypass = {
			date > 1944.7.2
		}
		ai_will_do = {
			factor = 1
		}
		completion_reward = {
			add_timed_idea = {
				idea = GER_unternehmen_suedwind
				days = 60
			}
			hidden_effect = {
			HUN = {
				add_timed_idea = {
					idea = GER_unternehmen_suedwind
					days = 60
				}
			}	
			SPR = {
				add_timed_idea = {
					idea = GER_unternehmen_suedwind
					days = 60
				}
			}
			ITA = {
				add_timed_idea = {
					idea = GER_unternehmen_suedwind
					days = 60
				}
			}
			ROM = {
				add_timed_idea = {
					idea = GER_unternehmen_suedwind
					days = 60
				}
			}
			BUL = {
				add_timed_idea = {
					idea = GER_unternehmen_suedwind
					days = 60
				}
			}
		}
		}
	}

	focus = {
		id = "Totaler Krieg"
		icon = GFX_total_war
		prerequisite = { focus =  "Send Rommel to Africa"   }
		x = 0
		y = 1
		relative_position_id =  "Send Rommel to Africa" 
		cost = 5
		available = {
			date > 1941.2.1
		}
		ai_will_do = {
			factor = 1
		}
		completion_reward = {
		hidden_effect = {
			scoped_sound_effect = "sp_ger_goebbels"
			}
		add_ideas = goebbels_total_war
		add_ideas = total_war
		}
	}

	focus = {
		id = "Organise Todt"
		icon = GFX_organise_todt
		prerequisite = { focus =  "Totaler Krieg"  }
		x = 0
		y = 1
		relative_position_id =  "Totaler Krieg"
		cost = 5
		available = {
			
		}
		ai_will_do = {
			factor = 1
		}
		completion_reward = {
			GER = {add_tech_bonus = {
				technology = construction5
				ahead_reduction = 3
				bonus = 1.0
				uses = 1
			}}

			ITA = {add_tech_bonus = {
				technology = construction5
				ahead_reduction = 3
				bonus = 1.0
				uses = 1
			}}
			ROM = {add_tech_bonus = {
				technology = construction5
				ahead_reduction = 3
				bonus = 1.0
				uses = 1
			}}
			HUN = {add_tech_bonus = {
				technology = construction5
				ahead_reduction = 3
				bonus = 1.0
				uses = 1
			}}

		}
	}

	focus = {
		id = "Concentrate on Air Production" 
		icon = GFX_goal_luftwaffe
		prerequisite = { focus = "Organise Todt"}
		mutually_exclusive = { focus = "Concentrate on Tank Production" }
		x = -1
		y = 1
		relative_position_id = "Organise Todt"
		cost = 5
		available = {
			date > 1942.4.1
		}
		ai_will_do = {
			factor = 1
		}
		completion_reward = {
			add_ideas = GER_concentrate_on_air_production
		}
	}

	focus = {
		id = "Concentrate on Tank Production" 
		icon = GFX_ger_achtung_panzer2
		prerequisite = { focus = "Organise Todt"}
		mutually_exclusive = { focus = "Concentrate on Air Production" }
		x = 1
		y = 1
		relative_position_id = "Organise Todt"
		cost = 5
		available = {
			date > 1942.4.1
		}
		ai_will_do = {
			factor = 1
		}
		completion_reward = {
			add_ideas = GER_concentrate_on_tank_production 
		}
	}

	focus = {
		id = GER_focus_main_battle_tank
		text = "Quantity over Quality"
		icon = GFX_HUN_hungaryhetzer2
		prerequisite = { focus = "Concentrate on Tank Production"  }
		mutually_exclusive = {
			focus = GER_focus_heavier_tank
		}
		x = 1
		y = 1
		relative_position_id = "Concentrate on Tank Production"  
		cost = 5
		available = {
			
		}
		ai_will_do = {
			factor = 1
		}
		completion_reward = {
			add_ideas = GER_medium_tank_idea
			add_tech_bonus = {
				name = "German Tank Research"
				bonus = 3.0
				uses = 1
				technology = advanced_medium_tank
			}
			hidden_effect = {country_event = { id = bhutan.7 }}
		}
	}
 
	focus = {
		id = GER_focus_heavier_tank
		text = "Quality over Quantitiy"
		icon = GFX_SS_panzer_elite
		prerequisite = { focus = "Concentrate on Tank Production"  }
		mutually_exclusive = {
			focus = GER_focus_main_battle_tank
		}
		x = -1
		y = 1
		relative_position_id = "Concentrate on Tank Production"  
		cost = 5
		available = {
			
		}
		ai_will_do = {
			factor = 1
		}
		completion_reward = {
			add_ideas = GER_heavy_tank_idea
			add_tech_bonus = {
				name = "German Tank Research"
				bonus = 3.0
				uses = 1
				technology = advanced_heavy_tank
			}
			hidden_effect = {country_event = { id = bhutan.7 }}
		}
	}

	focus = {
		id = "Endsieg"
		icon = GFX_endsieg
		prerequisite = { focus = "Totaler Krieg" }

		
		x = -2
		y = 1
		relative_position_id = "Totaler Krieg"
		cost = 5
		
			
		completion_reward = {	
			swap_ideas = {	remove_idea = goebbels_total_war	add_idea = goebbels_total_war2	}			
			create_corps_commander = {
			name = "Felix Steiner"
			gfx = "GFX_portrait_ger_felix_steiner"
			traits = {trait_reckless trickster panzer_leader panzer_expert commando ranger urban_assault_specialist camouflage_expert expert_improviser}
			skill = 7
			id = 35
			attack_skill = 8
			defense_skill = 6
			planning_skill = 6
			logistics_skill = 5
			}
			create_field_marshal = {
			name = "Heinrich Himmler"
			desc = "POLITICS_HEINRICH_HIMMLER_DESC"
			picture = "Portrait_Germany_Heinrich_Himmler.dds"
			traits = { brilliant_strategist organizer trickster commando panzer_leader panzer_expert urban_assault_specialist aggressive_assaulter fast_planner camouflage_expert thorough_planner }
			skill = 7
			id = 69
			attack_skill = 9
			defense_skill = 6
			planning_skill = 8
			logistics_skill = 4
			}
		}
	}

	focus = {
		id = "Volkssturm"
		icon = GFX_volkssturm
		prerequisite = { focus =  "Totaler Krieg"  }
		x = 2
		y = 1
		relative_position_id =  "Totaler Krieg"
		cost = 5
		available = {
			GER = {
				surrender_progress > 0.35
			}
		}
		ai_will_do = {
			factor = 1
		}
		completion_reward = {
			add_ideas = volkssturm
		}
	}

	focus = {
		id = "Reintegrate Poland"
		icon = GFX_reintegrate_poland
		prerequisite = { focus = GER_focus_greater_german_reich }
		available = {
			has_full_control_of_state = 762
			has_full_control_of_state = 86
			has_full_control_of_state = 85
			
		}
		bypass = {
		}
		cancel_if_invalid = yes
		x = 1
		y = 1
		relative_position_id = GER_focus_greater_german_reich
		cost = 5
		ai_will_do = {
			factor = 10
		}
		
		completion_reward = {
			add_state_core = 762
			add_state_core = 86
			add_state_core = 85
			762 = { set_state_name = "Kattowitz" }
			set_province_name = { id = 6464 name = "Kattowitz" }
			86 = { set_state_name = "Posen" }
			set_province_name = { id = 6558 name = "Posen" }
			set_province_name = { id = 279 name = "Bromberg" }
			set_province_name = { id = 3295 name = "Thorn" }
			add_ideas = GER_reintegrated_states_1
		}
	}

	focus = {
		id = "Reintegrate Luxemburg & Alsace Lorraine"
		icon = GFX_reintegrate_luxemburg
		prerequisite = { focus = "Reintegrate Poland" }
		available = {
			has_full_control_of_state = 8
			has_full_control_of_state = 28
		}
		bypass = {
		}
		cancel_if_invalid = yes
		x = 0
		y = 1
		relative_position_id = "Reintegrate Poland"
		cost = 5
		ai_will_do = {
			factor = 10
		}
		
		completion_reward = {
			add_state_core = 8
			add_state_core = 28
			28 = { set_state_name = "Elsass-Lothringen" }
			set_province_name = { id = 9503 name = "Strassburg" }
			set_province_name = { id = 678 name = "Mulhausen" }
			swap_ideas = {
				remove_idea = GER_reintegrated_states_1
				add_idea = GER_reintegrated_states_2
			}
		}
	}

	

	focus = {
		id = GER_naval_rearmament
		text = "Kriegsmarine"
		icon = GFX_GER_kriegsmarine
		x = 30
		y = 1
		cost = 5
		ai_will_do = {
			factor = 1
		}
		
		available_if_capitulated = yes
		prerequisite = { focus = GER_wehrmacht }
		complete_tooltip = {
			
		}
		search_filters = { FOCUS_FILTER_INDUSTRY }
		completion_reward = {
			58 = {
				add_extra_state_shared_building_slots = 10
				add_building_construction = {
					type = dockyard
					level = 10
					instant_build = yes
				}
			}
		}
	}

	
	focus = {
		id = GER_naval_effort
		text = naval_effort
		icon = GFX_goal_generic_navy_doctrines_tactics
		
		prerequisite = { focus = GER_naval_rearmament }
		x = 0
		y = 1
		relative_position_id = GER_naval_rearmament
		cost = 5
		ai_will_do = {
			factor = 1
		}

		available_if_capitulated = yes

		complete_tooltip = {
			
		}
		search_filters = { FOCUS_FILTER_RESEARCH FOCUS_FILTER_INDUSTRY }
		completion_reward = {
			63 = {
				add_extra_state_shared_building_slots = 5
				add_building_construction = {
					type = dockyard
					level = 5
					instant_build = yes
				}
			}
			add_tech_bonus = {
				name = dd_bonus
				bonus = 1.0
				uses = 1
				category = dd_tech
			}
			add_tech_bonus = {
				name = cr_bonus
				bonus = 1.0
				uses = 1
				category = cl_tech
				category = ca_tech
			}
		}
	}

	focus = {
		id = GER_naval_effort2
		icon = GFX_goal_generic_construct_naval_dockyard
		prerequisite = { focus = GER_naval_effort }
		x = 0
		y = 1
		relative_position_id = GER_naval_effort
		cost = 5
		ai_will_do = {
			factor = 1
		}

		available_if_capitulated = yes

	
		search_filters = { FOCUS_FILTER_INDUSTRY }
		completion_reward = {
			63 = {
				add_extra_state_shared_building_slots = 2
				add_building_construction = {
					type = dockyard
					level = 2
					instant_build = yes
				}
			}
		}
	}

	focus = {
		id = GER_plan_z
		icon = GFX_plan_z
		prerequisite = { focus = GER_naval_effort }
		mutually_exclusive = { focus = GER_u_boat_effort }
		x = -1
		y = 2
		relative_position_id = GER_naval_effort
		cost = 5
		ai_will_do = {
			factor = 0.25
		}	

		available_if_capitulated = yes


		search_filters = { FOCUS_FILTER_RESEARCH FOCUS_FILTER_INDUSTRY }
		completion_reward = {
			custom_effect_tooltip = "Will gain raiding Designer CRDA as well as several Naval techs researched"
			add_tech_bonus = {
				name = cr_bonus
				bonus = 1.0
				uses = 3
				category = cl_tech
				category = ca_tech
			}
			add_tech_bonus = {
				name = cv_bonus
				bonus = 1.0
				uses = 3
				category = cv_tech
			}
			hidden_effect =  { 
				add_ideas = crda_ger
				set_technology = { 
				smoke_generator = 1
				fire_control_methods_2 = 1
				fire_control_methods_3 = 1	
				damage_control_3 = 1
				damage_control_2 = 1
				improved_depth_charges = 1 
				improved_sonar = 1 
				improved_airplane_launcher = 1
				basic_cruiser_armor_scheme = 1
				magnetic_detonator = 1
				basic_light_shell = 1
				basic_medium_shell = 1
				basic_heavy_shell = 1 
				damage_control_1 = 1 
				fire_control_methods_1 = 1
				early_ship_hull_carrier = 1
				basic_heavy_armor_scheme = 1
				improved_ship_hull_heavy = 1
				popup = no
				}
			}			
		}
	}

	focus = {
		id = GER_battleship_focus
		icon = GFX_goal_generic_navy_battleship
		prerequisite = { focus = GER_plan_z }
		x = 0
		y = 1
		relative_position_id = GER_plan_z
		cost = 5
		ai_will_do = {
			factor = 0.25
		}	

		available_if_capitulated = yes

		search_filters = { FOCUS_FILTER_RESEARCH FOCUS_FILTER_INDUSTRY }
		completion_reward = {
			add_tech_bonus = {
				name = ti_bonus
				name = GER_trade_interdiction
				bonus = 3.0
				uses = 3
				category = naval_doctrine
			}
			create_equipment_variant = {
				name = "Bismarck-Klasse"
				type = ship_hull_heavy_3
				name_group = GER_BB_HISTORICAL
				parent_version = 0
				modules = {
					fixed_ship_battery_slot = ship_heavy_battery_3
					fixed_ship_anti_air_slot = ship_anti_air_3
					fixed_ship_fire_control_system_slot = ship_fire_control_system_3
					fixed_ship_radar_slot = ship_radar_3
					fixed_ship_engine_slot = heavy_ship_engine_3
					fixed_ship_secondaries_slot = ship_secondaries_2
					fixed_ship_armor_slot = ship_armor_bb_3
					front_1_custom_slot = ship_heavy_battery_3
					mid_1_custom_slot = ship_anti_air_3
					mid_2_custom_slot = ship_anti_air_3
					mid_3_custom_slot = ship_heavy_battery_3
					rear_1_custom_slot = ship_heavy_battery_3

				}
			}
			custom_effect_tooltip="Adds two Bismarck-Klasse Battleships to the production queue, at 85% and 90% completion, respectively."
			hidden_effect = {
				add_equipment_production = {
					equipment = {
						type = ship_hull_heavy_3
						creator = "GER"
						version_name = "Bismarck-Klasse"
					}
					name = "Bismarck"
					requested_factories = 1
					progress = 0.9
					amount = 1
				}
				
			}		
		}
	}

	focus = {
		id = GER_modular_constructionbb
		icon = GFX_goal_generic_construct_naval_dockyard
		prerequisite = { focus = GER_battleship_focus }
		x = 0
		y = 1
		relative_position_id = GER_battleship_focus
		cost = 5
		ai_will_do = {
			factor = 1
		}
			
		available_if_capitulated = yes
		search_filters = { FOCUS_FILTER_INDUSTRY }
		completion_reward = {
			add_ideas = {GER_modular_constructionbb}
		}
	}

	focus = {
		id = GER_u_boat_effort
		icon = GFX_u_boat_effort
		prerequisite = { focus = GER_naval_effort }
		mutually_exclusive = { focus = GER_plan_z }
		x = 1
		y = 2
		relative_position_id = GER_naval_effort
		cost = 5
		ai_will_do = {
			factor = 1
		}

		available_if_capitulated = yes
		complete_tooltip = {
			every_state = {
				limit = { has_state_flag = GER_u_boat_effort_2dockyards }
				add_extra_state_shared_building_slots = 2
				add_building_construction = {
					type = dockyard
					level = 2
					instant_build = yes
				}
			}
			add_tech_bonus = {
				name = GER_u_boat_effort
				bonus = 1.0
				uses = 1
				category = ss_tech
			}
			add_ideas = crda_ger
			if = {
				limit = {
					has_dlc = "Man the Guns"
				}
				set_technology = { cruiser_submarines = 1 }
			}
		}
		
		search_filters = { FOCUS_FILTER_INDUSTRY FOCUS_FILTER_RESEARCH }
		completion_reward = {
			random_owned_controlled_state = {
				limit = {
					dockyard > 0
					free_building_slots = {
						building = dockyard
						size > 1
						include_locked = yes
					}
				}
				add_extra_state_shared_building_slots = 2
				add_building_construction = {
					type = dockyard
					level = 2
					instant_build = yes
				}
				set_state_flag = GER_u_boat_effort_2dockyards
			}
			add_tech_bonus = {
				name = GER_u_boat_effort
				bonus = 1.0
				uses = 1
				category = ss_tech
			}
			add_ideas = crda_ger
			if = {
				limit = {
					has_dlc = "Man the Guns"
				}
				set_technology = { cruiser_submarines = 1 }
			}
		}
	}

	focus = {
		id = GER_trade_interdiction
		icon = GFX_goal_generic_wolf_pack
		prerequisite = { focus = GER_u_boat_effort }
		x = 0
		y = 1
		relative_position_id = GER_u_boat_effort
		cost = 5
		ai_will_do = {
			factor = 1
		}
			
		available_if_capitulated = yes
		search_filters = { FOCUS_FILTER_RESEARCH }
		completion_reward = {
			add_tech_bonus = {
				name = ti_bonus
				name = GER_trade_interdiction
				bonus = 3.0
				uses = 3
				category = naval_doctrine
			}
		}
	}

	focus = {
		id = GER_modular_construction
		icon = GFX_goal_generic_construct_naval_dockyard
		prerequisite = { focus = GER_trade_interdiction }
		x = 0
		y = 1
		relative_position_id = GER_trade_interdiction
		cost = 5
		ai_will_do = {
			factor = 1
		}
			
		available_if_capitulated = yes
		search_filters = { FOCUS_FILTER_INDUSTRY }
		completion_reward = {
			add_ideas = GER_modular_construction
		}
	}

}
