﻿focus_tree = {
	id = italian_focus

	country = {
		factor = 0
		
		modifier = {
			add = 10
			tag = ITA 
		}
	}
	
	default = no

	continuous_focus_position = { x = 2500 y = 1050 }

	focus = {
		id = ITA_victoryinETH
		icon = GFX_goal_ita_victory_by_any_means
		available_if_capitulated = yes

		x = 12
		y = 0
		cost = 5
		ai_will_do = {
			factor = 1
		}	
		search_filters = { FOCUS_FILTER_STABILITY FOCUS_FILTER_WAR_SUPPORT}

		completion_reward = {
			add_political_power = 150
			add_stability = 0.1
			add_war_support = 0.1
		}
	}
	focus = {
		id = ITA_italian_highways
		icon = GFX_italian_highways
		text = ITA_italian_highways
		prerequisite = { focus = ITA_victoryinETH }

		x = -7
		y = 1
		cost = 5
		ai_will_do = {
			factor = 1
		}	
		relative_position_id = ITA_victoryinETH
		search_filters = { FOCUS_FILTER_INDUSTRY }

		completion_reward = {
			2 = {
					add_extra_state_shared_building_slots = 10
					add_building_construction = {
						type = infrastructure
						level = 1
						instant_build = yes
					}
			}
			117 = {
				if = {
					limit = { is_controlled_by = ROOT }
					add_extra_state_shared_building_slots = 10
					add_building_construction = {
						type = infrastructure 
						level = 1
						instant_build = yes
					}
				}
			}
			156 = {
				if = {
					limit = { is_controlled_by = ROOT }
					add_extra_state_shared_building_slots = 10
					add_building_construction = {
						type = infrastructure
						level = 1
						instant_build = yes
					}
				}
			}
			157 = {
				if = {
					limit = { is_controlled_by = ROOT }
					add_extra_state_shared_building_slots = 10
					add_building_construction = {
						type = infrastructure
						level = 1
						instant_build = yes
					}
				}
			}
			158 = {
				if = {
					limit = { is_controlled_by = ROOT }
					add_extra_state_shared_building_slots = 10
					add_building_construction = {
						type = infrastructure
						level = 1
						instant_build = yes
					}
				}
			}
			159 = {
				if = {
					limit = { is_controlled_by = ROOT }
					add_extra_state_shared_building_slots = 10
					add_building_construction = {
						type = infrastructure
						level = 1
						instant_build = yes
					}
				}
			}
			160 = {
				if = {
					limit = { is_controlled_by = ROOT }
					add_extra_state_shared_building_slots = 10
					add_building_construction = {
						type = infrastructure
						level = 1
						instant_build = yes
					}
				}
			}
			161 = {
				if = {
					limit = { is_controlled_by = ROOT }
					add_extra_state_shared_building_slots = 10
					add_building_construction = {
						type = infrastructure
						level = 1
						instant_build = yes
					}
				}
			}
			162 = {
				if = {
					limit = { is_controlled_by = ROOT }
					add_extra_state_shared_building_slots = 10
					add_building_construction = {
						type = infrastructure
						level = 1
						instant_build = yes
					}
				}
			}									
			
		}
	}	

	focus = {
		id = ITA_industrial_effort
		icon = GFX_goal_generic_construct_civ_factory
		text = industrial_effort
		prerequisite = { focus = ITA_italian_highways }
		x = -2
		y = 1
		relative_position_id = ITA_italian_highways
		cost = 5
		ai_will_do = {
			factor = 1
		}

		available_if_capitulated = yes

		bypass = {
			
		}
		search_filters = { FOCUS_FILTER_INDUSTRY }

		completion_reward = {
			custom_effect_tooltip = ITA_civs_tt
			if = {
				limit = {
					BUL = {
						is_ai = no
					}
					
				}
				2 = {
					add_extra_state_shared_building_slots = 8
					add_building_construction = {
						type = industrial_complex
						level = 8
						instant_build = yes
					}
				}
			}
			
			else = {
				2 = {
					add_extra_state_shared_building_slots = 5
					add_building_construction = {
						type = industrial_complex
						level = 5
						instant_build = yes
					}
				}
			}
		}
	}

	focus = {
		id = "Expand our Civilian Economy"
		icon = GFX_goal_generic_construct_civ_factory
		prerequisite = { focus = ITA_industrial_effort }
		mutually_exclusive = { focus = "Italian War Economy" }
		x = -1
		y = 2
		relative_position_id = ITA_italian_highways
		cost = 5
		ai_will_do = {
			factor = 1
		}

		available_if_capitulated = yes

		bypass = {
			
		}
		search_filters = { FOCUS_FILTER_INDUSTRY }

		completion_reward = {
			2 = {
				add_extra_state_shared_building_slots = 10
				add_building_construction = {
					type = infrastructure
					level = 1
					instant_build = yes
				}
				
			}
			162 = {
				add_extra_state_shared_building_slots = 10
				add_building_construction = {
					type = infrastructure
					level = 1
					instant_build = yes
				}
				
			}
			159 = {
				add_extra_state_shared_building_slots = 10
				add_building_construction = {
					type = infrastructure
					level = 1
					instant_build = yes
				}
			}
			add_ideas = ita_civilian_economy
			add_tech_bonus = {
				name = "Construction Bonus"
				bonus = 1.0
				uses = 1
				category = construction_tech
			}
		}
	}

	focus = {
		id = "Italian War Economy"
		icon = GFX_goal_generic_construct_mil_factory
		prerequisite = { focus = "Military Effort" }
		mutually_exclusive = { focus = "Expand our Civilian Economy" }
		x = 1
		y = 2
		relative_position_id = ITA_italian_highways
		cost = 5
		ai_will_do = {
			factor = 1
		}

		available_if_capitulated = yes

		bypass = {
			
		}
		search_filters = { FOCUS_FILTER_INDUSTRY }

		completion_reward = {
			add_ideas = ita_war_economy
			
			158 = {
				add_extra_state_shared_building_slots = 6
				add_building_construction = {
					type = arms_factory
					level = 6
					instant_build = yes
				}
			}
		}
	}

	focus = {
		id = "Military Effort"
		icon = GFX_goal_generic_construct_mil_factory
		prerequisite = { focus = ITA_italian_highways }
		x = 4
		y = 0
		relative_position_id = ITA_industrial_effort
		cost = 5
		ai_will_do = {
			factor = 1
		}

		available_if_capitulated = yes

		bypass = {
			
		}
		search_filters = { FOCUS_FILTER_INDUSTRY }

		completion_reward = {
			custom_effect_tooltip = ITA_mills_tt
			if = {
				limit = {
					BUL = {
						is_ai = no
					}
					
				}
				2 = {
					add_extra_state_shared_building_slots = 12
					add_building_construction = {
						type = arms_factory
						level = 12
						instant_build = yes
					}
				}
			}
			
			else = {
				2 = {
					add_extra_state_shared_building_slots = 6
					add_building_construction = {
						type = arms_factory
						level = 6
						instant_build = yes
					}
				}
			}
		}
	}

	focus = {
		id = "Modern Factory Tools"
		icon = GFX_goal_generic_air_production
		prerequisite = { focus = "Expand our Civilian Economy" focus = "Italian War Economy" }
		x = 0
		y = 3
		relative_position_id = ITA_italian_highways 
		cost = 5
		ai_will_do = {
			factor = 1
		}

		available_if_capitulated = yes

		bypass = {
			
		}
		search_filters = { FOCUS_FILTER_INDUSTRY }

		completion_reward = { 
			add_tech_bonus = {
				name = "Industry Bonus"
				bonus = 1.0
				uses = 2
				category = cat_tools
			}
			add_tech_bonus = {
				name = ship_tools
				bonus = 1.0
				uses = 2
				category = ship_tools
			}
		}		
	}

	focus = {
		id = ITA_focus_civ2
		text = "Industrial Effort II"
		icon = GFX_goal_generic_construct_civilian
		prerequisite = { focus = "Expand our Civilian Economy" }
		x = -1
		y = 4
		relative_position_id = ITA_italian_highways 
		cost = 5
		ai_will_do = {
			factor = 1
		}

		available_if_capitulated = yes

		bypass = {
			
		}
		search_filters = { FOCUS_FILTER_INDUSTRY }

		completion_reward = { 
			swap_ideas = {
				remove_idea = ita_civilian_economy
				add_idea = ita_civilian_economy2
			}
		}		
	} 

	focus = {
		id = ITA_focus_excav
		text = "Search For Resources"
		icon = GFX_goal_generic_construction2
		prerequisite = { focus = ITA_focus_italy_north2 focus = ITA_focus_italy_south2 }
		x = -1
		y = 6
		relative_position_id = ITA_italian_highways
		cost = 5
		ai_will_do = {
			factor = 1
		}

		available_if_capitulated = yes

		bypass = {
			
		}
		search_filters = { FOCUS_FILTER_INDUSTRY }

		completion_reward = { 
			add_tech_bonus = {
				name = Excavation
				bonus = 1.0
				uses = 3
				technology = excavation1
				technology = excavation2
				technology = excavation3
				technology = excavation4
				technology = excavation5
			}
		}		
	}

	focus = {
		id = ITA_focus_excav2
		text = "Construct Steel Mines"
		icon = GFX_goal_generic_construction2
		prerequisite = { focus = ITA_focus_italy_north2 focus = ITA_focus_italy_south2 }
		x = 1
		y = 6
		relative_position_id = ITA_italian_highways
		cost = 5
		ai_will_do = {
			factor = 1
		}

		available_if_capitulated = yes

		bypass = {
			
		}
		search_filters = { FOCUS_FILTER_INDUSTRY }

		completion_reward = { 
			add_ideas = ITA_steel_mines
		}		
	}

	focus = {
		id = ITA_focus_mill2
		text = "Military Effort II"
		icon = GFX_goal_generic_production2
		prerequisite = { focus = "Italian War Economy" }
		x = 1
		y = 4
		relative_position_id = ITA_italian_highways 
		cost = 5
		ai_will_do = {
			factor = 1
		}

		available_if_capitulated = yes

		bypass = {
			
		}
		search_filters = { FOCUS_FILTER_INDUSTRY }

		completion_reward = { 
			swap_ideas = {
				remove_idea = ita_war_economy
				add_idea = ita_war_economy2
			}
		}		
	}

	focus = {
		id = ITA_focus_italy_north
		text = "Develope The North"
		icon = GFX_goal_generic_construction
		prerequisite = { focus = ITA_industrial_effort }
		x = -2
		y = 3
		relative_position_id = ITA_italian_highways
		cost = 5
		ai_will_do = {
			factor = 1
		}

		available_if_capitulated = yes

		bypass = {
			
		}
		search_filters = { FOCUS_FILTER_INDUSTRY }

		completion_reward = {
			160 = {
				add_extra_state_shared_building_slots = 3
				set_state_flag = ITA_north_state
			}
			162 = {
				add_extra_state_shared_building_slots = 3
				set_state_flag = ITA_north_state
			}
			161 = {
				add_extra_state_shared_building_slots = 3
				set_state_flag = ITA_north_state
			}
			159 = {
				add_extra_state_shared_building_slots = 3
				set_state_flag = ITA_north_state
			}
			158 = {
				add_extra_state_shared_building_slots = 3
				set_state_flag = ITA_north_state
			}
			736 = {
				add_extra_state_shared_building_slots = 3
				set_state_flag = ITA_north_state
			}
		}
	}

	focus = {
		id = ITA_focus_italy_north2
		text = "Further Northern Expansion"
		mutually_exclusive = {
			focus = ITA_focus_italy_south2
		}
		icon = GFX_goal_generic_construct_infrastructure
		prerequisite = { focus = ITA_focus_italy_north }
		x = -2
		y = 5
		relative_position_id = ITA_italian_highways
		cost = 5
		ai_will_do = {
			factor = 1
		}

		available_if_capitulated = yes

		bypass = {
			
		}
		search_filters = { FOCUS_FILTER_INDUSTRY }

		completion_reward = {
			custom_effect_tooltip = ITA_mill_state_tt
			every_owned_state = {
				limit = {
					has_state_flag = ITA_north_state
				}
				add_dynamic_modifier = {
					modifier = ITA_mill_state
				}
			}
		}
	}

	focus = {
		id = ITA_focus_italy_south2
		text = "Further Southern Expansion"
		mutually_exclusive = {
			focus = ITA_focus_italy_north2
		}
		icon = GFX_goal_generic_construct_infrastructure
		prerequisite = { focus = ITA_focus_italy_south }
		x = 2
		y = 5
		relative_position_id = ITA_italian_highways
		cost = 5
		ai_will_do = {
			factor = 1
		}

		available_if_capitulated = yes

		bypass = {
			
		}
		search_filters = { FOCUS_FILTER_INDUSTRY }

		completion_reward = {
			custom_effect_tooltip = ITA_dockyard_state_tt
			every_owned_state = {
				limit = {
					has_state_flag = ITA_south_state
				}
				add_dynamic_modifier = {
					modifier = ITA_dockyard_state
				}
			}
		}
	}

	focus = {
		id = ITA_focus_italy_south
		text = "Develope The South"
		icon = GFX_goal_generic_construction
		prerequisite = { focus = "Military Effort" }
		x = 2
		y = 3
		relative_position_id = ITA_italian_highways
		cost = 5
		ai_will_do = {
			factor = 1
		}

		available_if_capitulated = yes

		bypass = {
			
		}
		search_filters = { FOCUS_FILTER_INDUSTRY }

		completion_reward = {
			2 = {
				add_extra_state_shared_building_slots = 3
				set_state_flag = ITA_south_state
			}
			157 = {
				add_extra_state_shared_building_slots = 3
				set_state_flag = ITA_south_state
			}
			117 = {
				add_extra_state_shared_building_slots = 3
				set_state_flag = ITA_south_state
			}
			156 = {
				add_extra_state_shared_building_slots = 3
				set_state_flag = ITA_south_state
			}
			115 = {
				add_extra_state_shared_building_slots = 3
				set_state_flag = ITA_south_state
			}
		}
	}

	focus = {
		id = ITA_extra_tech_slot
		icon = GFX_focus_research
		text = extra_tech_slot
		prerequisite = { focus = ITA_italian_highways }
		x = -2
		y = 0
		relative_position_id = "Military Effort"
		cost = 5
		ai_will_do = {
			factor = 1
		}

		available_if_capitulated = yes
		search_filters = { FOCUS_FILTER_RESEARCH }

		completion_reward = {
			add_research_slot = 1
		}
	}

	

	focus = {
		id = ITA_army_primacy
		icon = GFX_goal_generic_axis_build_infantry
		prerequisite = { focus = ITA_victoryinETH }
		x = 12
		y = 1
		cost = 5
		ai_will_do = {
			factor = 0.25
		}

		available_if_capitulated = yes
		search_filters = { FOCUS_FILTER_INDUSTRY FOCUS_FILTER_RESEARCH }

		completion_reward = {
			2 = {
				add_extra_state_shared_building_slots = 6
				add_building_construction = {
					type = arms_factory
					level = 6
					instant_build = yes
				}
			}
			add_tech_bonus = {
				name = land_doc_bonus
				bonus = 1.0
				uses = 4
				category = land_doctrine
			}
			add_tech_bonus = {
				name = armor_bonus
				bonus = 2
				uses = 1
				technology = advanced_light_tank
			}
		}
	}

	focus = {
		id = ITA_modernized_artillery
		icon = GFX_goal_generic_army_artillery
		prerequisite = { focus = ITA_army_primacy }
		x = -3
		y = 1
		relative_position_id = ITA_army_primacy
		cost = 5
		ai_will_do = {
			factor = 1
		}

		available_if_capitulated = yes
		search_filters = { FOCUS_FILTER_RESEARCH }

		completion_reward = {
			add_tech_bonus = {
				name = arty_bonus
				bonus = 1.0
				uses = 2
				technology = artillery3
				technology = artillery4
			}
		}
	}

	focus = {
		id = "AT Modernisation"
		icon = GFX_goal_generic_army_artillery2
		prerequisite = { focus = ITA_army_primacy }
		x = -1
		y = 1
		relative_position_id = ITA_army_primacy
		cost = 5
		ai_will_do = {
			factor = 1
		}

		available_if_capitulated = yes
		search_filters = { FOCUS_FILTER_RESEARCH }

		completion_reward = {
			add_tech_bonus = {
				name = "Anti Tank Modernisation"
				bonus = 1
				uses = 5
				technology = antitank1
				technology = antitank2
				technology = antitank3
				technology = antitank4
				technology = antitank5
			}
		}
	}

	focus = {
		id = ITA_modernized_army
		icon = GFX_goal_generic_small_arms
		prerequisite = { focus = ITA_army_primacy }
		x = 0
		y = 3
		relative_position_id = ITA_army_primacy
		cost = 5
		ai_will_do = {
			factor = 1
		}

		available_if_capitulated = yes
		search_filters = { FOCUS_FILTER_RESEARCH }

		completion_reward = {
			add_tech_bonus = {
			name = "Gun Research"
			bonus = 1
			uses = 3 
			technology = improved_infantry_weapons
			technology = improved_infantry_weapons_2
			technology = advanced_infantry_weapons
			}
			add_ideas = ITA_gun_modernisation
			
		}
	}

	focus = {
		id = ITA_invest_in_quantity_gun
		icon = GFX_goal_generic_production
		prerequisite = { focus = ITA_modernized_army }
		mutually_exclusive = { focus = ITA_invest_in_quality_gun }
		mutually_exclusive = { focus = ITA_focus_gun_research_speed }
		x = -2
		y = 1
		relative_position_id = ITA_modernized_army
		cost = 5
		ai_will_do = {
			factor = 1
		}

		available_if_capitulated = yes
		search_filters = { FOCUS_FILTER_RESEARCH }

		completion_reward = {
			add_ideas = ITA_invest_in_quantity_gun
		}
	}

	focus = {
		id = ITA_invest_in_quantity_at
		icon = GFX_goal_generic_army_artillery
		prerequisite = { focus = ITA_invest_in_quantity_gun }
		x = 0
		y = 1
		relative_position_id = ITA_invest_in_quantity_gun
		cost = 5
		ai_will_do = {
			factor = 1
		}

		available_if_capitulated = yes
		search_filters = { FOCUS_FILTER_RESEARCH }

		completion_reward = {
			add_ideas = ITA_invest_in_quantity_at
		}
	}


	focus = {
		id = ITA_invest_in_quality_gun
		icon = GFX_goal_generic_small_arms
		prerequisite = { focus = ITA_modernized_army}
		mutually_exclusive = { focus = ITA_invest_in_quantity_gun }
		mutually_exclusive = { focus = ITA_focus_gun_research_speed }
		x = 0
		y = 1
		relative_position_id = ITA_modernized_army
		cost = 5
		ai_will_do = {
			factor = 1
		}

		available_if_capitulated = yes
		search_filters = { FOCUS_FILTER_RESEARCH }

		completion_reward = {
			add_ideas = ITA_invest_in_quality_gun
		}
	}

	focus = {
		id = ITA_focus_gun_research_speed
		text = "Expanded Gun Research"
		icon = GFX_goal_continuous_reduce_training_time
		prerequisite = { focus = ITA_modernized_army}
		mutually_exclusive = { focus = ITA_invest_in_quantity_gun }
		mutually_exclusive = { focus = ITA_invest_in_quality_gun }
		x = 2
		y = 1
		relative_position_id = ITA_modernized_army
		cost = 5
		ai_will_do = {
			factor = 1
		}

		available_if_capitulated = yes
		search_filters = { FOCUS_FILTER_RESEARCH }

		completion_reward = {
			add_ideas = ITA_gun_research
		}
	}

	focus = {
		id = ITA_focus_at_research_speed
		text = "Anti-Tank Experiments"
		icon = GFX_focus_generic_army_tanks2
		prerequisite = { focus = ITA_focus_gun_research_speed}
		x = 0
		y = 1
		relative_position_id = ITA_focus_gun_research_speed
		cost = 5
		ai_will_do = {
			factor = 1
		}
 
		available_if_capitulated = yes
		search_filters = { FOCUS_FILTER_RESEARCH }

		completion_reward = {
			add_ideas = ITA_at_research 
		}
	}

	focus = {
		id = ITA_invest_in_quality_at
		icon = GFX_goal_generic_army_artillery2
		prerequisite = { focus = ITA_invest_in_quality_gun}
		x = 0
		y = 1
		relative_position_id = ITA_invest_in_quality_gun
		cost = 5
		ai_will_do = {
			factor = 1
		}

		available_if_capitulated = yes
		search_filters = { FOCUS_FILTER_RESEARCH }

		completion_reward = {
			add_ideas = ITA_invest_in_quality_at
		}
	}


	focus = {
		id = "Rocket Artillery"
		icon = GFX_focus_rocketry
		prerequisite = { focus = ITA_modernized_artillery }
		mutually_exclusive = {
			focus = ITA_focus_rocket_engines
		}
		x = 0
		y = 1
		relative_position_id = ITA_modernized_artillery
		cost = 5
		ai_will_do = {
			factor = 1
		}

		available_if_capitulated = yes
		search_filters = { FOCUS_FILTER_RESEARCH }

		completion_reward = {
			add_tech_bonus = {
				name = secret_bonus
				bonus = 0.5
				uses = 3
				technology = rocket_artillery
				technology = rocket_artillery2
				technology = motorized_rocket_unit
			}
			add_tech_bonus = {
				name = secret_bonus
				bonus = 1
				uses = 2
				technology = rocket_artillery3
				technology = rocket_artillery4
			}
			
		}
	}

	focus = {
		id = ITA_focus_rocket_engines
		text = "Rocket Engines"
		icon = GFX_focus_rocketry
		prerequisite = { focus = ITA_modernized_artillery }
		mutually_exclusive = {
			focus = "Rocket Artillery"
		}
		x = 2
		y = 1
		relative_position_id = ITA_modernized_artillery
		cost = 5
		ai_will_do = {
			factor = 1
		}

		available_if_capitulated = yes
		search_filters = { FOCUS_FILTER_RESEARCH }

		completion_reward = {
			add_tech_bonus = {
				name = secret_bonus
				bonus = 1
				uses = 4
				technology = experimental_rockets
				technology = rocket_engines
				technology = jet_engines
				technology = jet_fighter1
			}
			
		}
	}

	focus = {
		id = ITA_special_forces
		icon = GFX_goal_generic_special_forces
		text = special_forces
		prerequisite = { focus = ITA_army_primacy }
		x = 1
		y = 1
		relative_position_id = ITA_army_primacy
		ai_will_do = {
			factor = 1
		}

		available_if_capitulated = yes
		search_filters = { FOCUS_FILTER_RESEARCH }
		cost = 5
		completion_reward = {
			add_tech_bonus = {
				name = special_bonus
				bonus = 1.0
				uses = 6
				category = mountaineers_tech
				category = camelry_tech
				category = marine_tech
			}
		}
	}

	focus = {
		id = "Fiat Factories"
		icon = GFX_goal_generic_army_motorized
		prerequisite = { focus = ITA_army_primacy }
		x = 3
		y = 1
		relative_position_id = ITA_army_primacy
		cost = 5
		ai_will_do = {
			factor = 1
		}

		available_if_capitulated = yes
		search_filters = { FOCUS_FILTER_RESEARCH }

		completion_reward = {
			add_tech_bonus = {
			name = "Italian Tank Research"
			bonus = 3
			uses = 1
			category = motorized_equipment
			}
			add_tech_bonus = {
				name = "Italian Tank Research"
				bonus = 1.0
				uses = 1
				category = motorized_equipment
				}
		}
	}

	focus = {
		id = ITA_armored_effort
		icon = GFX_ITA_tank
		prerequisite = { focus = "Fiat Factories" }
		mutually_exclusive = {
			focus = ITA_focus_german_tank
		}
		x = 0
		y = 1
		relative_position_id = "Fiat Factories"
		cost = 5
		ai_will_do = {
			factor = 1
		}
		available = {
			
		}

		available_if_capitulated = yes
		search_filters = { FOCUS_FILTER_RESEARCH }

		completion_reward = {
			add_tech_bonus = {
				name = "Italian Tank Research"
				ahead_reduction = 3
				bonus = 1.0
				uses = 1
				technology = basic_medium_tank
			}
			add_tech_bonus = {
				name = "Italian Tank Research"
				bonus = 1.0
				uses = 1
				technology = improved_medium_tank
			}
			add_tech_bonus = {
				name = "Italian Tank Research"
				bonus = 1.0
				uses = 1
				technology = advanced_medium_tank
			}
			
			add_tech_bonus = {
				name = "Italian Tank Research"
				bonus = 1.0
				uses = 1
				technology = improved_heavy_tank
			}
			add_tech_bonus = {
				name = "Italian Tank Research"
				bonus = 1.0
				uses = 1
				technology = advanced_heavy_tank
			}		
			hidden_effect = {country_event = { id = bhutan.7 }}
		}
	}

	focus = {
		id = ITA_focus_german_tank
		text = "Buy German Tanks"
		icon = GFX_ger_armor_production
		prerequisite = { focus = "Fiat Factories" }
		mutually_exclusive = {
			focus = ITA_armored_effort
		}
		x = -2
		y = 1
		relative_position_id = "Fiat Factories"
		cost = 5
		ai_will_do = {
			factor = 1
		}
		available = {
			
		}

		available_if_capitulated = yes
		search_filters = { FOCUS_FILTER_RESEARCH }

		completion_reward = {
			add_relation_modifier = {
				target = GER
				modifier = ROM_license_german_equipment
			}
		}
	}

	focus = {
		id = "Rush for Tank Designs"
		icon = GFX_focus_generic_tank_production
		prerequisite = { focus = ITA_armored_effort }
		x = 0
		y = 1
		relative_position_id = ITA_armored_effort
		cost = 5
		ai_will_do = {
			factor = 1
		}

		available_if_capitulated = yes
		search_filters = { FOCUS_FILTER_RESEARCH }

		completion_reward = {
			add_ideas = ITA_rush_for_tank_designs
		}
	} 

	focus = {
		id = "The Lord of the Mediterranean"
		icon = GFX_ITA_roma_class_battleship
		prerequisite = { focus = ITA_victoryinETH }
		x = 21
		y = 1

		cost = 5
		ai_will_do = {
			factor = 1
		}

		available_if_capitulated = yes
		search_filters = { FOCUS_FILTER_RESEARCH }

		completion_reward = {
			add_ideas = CRDA
			
		}
	}

	focus = {
		id = ITA_mare_nostrum
		icon = GFX_goal_generic_build_navy
		x = 3
		y = 1
		cost = 5
		ai_will_do = {
			factor = 5
		}
		relative_position_id = "The Lord of the Mediterranean"
		prerequisite = { focus = "The Lord of the Mediterranean" }
		available_if_capitulated = yes
		search_filters = { FOCUS_FILTER_INDUSTRY FOCUS_FILTER_RESEARCH }

		completion_reward = {
			add_ideas = ITA_mare_nostrum
			2 = {
				add_extra_state_shared_building_slots = 20
				add_building_construction = {
					type = dockyard
					level = 20
					instant_build = yes
				}
			}
			
		}
	}

	focus = {
		id = "Venetian Dockyards"
		icon = GFX_goal_continuous_naval_production
		prerequisite = { focus = ITA_mare_nostrum }
		x = 1
		y = 1
		relative_position_id = ITA_mare_nostrum
		cost = 5
		ai_will_do = {
			factor = 1
		}

		available_if_capitulated = yes
		search_filters = { FOCUS_FILTER_RESEARCH }

		completion_reward = {
			160 = {
				add_extra_state_shared_building_slots = 10
				add_building_construction = {
					type = dockyard
					level = 10
					instant_build = yes
				}
			}
			
		}
	}

	

	

	focus = {
		id = "Macci"
		icon = GFX_goal_generic_build_airforce
		prerequisite = { focus = ITA_victoryinETH }
		x = 27
		y = 1
		cost = 5
		ai_will_do = {
			factor = 1
		}
		available = {
			date > 1938.1.1
		}

		available_if_capitulated = yes
		search_filters = { FOCUS_FILTER_RESEARCH }

		completion_reward = {
			ITA = {
				if = { limit = { NOT = { has_idea = macchi }} add_ideas = macchi add_political_power = -50  }
				set_technology = { fighter2 = 1 }
				add_equipment_production = {
					equipment = {
						type = fighter_equipment_2
					}		
					requested_factories = 150
					amount = 0
				}}
			}
			
	}

	focus = {
		id = "Carrier Experiments"
		icon = GFX_goal_generic_navy_carrier
		prerequisite = { focus = "The Lord of the Mediterranean" }
		x = -3
		y = 1
		relative_position_id = "The Lord of the Mediterranean"
		cost = 5
		ai_will_do = {
			factor = 1
		}

		available_if_capitulated = yes
		search_filters = { FOCUS_FILTER_RESEARCH }

		completion_reward = {
			add_tech_bonus = {
				name = cv_bonus
				bonus = 3.0
				uses = 1
				category = cv_tech
			}
			add_tech_bonus = {
				name = cv_bonus
				bonus = 1.0
				uses = 1
				category = cv_tech
			}
		}
	}

	focus = {
		id = "Naval Bomber"
		icon = GFX_goal_generic_navy_carrier
		prerequisite = { focus = "Carrier Experiments" }
		
		x = -1
		y = 1
		relative_position_id = "Carrier Experiments"
		cost = 5
		ai_will_do = {
			factor = 1
		}

		available_if_capitulated = yes
		search_filters = { FOCUS_FILTER_RESEARCH }

		completion_reward = {
			add_tech_bonus = {
				name = "NAV Effort"
				bonus = 1.0
				uses = 2
				category = naval_bomber
			}
		}
	}

	focus = {
		id = "Battlecruiser Modernisation"
		text = "Heavy Ship Modernization"
		icon = GFX_goal_generic_navy_battleship
		prerequisite = { focus = "The Lord of the Mediterranean" }
		x = -1
		y = 1
		relative_position_id = "The Lord of the Mediterranean"
		cost = 5
		ai_will_do = {
			factor = 1
		}

		available_if_capitulated = yes
		search_filters = { FOCUS_FILTER_RESEARCH }

		completion_reward = {
			add_tech_bonus = {
				name = bb_bonus
				bonus = 1.0
				uses = 2
				category = bb_tech
				category = bc_tech
			}
		}
	}

	focus = {
		id = ITA_focus_bb_guns
		text = "Modern Battleship Equipment"
		icon = GFX_goal_generic_navy_battleship
		prerequisite = { focus = "Battlecruiser Modernisation" }
		x = -1
		y = 1
		relative_position_id = "Battlecruiser Modernisation"
		cost = 5
		ai_will_do = {
			factor = 1
		}

		available_if_capitulated = yes
		search_filters = { FOCUS_FILTER_RESEARCH }

		completion_reward = {
			add_tech_bonus = {
				name = bb_bonus
				bonus = 0.5
				uses = 2
				category = bb_armor
				category = bb_gun
			}
		}
	}

	focus = {
		id = ITA_bomber_effort
		icon = GFX_goal_generic_air_bomber
		prerequisite = { focus = "Macci" }
		x = -1
		y = 1
		relative_position_id = "Macci"
		cost = 5
		ai_will_do = {
			factor = 1
		}

		available_if_capitulated = yes
		search_filters = { FOCUS_FILTER_RESEARCH }

		completion_reward = {

			add_tech_bonus = {
				name = ITA_bomber_effort
				bonus = 1.0
				uses = 1
				category = tactical_bomber
				#technology = tactical_bomber2
				#technology = tactical_bomber3
			}
			add_tech_bonus = {
				name = ITA_bomber_effort
				bonus = 3.0
				uses = 1
				category = cas_bomber
				#technology = CAS2
				#technology = CAS3
			}
			add_tech_bonus = {
				name = ITA_bomber_effort
				bonus = 1.0
				uses = 1
				category = cas_bomber
				#technology = tactical_bomber2
				#technology = tactical_bomber3
			}
		}
	}

	focus = {
		id = "G.55 Centauro"
		icon = GFX_goal_italy_fiat_g_50
		prerequisite = { focus = "Macci" }
		x = 0
		y = 2
		relative_position_id = "Macci"
		cost = 5
		ai_will_do = {
			factor = 1
		}
		available = {
			date > 1941.1.1
		}

		available_if_capitulated = yes
		search_filters = { FOCUS_FILTER_RESEARCH }

		completion_reward = {
			ITA = {
				if = { limit = { NOT = { has_idea = macchi }} add_ideas = macchi add_political_power = -50  }
				set_technology = { fighter3 = 1 }
			}
		}
	}

	focus = {
		id = "Mass Produce Fighters"
		icon = GFX_goal_italy_increase_aircraft_production
		prerequisite = { focus = "Macci" }
		x = 1
		y = 1
		relative_position_id = "Macci"
		cost = 5
		ai_will_do = {
			factor = 1
		}
		available = {
			date > 1940.1.1
		}

		available_if_capitulated = yes
		search_filters = { FOCUS_FILTER_RESEARCH }

		completion_reward = {
			add_ideas = ITA_mass_fighter_production 
		}
	}

	

	focus = {
		id = "Modern Navy Tactics"
		text = "Modern Cruisers"
		icon = GFX_focus_generic_cruiser2
		prerequisite = { focus = "The Lord of the Mediterranean" }
		x = 1
		y = 1
		relative_position_id = "The Lord of the Mediterranean"
		cost = 5
		ai_will_do = {
			factor = 1
		}

		available_if_capitulated = yes
		search_filters = { FOCUS_FILTER_RESEARCH }

		completion_reward = {
			add_tech_bonus = {
				name = cl_bonus
				bonus = 1.0
				uses = 2
				category = cl_tech
				category = ca_tech
			}
		}
	}

	focus = {
		id = ITA_focus_cruiser_guns
		text = "Improved Cruiser Guns"
		icon = GFX_focus_generic_cruiser2
		prerequisite = { focus = "Modern Navy Tactics" }
		x = 1
		y = 1
		relative_position_id = "Modern Navy Tactics"
		cost = 5
		ai_will_do = {
			factor = 1
		}

		available_if_capitulated = yes
		search_filters = { FOCUS_FILTER_RESEARCH }

		completion_reward = {
			add_tech_bonus = {
				name = cl_bonus
				bonus = 0.5
				uses = 2
				category = cruiser_gun
				category = cl_armor
			}
		}
	}

	focus = {
		id = ITA_marines_and_landing_craft
		icon = GFX_goal_generic_amphibious_assault
		prerequisite = { focus = "Venetian Dockyards" focus = "Naval Bomber" focus = ITA_focus_cruiser_guns focus = ITA_focus_bb_guns focus = "New Screening vessels" }
		x = 0
		y = 2
		relative_position_id = "Modern Navy Tactics"
		cost = 5
		ai_will_do = {
			factor = 1
		}

		available_if_capitulated = yes
		search_filters = { FOCUS_FILTER_RESEARCH }

		completion_reward = {
			add_tech_bonus = {
				name = ITA_marines_and_landing_craft
				bonus = 1.0
				uses = 1
				category = marine_tech
				#technology = marines
				#technology = marines2
			}
			add_tech_bonus = {
				name = ITA_marines_and_landing_craft
				bonus = 1.0
				uses = 1
				category = tp_tech
				#technology = transport
				#technology = landing_craft
				#technology = tank_landing_craft
			}
		}
	}

	focus = {
		id = ITA_focus_naval_doctrine
		text = "New Navan maneuvers"
		icon = GFX_goal_generic_navy_doctrines_tactics
		prerequisite = { focus = "Venetian Dockyards" focus = "Naval Bomber" focus = ITA_focus_cruiser_guns focus = ITA_focus_bb_guns focus = "New Screening vessels" }
		x = -2
		y = 2
		relative_position_id = "Modern Navy Tactics"
		cost = 5
		ai_will_do = {
			factor = 1
		}

		available_if_capitulated = yes
		search_filters = { FOCUS_FILTER_RESEARCH }

		completion_reward = {
			add_tech_bonus = {
				name = "Modern Navy Tactics"
				bonus = 2
				uses = 5
				category = naval_doctrine
			}
		}
	}

	focus = {
		id = "New Screening vessels"
		icon = GFX_goal_generic_navy_cruiser
		prerequisite = { focus = "The Lord of the Mediterranean" }
		x = 0
		y = 2
		relative_position_id = "The Lord of the Mediterranean"
		cost = 5
		ai_will_do = {
			factor = 1
		}

		available_if_capitulated = yes
		search_filters = { FOCUS_FILTER_RESEARCH }

		completion_reward = {
			add_tech_bonus = {
				name = dd_bonus
				bonus = 1.0
				uses = 1
				category = dd_tech
			}
			add_tech_bonus = {
				name = dd_bonus
				bonus = 0.5
				uses = 1
				category = light_gun
			}
		}
	}

	focus = {
		id = ITA_atlantic_fleet
		icon = GFX_ITA_STRONK
		prerequisite = { focus = "Venetian Dockyards" focus = "Naval Bomber" focus = ITA_focus_cruiser_guns focus = ITA_focus_bb_guns focus = "New Screening vessels" }
		x = 0
		y = 2
		relative_position_id = "New Screening vessels"
		cost = 5
		ai_will_do = {
			factor = 1
		}

		available_if_capitulated = yes
		search_filters = { FOCUS_FILTER_RESEARCH }

		completion_reward = {
			add_tech_bonus = {
				name = "Super Heavy"
				bonus = 1
				uses = 1
				category = shbb_tech
			}
			add_war_support = 0.05
			add_ideas = ita_total_domination
		}
	}
	
	focus = {
		id = ITA_slovenia_dalmatia_claims
		icon = GFX_goal_generic_demand_territory
		prerequisite = { focus = ITA_victoryinETH }
		x = -13
		y = 1
		relative_position_id = ITA_victoryinETH
		cost = 5
		ai_will_do = {
			factor = 1
		}
		available = {
			date > 1937.8.1
		}
		completion_reward = {
			add_stability = 0.05
			add_war_support = 0.05
			add_political_power = 150
			2 = {
				add_extra_state_shared_building_slots = 4
				add_building_construction = {
					type = industrial_complex
					level = 4
					instant_build = yes
				}
			}
			country_event = { id = news.192 days = 1 }
		}
	}

	focus = {
		id = ITA_albania_war_goal
		icon = GFX_goal_generic_more_territorial_claims
		prerequisite = { focus = ITA_slovenia_dalmatia_claims }
		will_lead_to_war_with = ALB
		x = 1
		y = 1
		relative_position_id = ITA_slovenia_dalmatia_claims
		cost = 5
		search_filters = { FOCUS_FILTER_ANNEXATION }

		completion_reward = {
			add_named_threat = { threat = 1 name = "Albanian Occupation" }
			ITA = { 
				transfer_state = 44
				transfer_state = 805
				country_event = { days = 1 id = italy.1 }
			}
		}
	}

	focus = {
		id = "Develop Albania"
		icon = GFX_focus_generic_industry_2
		prerequisite = { focus = ITA_albania_war_goal }
		mutually_exclusive = { focus = "Exploit Albania" }
		x = 2
		y = 2
		relative_position_id = ITA_slovenia_dalmatia_claims
		cost = 5
		search_filters = { FOCUS_FILTER_ANNEXATION }

		completion_reward = {
			44 = {
				add_extra_state_shared_building_slots = 10
				add_building_construction = {
					type = industrial_complex
					level = 4
					instant_build = yes
				}
				set_state_flag = "Develop Albania"
			}	
			44 = {
				add_building_construction = {
					type = infrastructure
					level = 4
					instant_build = yes
				}
				set_state_flag = "Develop Albania"
			}	
		}
	}

	focus = {
		id = "Exploit Albania"
		icon = GFX_focus_CZE_german_puppet
		prerequisite = { focus = ITA_albania_war_goal }
		mutually_exclusive = { focus = "Develop Albania" }
		
		x = 0
		y = 2
		relative_position_id = ITA_slovenia_dalmatia_claims
		cost = 5
		search_filters = { FOCUS_FILTER_ANNEXATION }

		completion_reward = {
			add_timed_idea = {
				idea = ITA_exploitation_of_albania
				days = 500
			}
			add_equipment_to_stockpile = {
				type = artillery_equipment_1
				amount = 500
			} 
			add_equipment_to_stockpile = {
				type = infantry_equipment_1
				amount = 5000
			} 
			add_equipment_to_stockpile = {
				type = anti_tank_equipment_1
				amount = 1500
			}
			add_equipment_to_stockpile = {
				type = anti_air_equipment_1
				amount = 500
			}
		}
	}

	focus = {
		id = ITA_pact_of_steel
		icon = GFX_goal_generic_major_alliance
		prerequisite = { focus = ITA_slovenia_dalmatia_claims }
		x = -1
		y = 1
		relative_position_id = ITA_slovenia_dalmatia_claims
		cost = 1
		available = {date > 1937.11.1}

		completion_reward = {
			add_political_power = 50
			add_named_threat = { threat = 5 name = "Pact of Steel" }
			2 = {
				add_extra_state_shared_building_slots = 24
				add_building_construction = {
					type = arms_factory
					level = 24
					instant_build = yes
				}
				set_state_flag = "Italy Pact of Steel"
			}	
		}
	}

	focus = {
		id = ITA_secret_weapons
		icon = GFX_goal_generic_secret_weapon
		text = secret_weapons
		prerequisite = { focus = "Rocket Artillery" }
		available = {
		}
		x = 0
		y = 1
		relative_position_id = "Rocket Artillery"
		cost = 5
		ai_will_do = {
			factor = 1
		}

		available_if_capitulated = yes
		search_filters = { FOCUS_FILTER_RESEARCH }

		completion_reward = {
			add_tech_bonus = {
				name = secret_bonus
				bonus = 1.0
				uses = 4
				category = radar_tech
			}
			add_tech_bonus = {
				name = secret_bonus
				bonus = 1.0
				uses = 2
				category = electronics
			}
		}
	}

	focus = {
		id = "Split up Yugoslavia"
		icon = GFX_ITA_claim_yugoslavia
		prerequisite = { focus = ITA_pact_of_steel }
		x = -1
		y = 1
		relative_position_id = ITA_pact_of_steel
		cost = 4
		ai_will_do = {
			factor = 1
		}	
		completion_reward = {
			custom_effect_tooltip = ITA_split_up_yugoslavia
			hidden_effect = {
				ITA = { 
					transfer_state = 109
					transfer_state = 103
					transfer_state = 104
					transfer_state = 804
					transfer_state = 103
					transfer_state = 105 
					transfer_state = 802 
					transfer_state = 107

					transfer_state = 45
					transfer_state = 764


					transfer_state = 108
				}
### BUL u. GRE
				if = {
					limit = {
						BUL = {
							num_of_factories < 18
						}
						BUL = {
							is_ai = yes
						}
					}
					ITA = {
					transfer_state = 106
					transfer_state = 803

					transfer_state = 212
					transfer_state = 48
					transfer_state = 801
					transfer_state = 211
					transfer_state = 185
					transfer_state = 731
					transfer_state = 47
					transfer_state = 186
					transfer_state = 182
					transfer_state = 187
					transfer_state = 184
					transfer_state = 77
					}

				}
				else = {
					BUL = {
						transfer_state = 184
						transfer_state = 106
						transfer_state = 803
						transfer_state = 731
					}
					ITA = {
					transfer_state = 185
					
					transfer_state = 47
					transfer_state = 186
					transfer_state = 182
					transfer_state = 187					
					}
				}			
					

				HUN = {
					country_event = { days = 1 id = hungary.2 }
				}

				GER = {
					transfer_state = 102
				}
			}
			add_named_threat = { threat = 14 name = "Yugoslavian Occupation" }
			country_event = { id = news.169 days = 1 }
		}
	}

########## AFRICA LARP
		
	focus = {
		id = "Prepare for War"
		icon = GFX_Generic_Ultranat_Eagle
		prerequisite = { focus = "Split up Yugoslavia" }
		prerequisite = { focus = "Exploit Albania" focus = "Develop Albania" }
		x = 2
		y = 1
		relative_position_id = "Split up Yugoslavia"
		cost = 5
		ai_will_do = {
			factor = 1
		}	
		
		available = {}
		completion_reward = {
			add_war_support = 0.1
			add_political_power = 150
			add_ideas = ITA_giacomo_acerbo
			
		}
	}

	


#	focus = {
#		id = "Fortress Italy"
#		icon = GFX_goal_generic_construct_military
#		prerequisite = { focus = "The Africa Question" }
#		
#		x = -1
#		y = 2
#		relative_position_id = "Prepare for War"
#		cost = 5
#		ai_will_do = {
#			factor = 1
#		}	
#		completion_reward = {
#			
#			164 = {
#				add_building_construction = {
#					type = anti_air_building
#					level = 2
#					instant_build = yes
#				}
#			}
#			2 = {
#				add_building_construction = {
#					type = anti_air_building
#					level = 2
#					instant_build = yes
#				}
#			}
#			158 = {
#				add_building_construction = {
#					type = anti_air_building
#					level = 2
#					instant_build = yes
#				}
#			}
#			114 = {
#				add_building_construction = {
#					type = anti_air_building
#					level = 2
#					instant_build = yes
#				}
#			}
#			115 = {
#				add_building_construction = {
#					type = anti_air_building
#					level = 2
#					instant_build = yes
#				}
#			}
#		}
#	}
	
#	focus = {
#		id = "Southern Defenses"
#		icon = GFX_goal_generic_construct_military
#		prerequisite = { focus = "Fortress Italy" }
#		x = 0
#		y = 1
#		relative_position_id = "Fortress Italy"
#		cost = 5
#		ai_will_do = {
#			factor = 1
#		}	
#		
#		completion_reward = {
#			custom_effect_tooltip = ITA_southern_defenses
#			hidden_effect = {
#			156 = {
#				add_building_construction = {
#					type = coastal_bunker
#					level = 3
#					province = 12066
#					instant_build = yes
#				}
#			}
#			156 = {
#				add_building_construction = {
#					type = coastal_bunker
#					level = 3
#					province = 9990
#					instant_build = yes
#				}
#			}
#			156 = {
#				add_building_construction = {
#					type = coastal_bunker
#					level = 3
#					province = 3901
#					instant_build = yes
#				}
#			}
#			156 = {
#				add_building_construction = {
#					type = coastal_bunker
#					level = 3
#					province = 12098
#					instant_build = yes
#				}
#			}
#			156 = {
#				add_building_construction = {
#					type = coastal_bunker
#					level = 3
#					province = 10027
#					instant_build = yes
#				}
#			}
#			156 = {
#				add_building_construction = {
#					type = coastal_bunker
#					level = 3
#					province = 9856
#					instant_build = yes
#				}
#			}
#			156 = {
#				add_building_construction = {
#					type = coastal_bunker
#					level = 3
#					province = 9784
#					instant_build = yes
#				}
#			}
#			156 = {
#				add_building_construction = {
#					type = coastal_bunker
#					level = 3
#					province = 11837
#					instant_build = yes
#				}
#			}
#			156 = {
#				add_building_construction = {
#					type = coastal_bunker
#					level = 3
#					province = 11998
#					instant_build = yes
#				}
#			}
#			156 = {
#				add_building_construction = {
#					type = coastal_bunker
#					level = 3
#					province = 10007
#					instant_build = yes
#				}
#			}
#			# Sardinia
#			114 = {
#				add_building_construction = {
#					type = coastal_bunker
#					level = 3
#					province = 6979
#					instant_build = yes
#				}
#			}
#			114 = {
#				add_building_construction = {
#					type = coastal_bunker
#					level = 3
#					province = 11874
#					instant_build = yes
#				}
#			}
#			114 = {
#				add_building_construction = {
#					type = coastal_bunker
#					level = 3
#					province = 11824
#					instant_build = yes
#				}
#			}
#			114 = {
#				add_building_construction = {
#					type = coastal_bunker
#					level = 3
#					province = 9772
#					instant_build = yes
#				}
#			}
#			114 = {
#				add_building_construction = {
#					type = coastal_bunker
#					level = 3
#					province = 6891
#					instant_build = yes
#				}
#			}
#			114 = {
#				add_building_construction = {
#					type = coastal_bunker
#					level = 3
#					province = 9863
#					instant_build = yes
#				}
#			}
#			114 = {
#				add_building_construction = {
#					type = coastal_bunker
#					level = 3
#					province = 11755
#					instant_build = yes
#				}
#			}
#			114 = {
#				add_building_construction = {
#					type = coastal_bunker
#					level = 3
#					province = 902
#					instant_build = yes
#				}
#			}
#			# Sicily
#			115 = {
#				add_building_construction = {
#					type = coastal_bunker
#				level = 3
#				province = 4014
#					instant_build = yes
#				}
#			}
#			115 = {
#				add_building_construction = {
#					type = coastal_bunker
#					level = 3
#					province = 7059
#					instant_build = yes
#				}
#			}
#			115 = {
#				add_building_construction = {
#					type = coastal_bunker
#					level = 3
#					province = 10074
#					instant_build = yes
#				}
#			}
#			115 = {
#				add_building_construction = {
#					type = coastal_bunker
#					level = 3
#					province = 1009
#					instant_build = yes
#				}
#			}
#			115 = {
#				add_building_construction = {
#					type = coastal_bunker
#					level = 3
#					province = 7147
#					instant_build = yes
#				}
#			}
#			115 = {
#				add_building_construction = {
#					type = coastal_bunker
#					level = 3
#					province = 3857
#					instant_build = yes
#				}
#			}
#			115 = {
#				add_building_construction = {
#					type = coastal_bunker
#					level = 3
#					province = 1156
#					instant_build = yes
#				}
#			}
#			115 = {
#				add_building_construction = {
#					type = coastal_bunker
#					level = 3
#					province = 4159
#					instant_build = yes
#				}
#			}
#			}
#		}
#	}

#	focus = {
#		id = "Greece Fortifications"
#		icon = GFX_goal_generic_construct_military
#		prerequisite = { focus = "Southern Defenses" }
#		x = 0
#		y = 2
#		relative_position_id = "Fortress Italy"
#		cost = 5
#		ai_will_do = {
#			factor = 1
#		}	
#		completion_reward = {
#			custom_effect_tooltip = ITA_greece_fortifications
#			hidden_effect = {
#			182 = { # Crete
#				add_building_construction = {
#					type = coastal_bunker
#					level = 3
#					province = 12058
#					instant_build = yes
#				}
#			}
#			182 = { # Crete
#				add_building_construction = {
#					type = coastal_bunker
#					level = 3
#					province = 1164
#					instant_build = yes
#				}
#			}
#			182 = { # Crete
#				add_building_construction = {
#					type = coastal_bunker
#					level = 3
#					province = 9940
#					instant_build = yes
#				}
#			}
#			182 = { # Crete
#				add_building_construction = {
#					type = coastal_bunker
#					level = 3
#					province = 4170
#					instant_build = yes
#				}
#			}
#			186 = { # Peloponnese
#				add_building_construction = {
#					type = coastal_bunker
#					level = 3
#					province = 7069
#					instant_build = yes
#				}
#			}
#			186 = { # Peloponnese
#				add_building_construction = {
#					type = coastal_bunker
#					level = 3
#					province = 11965
#					instant_build = yes
#				}
#			}
#			186 = { # Peloponnese
#				add_building_construction = {
#					type = coastal_bunker
#					level = 3
#					province = 1173
#					instant_build = yes
#				}
#			}
#			186 = { # Peloponnese
#				add_building_construction = {
#					type = coastal_bunker
#					level = 3
#					province = 4193
#					instant_build = yes
#				}
#			}
#			186 = { # Peloponnese
#				add_building_construction = {
#					type = coastal_bunker
#					level = 3
#					province = 7211
#					instant_build = yes
#				}
#			}
#			186 = { # Peloponnese
#				add_building_construction = {
#					type = coastal_bunker
#					level = 3
#					province = 9863
#					instant_build = yes
#				}
#			}
#			
#			164 = { # Rhodes
#				add_building_construction = {
#					type = coastal_bunker
#					level = 3
#					province = 10007
#					instant_build = yes
#				}
#			}
#			164 = { # Rhodes
#				add_building_construction = {
#					type = coastal_bunker
#					level = 3
#					province = 7003
#					instant_build = yes
#				}
#			}
#			187 = { # Aegean Cancer
#				add_building_construction = {
#					type = coastal_bunker
#					level = 3
#					province = 3401
#					instant_build = yes
#				}
#			}
#			187 = { # Aegean Cancer
#				add_building_construction = {
#					type = coastal_bunker
#					level = 3
#					province = 6550
#					instant_build = yes
#				}
#			}
#			187 = { # Aegean Cancer
#				add_building_construction = {
#					type = coastal_bunker
#					level = 3
#					province = 8435
#					instant_build = yes
#				}
#			}
#			47 = { # Athens
#				add_building_construction = {
#					type = coastal_bunker
#					level = 3
#					province = 3988
#					instant_build = yes
#				}
#			}
#			47 = { # Athens
#				add_building_construction = {
#					type = coastal_bunker
#					level = 3
#					province = 4109
#					instant_build = yes
#				}
#			}
#			47 = { # Athens
#				add_building_construction = {
#					type = coastal_bunker
#					level = 3
#					province = 7127	
#					instant_build = yes
#				}
#			}
#			47 = { # Athens
#				add_building_construction = {
#					type = coastal_bunker
#					level = 3
#					province = 1109
#					instant_build = yes
#				}
#			}
#			47 = { # Athens
#				add_building_construction = {
#					type = coastal_bunker
#					level = 3
#					province = 976
#					instant_build = yes
#				}
#			}
#			47 = { # Athens
#				add_building_construction = {
#					type = coastal_bunker
#					level = 3
#					province = 3864
#					instant_build = yes
#				}
#			}
#			47 = { # Athens
#				add_building_construction = {
#					type = coastal_bunker
#					level = 3
#					province = 3973
#					instant_build = yes
#				}
#			}
#		}
#		}
#	}

	focus = {
		id = "Prepare for Africa"
		text = "Africa Ambitions"
		icon = GFX_ITA_africa
		prerequisite = { focus = ITA_victoryinETH }
		
		x = -18
		y = 1
		relative_position_id = ITA_victoryinETH
		cost = 5
		ai_will_do = {
			factor = 1
		}	
		completion_reward = {
			add_ideas = prepared_africa_offensive
		}
	}



	focus = {
		id = "Build up Africa I"
		icon = GFX_sov_don_river
		prerequisite = { focus = "Prepare for Africa" }
		x = 0
		y = 1
		relative_position_id = "Prepare for Africa"
		cost = 5
		ai_will_do = {
			factor = 1
		}	
		completion_reward = {
			663 = {
				set_building_level = {
					type = infrastructure
					level = 10
					instant_build = yes
				}
			}
			663 = {
				set_building_level = {
					type = air_base
					level = 4
					instant_build = yes
				}
				
			}
			451 = {
				set_building_level = {
					type = infrastructure
					level = 10
					instant_build = yes
				}
			}
			451 = {
				set_building_level = {
					type = air_base
					level = 4
					instant_build = yes
				}
			}
			450 = {
				set_building_level = {
					type = infrastructure
					level = 10
					instant_build = yes
				}
			}
			450 = {
				set_building_level = {
					type = air_base
					level = 4
					instant_build = yes
				}
			}
		}
	}
	
	focus = {
		id = "Build up Africa II"
		icon = GFX_sov_don_river
		prerequisite = { focus = "Build up Africa I" }
		x = 0
		y = 2
		relative_position_id = "Prepare for Africa"
		cost = 5
		ai_will_do = {
			factor = 1
		}	
		completion_reward = {
			448 = {
				set_building_level = {
					type = naval_base
					level = 10
					instant_build = yes
					province = 1149
				}
			}
			451 = {
				set_building_level = {
					type = naval_base
					level = 10
					instant_build = yes
					province = 13332
				}
			}
			451 = {
				set_building_level = {
					type = coastal_bunker
					level = 3
					province = 13332
					instant_build = yes
				}
			}
			450 = {
				set_building_level = {
					type = coastal_bunker
					level = 3
					province = 1127
					instant_build = yes
				}
				
			}
		}
	}
	
	focus = {
		id = "Aid German Offensive"
		icon = GFX_baionette
		prerequisite = { focus = "Prepare for War" }
		available = {
			has_war = yes
		}
		mutually_exclusive = {
			focus = ITA_focus_push_cairo
		}
		x = -1
		y = 1
		relative_position_id = "Prepare for War"
		cost = 2.9
		ai_will_do = {
			factor = 1
		}	
		completion_reward = {
			add_ideas = ita_aid_german_offensive
		}
	}

	focus = {
		id = ITA_focus_push_cairo
		text = "Push Cairo Alone"
		icon = GFX_baionette
		prerequisite = { focus = "Prepare for War" }
		available = {
			has_war = yes
		}
		mutually_exclusive = {
			focus = "Aid German Offensive"
		}
		x = 1
		y = 1
		relative_position_id = "Prepare for War"
		cost = 2.9
		ai_will_do = {
			factor = 1
		}	
		completion_reward = {
			add_ideas = ITA_push_cairo
			SPR = {
				add_ideas = ITA_push_cairo
			}
		}
	}

	focus = {
		id = "Defend Pushed Territories"
		icon = GFX_Ultranationalism_2
		prerequisite = { focus = "Aid German Offensive"  focus = ITA_focus_push_cairo }
		x = 1
		y = 1
		available = {
			controls_state = 456
			controls_state = 656
			controls_state = 291
		}
		relative_position_id = "Aid German Offensive"
		cost = 5
		ai_will_do = {
			factor = 1
		}	
		completion_reward = {
			add_political_power = 150
			remove_ideas = ita_aid_german_offensive
			remove_ideas = ITA_push_cairo
			add_ideas = ita_defend_pushed_territories
		}
	}

	focus = {
		id = ITA_naval_dominance
		icon = GFX_ITA_naval_dominance
		continue_if_invalid = yes
		mutually_exclusive = { focus = ITA_army_supremacy }
		prerequisite = { focus = "Defend Pushed Territories" }
		relative_position_id = "Defend Pushed Territories"
		x = -2
		y = 1
		cost = 5
		ai_will_do = {
			factor = 1
		}
		available = {
			
		}

		available_if_capitulated = yes
		search_filters = { FOCUS_FILTER_RESEARCH }

		completion_reward = {
			add_timed_idea = {idea = ITA_naval_dominance days = 150}
		}
	}

	focus = {
		id = ITA_focus_invasion
		text = "Take British Islands"
		icon = GFX_goal_generic_amphibious_assault
		prerequisite = { focus = ITA_naval_dominance }
		relative_position_id = ITA_naval_dominance
		x = -1
		y = 1
		cost = 5
		ai_will_do = {
			factor = 1
		}
		available = {
			
		}

		available_if_capitulated = yes
		search_filters = { FOCUS_FILTER_RESEARCH }

		completion_reward = {
			add_ideas = ITA_invasion
		}
	}

	focus = {
		id = ITA_army_supremacy
		icon = GFX_ITA_army_supremacy
		continue_if_invalid = yes
		mutually_exclusive = {focus = ITA_naval_dominance}
		prerequisite = { focus = "Defend Pushed Territories" }
		relative_position_id = "Defend Pushed Territories"
		x = 2
		y = 1
		cost = 5
		ai_will_do = {
			factor = 1
		}
		available = {
			
		}

		available_if_capitulated = yes
		search_filters = { FOCUS_FILTER_RESEARCH }

		completion_reward = {
			add_timed_idea = {idea = ITA_army_supremacy days = 150}
		}
	}

	focus = {
		id = ITA_focus_army
		text = "Army Training"
		icon = GFX_goal_generic_military_sphere
		prerequisite = { focus = ITA_army_supremacy }
		relative_position_id = ITA_army_supremacy
		x = 1
		y = 1
		cost = 5
		ai_will_do = {
			factor = 1
		}
		available = {
			
		}

		available_if_capitulated = yes
		search_filters = { FOCUS_FILTER_RESEARCH }

		completion_reward = {
			add_ideas = ITA_army
		}
	}

	focus = {
		id = ITA_focus_Imperium_Romanum
		icon = GFX_ITA_viva_il_duce
		prerequisite = { focus = "Defend Pushed Territories" }
		mutually_exclusive = {
			focus = ITA_focus_greater_italy
		}
		x = 1
		y = 2
		available = {
			has_completed_focus = ITA_atlantic_fleet
			AND = {
				any_country = {
					is_in_faction_with = ITA
					controls_state = 183		
				}
				any_country = {
					is_in_faction_with = ITA
					controls_state = 116		
				}
				any_country = {
					is_in_faction_with = ITA
					controls_state = 456		
				}
				any_country = {
					is_in_faction_with = ITA
					controls_state = 291		
				}
			}
		}
		relative_position_id = "Defend Pushed Territories"
		cost = 5
		ai_will_do = {
			factor = 1
		}	
		completion_reward = {
			add_political_power = 150
			add_war_support = 0.1
			custom_effect_tooltip = ITA_romanum_tt
			hidden_effect = {
				set_cosmetic_tag = ITA_Imperium_Romanum
			}
			add_ideas = tot_economic_mobilisation
			add_ideas = ITA_imperium_romanum_idea
		}
	}

	focus = {
		id = ITA_focus_greater_italy
		icon = GFX_goal_GER_puppet_italy
		text = "Soft Underbelly"
		prerequisite = { focus = "Defend Pushed Territories" }
		mutually_exclusive = {
			focus = ITA_focus_Imperium_Romanum
		}
		x = -1
		y = 2
		available = {
			has_completed_focus = ITA_atlantic_fleet
			date > 1940.8.1
		}
		relative_position_id = "Defend Pushed Territories"
		cost = 5
		ai_will_do = {
			factor = 1
		}	
		completion_reward = {
			custom_effect_tooltip = ITA_romanum_tt2
			hidden_effect = {
				set_cosmetic_tag = ITA_greater_italy
			}
			add_ideas = ITA_imperium_romanum_idea2
			GER = {
				transfer_state = 39
			}
		}
	}

	focus = {
		id = ITA_focus_dday
		text = "Deploy The Atlantikwall"
		icon = GFX_focus_generic_coastal_fort
		prerequisite = { focus = ITA_focus_Imperium_Romanum focus = ITA_focus_greater_italy }
		x = -1
		y = 1
		available = {
			
		}
		bypass = {
			has_country_flag = ITA_hat_ddaywall
		}
		relative_position_id = ITA_focus_Imperium_Romanum
		cost = 5
		ai_will_do = {
			factor = 1
		}	
		completion_reward = {
			activate_decision = "Deploy anti D-Day Wall"
			add_equipment_to_stockpile = {
				type = infantry_equipment_0
				amount = 35000
			}
			add_equipment_to_stockpile = {
				type = artillery_equipment_1
				amount = 2500
			}
			add_equipment_to_stockpile = {
				type = anti_tank_equipment_1
				amount = 1000
			}
			add_equipment_to_stockpile = {
				type = anti_air_equipment_1
				amount = 1250
			}
			add_equipment_to_stockpile = {
				type = support_equipment
				amount = 500
			}
			add_equipment_to_stockpile = {
				type = motorized_equipment_1
				amount = 500
			}
		}
	}

	focus = {
		id = "Preparation for Home Defense"
		icon = GFX_focus_spr_the_anti_fascist_workers_revolution
		mutually_exclusive = { focus = "The Regia Marina will be enough" }
		prerequisite = { focus = ITA_focus_Imperium_Romanum focus = ITA_focus_greater_italy }
		x = 2
		y = 5
		available = {
			any_country = {
				is_in_faction_with = ENG
				controls_state = 446		
			}
		}
		relative_position_id = "Aid German Offensive"
		cost = 5
		ai_will_do = {
			factor = 1
		}	
		completion_reward = {
			add_ideas = ita_home_defense
			add_manpower = 200000
			2 = {
				add_extra_state_shared_building_slots = 10
				add_building_construction = {
					type = arms_factory
					level = 10
					instant_build = yes
				}
			}
			add_equipment_to_stockpile = {
				type = infantry_equipment_1
	
				amount = 50000
	
			}
			add_equipment_to_stockpile = {
				type = artillery_equipment_1
	
				amount = 3000
	
			}
			add_equipment_to_stockpile = {
				type = anti_tank_equipment_1
	
				amount = 3000
	
			}
			add_equipment_to_stockpile = {
				type = anti_air_equipment_1
	
				amount = 3000
	
			}
			add_equipment_to_stockpile = {
				type = support_equipment
	
				amount = 1500
	
			}
			add_equipment_to_stockpile = {
				type = motorized_equipment_1
	
				amount = 1500
	
			}
		}
	}

	focus = {
		id = "The Regia Marina will be enough"
		icon = GFX_goal_generic_navy_battleship
		mutually_exclusive = { focus = "Preparation for Home Defense" }
		prerequisite = { focus = ITA_focus_Imperium_Romanum focus = ITA_focus_greater_italy }
		x = 0
		y = 5
		available = {
			any_country = {
				is_in_faction_with = ENG
				controls_state = 446		
			}
		}
		relative_position_id = "Aid German Offensive"
		cost = 5
		ai_will_do = {
			factor = 1
		}	
		completion_reward = {
			add_ideas = ita_regia_marina
			add_stability = 0.05
			2 = {
				add_extra_state_shared_building_slots = 10
				add_building_construction = {
					type = dockyard
					level = 10
					instant_build = yes
				}
				add_resource = {
					type = oil
					amount = 30
				}
			}
		}
	}


	focus = {
		id = "Build up Africa III"
		text = "Fortify Africa"
		icon = GFX_sov_don_river
		prerequisite = { focus = "Build up Africa I" }
		mutually_exclusive = { focus = "Fortifiy Southern Isles" }
		x = 1
		y = 1
		available = {
			controls_state = 456
			controls_state = 656
			controls_state = 291
		}
		relative_position_id = "Build up Africa II"
		cost = 5
		ai_will_do = {
			factor = 1
		}	
		completion_reward = {
			446 = {
				set_building_level = {
					type = anti_air_building
					level = 5
					instant_build = yes
				}
			}
			456 = {
				set_building_level = {
					type = anti_air_building
					level = 5
					instant_build = yes
				}
			}
			453 = {
				set_building_level = {
					type = anti_air_building
					level = 3
					instant_build = yes
				}
			}
			454 = {
				set_building_level = {
					type = anti_air_building
					level = 3
					instant_build = yes
				}
			}
			454 = {
				set_building_level = {
					type = naval_base
					level = 10
					instant_build = yes
					province = 4206
				}
			}
			554 = {
				set_building_level = {
					type = anti_air_building
					level = 3
					instant_build = yes
				}
			}
			291 = {
				set_building_level = {
					type = anti_air_building
					level = 5
					instant_build = yes
				}
			}
			291 = {
				set_building_level = {
					type = coastal_bunker
					level = 3
					instant_build = yes
					province = 2089
				}
			}
			656 = {
				set_building_level = {
					type = coastal_bunker
					level = 3
					instant_build = yes
					province = 8085
				}
			}
		}
	}
	focus = {
		id = "Fortifiy Southern Isles"
		icon = GFX_goal_generic_construct_military
		prerequisite = { focus = "Build up Africa I" }

		mutually_exclusive = { focus = "Build up Africa III" }
		x = -1
		y = 1
		available = {
			
		}
		relative_position_id = "Build up Africa II"
		cost = 5
		ai_will_do = {
			factor = 1
		}	
		completion_reward = {
			add_ideas = ITA_fortify_southern_isles
		}
	}
}

