﻿focus_tree = {
	id = japan_wtt_focus
	
	country = {
		factor = 0
		modifier = {
			add = 20
			tag = JAP
		}
	}
	

	default = no

	continuous_focus_position = { x = 2000 y = 1200 }


	focus = {
		id = JAP_purge_the_kodoha_faction
		icon = GFX_goal_generic_major_war

		x = 4
		y = 0


		cost = 5

		ai_will_do = {
			factor = 4
		}

		available = {

		}

		bypass = {

		}

		cancel_if_invalid = yes
		continue_if_invalid = no
		available_if_capitulated = no

		search_filters = { FOCUS_FILTER_STABILITY FOCUS_FILTER_POLITICAL }
		completion_reward = {
			add_stability = 0.1
		}
	}

	focus = {
		id = JAP_liaison_conference
		icon = GFX_goal_generic_intelligence_exchange
		prerequisite = { focus = JAP_purge_the_kodoha_faction }
		x = -2
		y = 1
		relative_position_id = JAP_purge_the_kodoha_faction

		cost = 5

		ai_will_do = {
			factor = 2
		}

		available = {

		}

		bypass = {

		}

		cancel_if_invalid = yes
		continue_if_invalid = no
		available_if_capitulated = no

		completion_reward = {
			swap_ideas = {
			remove_idea = state_shintoism
			add_idea = state_shintoism_2 }
			every_army_leader = {
				add_planning = 1
			}
		}
	}

	focus = {
		id = JAP_greater_east_asian_co_prosperity_sphere
		icon = GFX_goal_generic_alliance
		prerequisite = { focus = JAP_liaison_conference }
		x = -1
		y = 1
		relative_position_id = JAP_liaison_conference

		cost = 5

		ai_will_do = {
			factor = 2
		}

		available = {
			is_subject = no
		}

		bypass = {

		}

		cancel_if_invalid = yes
		continue_if_invalid = no
		available_if_capitulated = no

		completion_reward = {
			create_faction = JAP_greater_east_asian_co_prosperity_sphere
			hidden_effect = {
				JAP = {add_to_faction = MAN}
			}
		}
	}

	focus = {
		id = JAP_intervene_in_china
		icon = GFX_goal_generic_occupy_states_ongoing_war
		prerequisite = { focus = JAP_greater_east_asian_co_prosperity_sphere }
		will_lead_to_war_with = CHI
		x = -2
		y = 1
		relative_position_id = JAP_greater_east_asian_co_prosperity_sphere

		cost = 5

		available = { 
			date > 1938.1.1
		}
		bypass = {
			 
		}

		cancel_if_invalid = yes
		continue_if_invalid = no
		available_if_capitulated = no

		ai_will_do = {
			
		}

		search_filters = { FOCUS_FILTER_ANNEXATION }
		completion_reward = {
			add_timed_idea = {
				idea = JAP_war_in_china
				days = 500
			}
		}
	}

	focus = {
		id = JAP_focus_first_attack_wave
		text = "First Attack Wave"
		icon = GFX_goal_generic_position_armies
		prerequisite = { focus = JAP_intervene_in_china }
		x = 0
		y = 1
		relative_position_id = JAP_intervene_in_china

		cost = 3

		ai_will_do = {
			
		}

		available = {
			
		}

		bypass = {

		}

		cancel_if_invalid = yes
		continue_if_invalid = no
		available_if_capitulated = no

		search_filters = { FOCUS_FILTER_WAR_SUPPORT }
		completion_reward = {
			transfer_state = 608
			transfer_state = 614
			transfer_state = 597
			transfer_state = 743
		}
	}

	focus = {
		id = JAP_focus_second_attack_wave
		text = "Second Attack Wave"
		icon = GFX_goal_generic_position_armies
		prerequisite = { focus = JAP_focus_first_attack_wave }
		x = 0
		y = 2
		relative_position_id = JAP_intervene_in_china

		cost = 3

		ai_will_do = {
			
		}

		available = {
			date > 1938.6.1
		}

		bypass = {

		}

		cancel_if_invalid = yes
		continue_if_invalid = no
		available_if_capitulated = no

		search_filters = { FOCUS_FILTER_WAR_SUPPORT }
		completion_reward = {
			transfer_state = 613
			transfer_state = 598
			transfer_state = 608
			transfer_state = 607
			transfer_state = 596
			transfer_state = 595
			transfer_state = 593
		}
	}

	focus = {
		id = JAP_focus_third_attack_wave
		text = "Third Attack Wave"
		icon = GFX_goal_generic_position_armies
		prerequisite = { focus = JAP_focus_second_attack_wave }
		x = 0
		y = 3
		relative_position_id = JAP_intervene_in_china

		cost = 3

		ai_will_do = {
			
		}

		available = {
			date > 1939.1.1
		}

		bypass = {

		}

		cancel_if_invalid = yes
		continue_if_invalid = no
		available_if_capitulated = no

		search_filters = { FOCUS_FILTER_WAR_SUPPORT }
		completion_reward = {
			annex_country = {
				target = CHI
			}
		}
	}

	focus = {
		id = JAP_develop_chinese_resources
		icon = GFX_goal_generic_construct_civilian
		prerequisite = { focus = JAP_focus_third_attack_wave }
		x = 0
		y = 1
		relative_position_id = JAP_focus_third_attack_wave

		cost = 5

		ai_will_do = {
			factor = 4
		}

		available = {
		}

		bypass = {

		}

		cancel_if_invalid = yes
		continue_if_invalid = no
		available_if_capitulated = no

		search_filters = { FOCUS_FILTER_INDUSTRY }
		completion_reward = {
		
			750 = {
				add_resource = {
					type = aluminium
					amount = 20
				}
				add_resource = {
					type = rubber
					amount = 51
				}
				add_resource = {
					type = tungsten
					amount = 22
				}
				add_resource = {
					type = steel
					amount = 29
				}
				add_resource = {
					type = chromium
					amount = 37
				}
				add_resource = {
					type = oil
					amount = 122
				}
			}
		}
	}

	focus = {
		id = JAP_strike_south_doctrine
		icon = GFX_goal_generic_navy_doctrines_tactics
		prerequisite = { focus = JAP_greater_east_asian_co_prosperity_sphere }
		prerequisite = { focus = JAP_sign_tripartite_pact }
		x = 0
		y = 2
		relative_position_id = JAP_liaison_conference

		cost = 5

		ai_will_do = {
			
		}

		available = {

		}

		bypass = {

		}

		cancel_if_invalid = yes
		continue_if_invalid = no
		available_if_capitulated = no

		search_filters = { FOCUS_FILTER_RESEARCH FOCUS_FILTER_ANNEXATION }
		completion_reward = {
			add_tech_bonus = {
				name = JAP_strike_south_doctrine
				bonus = 1.0
				uses = 6
				category = naval_doctrine	
			}
		}
	}

	focus = {
		id = JAP_secure_the_philippines
		text = "Aggression is the Key"
		icon = GFX_goal_generic_occupy_states_ongoing_war
		prerequisite = { focus = JAP_strike_south_doctrine }
		available = { 
			has_completed_focus = JAP_supremacy_of_will
		}
		mutually_exclusive = {focus= JAP_focus_defensive_war}
		x = -1	
		y = 3
		relative_position_id = JAP_strike_south_doctrine

		cost = 5

		ai_will_do = {
			factor = 1
			modifier = {
				has_war_with = SOV
				factor = 0
			}
			modifier = {
				has_War_with = event_target:WTT_current_china_leader
				event_target:WTT_current_china_leader = {
					surrender_progress < 0.2
				}
				factor = 0
			}
		}

		available = {

		}

		bypass = {

		}

		cancel_if_invalid = yes
		continue_if_invalid = no
		available_if_capitulated = no


		search_filters = { FOCUS_FILTER_ANNEXATION }
		completion_reward = {
				swap_ideas = {
				remove_idea = JAP_superior_will
				add_idea = JAP_superior_will_2
			}
			add_tech_bonus = {
				name = JAP_bypass_the_philippines
				bonus = 1.0
				uses = 2
				category = tp_tech
			}
		}
	}

	focus = {
		id = JAP_focus_defensive_war
		text = "Slow and Steady"
		icon = GFX_goal_generic_occupy_states_ongoing_war
		prerequisite = { focus = JAP_strike_south_doctrine }
		available = { 
			has_completed_focus = JAP_supremacy_of_will
		}
		mutually_exclusive = {focus= JAP_secure_the_philippines}
		x = 1
		y = 3
		relative_position_id = JAP_strike_south_doctrine

		cost = 5

		ai_will_do = {
			factor = 1
			modifier = {
				has_war_with = SOV
				factor = 0
			}
			modifier = {
				has_War_with = event_target:WTT_current_china_leader
				event_target:WTT_current_china_leader = {
					surrender_progress < 0.2
				}
				factor = 0
			}
		}

		available = {

		}

		bypass = {

		}

		cancel_if_invalid = yes
		continue_if_invalid = no
		available_if_capitulated = no


		search_filters = { FOCUS_FILTER_ANNEXATION }
		completion_reward = {
				swap_ideas = {
				remove_idea = JAP_superior_will
				add_idea = JAP_superior_will_3
			}
			add_tech_bonus = {
				name = JAP_bypass_the_philippines
				bonus = 1.0
				uses = 2
				category = tp_tech
			}
		}
	}

	focus = {
		id = JAP_strike_on_the_southern_resource_area
		icon = GFX_focus_jap_strike_south
		prerequisite = { focus = JAP_secure_the_philippines focus = JAP_focus_defensive_war }
		x = 1
		y = 1
		relative_position_id = JAP_secure_the_philippines

		will_lead_to_war_with = ENG
		available = { 
			date > 1940.12.31
			date < 1941.3.01
		}

		cost = 0.1

		ai_will_do = {
			
		}

		available = {

		}

		bypass = {
		}

		cancel_if_invalid = yes
		continue_if_invalid = no
		available_if_capitulated = no

		search_filters = { FOCUS_FILTER_ANNEXATION }
		completion_reward = {
		declare_war_on = { type = annex_everything    target = USA }
		add_timed_idea = {
				idea = JAP_tora_tora_tora_idea
				days = 242
			}
		hidden_effect = {
		every_country = { remove_ideas = anti_strat_meme }
		add_named_threat = { threat = 50 name = "Attack on Pearl Harbor" }
		ENG = { add_to_faction = USA }
		ENG = { add_to_war = { targeted_alliance = USA enemy = JAP } } 
		AST = { add_to_war = { targeted_alliance = USA enemy = JAP } } 
		UAC = { add_to_war = { targeted_alliance = USA enemy = JAP } } 
		RAJ = { add_to_war = { targeted_alliance = USA enemy = JAP } } 
		FRA = { add_to_war = { targeted_alliance = USA enemy = JAP } }
		CAN = { add_to_war = { targeted_alliance = USA enemy = JAP } }
		MAN = { add_to_war = { targeted_alliance = JAP enemy = FRA } } 
		MAN = { add_to_war = { targeted_alliance = JAP enemy = AST } } 
		MAN = { add_to_war = { targeted_alliance = JAP enemy = UAC } } 
		MAN = { add_to_war = { targeted_alliance = JAP enemy = ENG } } 
		MAN = { add_to_war = { targeted_alliance = JAP enemy = CAN } } 
		MAN = { add_to_war = { targeted_alliance = JAP enemy = RAJ } } 
		MAN = { add_to_war = { targeted_alliance = JAP enemy = USA } }

		GER = { declare_war_on = { type = annex_everything    target = USA } }  
		ROM = { add_to_war = { targeted_alliance = GER enemy = USA } } 
		HUN = { add_to_war = { targeted_alliance = GER enemy = USA } } 
		SPR = { add_to_war = { targeted_alliance = GER enemy = USA } } 
		BUL = { add_to_war = { targeted_alliance = GER enemy = USA } }		
		ITA = { add_to_war = { targeted_alliance = GER enemy = USA } }

		MAN = {
	add_timed_idea = {
				idea = JAP_tora_tora_tora_idea
				days = 180
			}
			}
		}
		}
	}

	focus = {
		id = JAP_alliance_with_siam
		icon = GFX_goal_generic_major_alliance
		prerequisite = { focus = JAP_strike_south_doctrine }
		x = 0
		y = 1
		relative_position_id = JAP_strike_south_doctrine

		cost = 5

		ai_will_do = {
			factor = 3
		}

		available = {

		}

		bypass = {

		}

		cancel_if_invalid = yes
		continue_if_invalid = no
		available_if_capitulated = no


		completion_reward = {
			transfer_state = 289
			transfer_state = 724
		}
	}

	focus = {
		id = JAP_focus_siam_build_up
		text = "Fortify Siam"
		icon = GFX_goal_generic_major_alliance
		prerequisite = { focus = JAP_alliance_with_siam }
		x = 0
		y = 2
		relative_position_id = JAP_strike_south_doctrine
		available = {
			JAP = {
				controls_state = 741
			}
		}
		cost = 5

		ai_will_do = {
			factor = 3
		}

		available = {

		}

		bypass = {

		}

		cancel_if_invalid = yes
		continue_if_invalid = no
		available_if_capitulated = no


		completion_reward = {
			289 = {
				add_building_construction = {
					type = air_base
					level = 12
					instant_build = yes
				}
				add_building_construction = {
					type = anti_air_building
					level = 2
					instant_build = yes
				}
				set_building_level = {
					type = coastal_bunker
					level = 5
					instant_build = yes
					province = 7408
				}
			}
			741 = {
				add_building_construction = {
					type = air_base
					level = 12
					instant_build = yes
				}
				add_building_construction = {
					type = anti_air_building
					level = 2
					instant_build = yes
				}
				set_building_level = {
					type = coastal_bunker
					level = 5
					instant_build = yes
					province = 7432
				}
			}
			286 = {
				add_building_construction = {
					type = air_base
					level = 12
					instant_build = yes
				}
				add_building_construction = {
					type = anti_air_building
					level = 2
					instant_build = yes
				}
				set_building_level = {
					type = coastal_bunker
					level = 5
					instant_build = yes
					province = 4401
				}
			}
			286 = {
				add_building_construction = {
					type = air_base
					level = 12
					instant_build = yes
				}
				add_building_construction = {
					type = anti_air_building
					level = 2
					instant_build = yes
				}
				set_building_level = {
					type = coastal_bunker
					level = 5
					instant_build = yes
					province = 1185
				}
			}
			670 = {
				add_building_construction = {
					type = air_base
					level = 12
					instant_build = yes
				}
				add_building_construction = {
					type = anti_air_building
					level = 2
					instant_build = yes
				}
			}
			724 = {
				add_building_construction = {
					type = air_base
					level = 12
					instant_build = yes
				}
				add_building_construction = {
					type = anti_air_building
					level = 2
					instant_build = yes
				}
				set_building_level = {
					type = naval_base
					level = 10
					instant_build = yes
					province = 7236
				}
				set_building_level = {
					type = coastal_bunker
					level = 5
					instant_build = yes
					province = 7236
				}
				set_building_level = {
					type = naval_base
					level = 10
					instant_build = yes
					province = 10158
				}
				set_building_level = {
					type = coastal_bunker
					level = 5
					instant_build = yes
					province = 10158
				}
			}
			add_ideas = JAP_aa_build_up 
		}
	}

	focus = {
		id = JAP_exploit_the_southern_resource_area
		icon = GFX_goal_generic_construction2
		prerequisite = { focus = JAP_strike_on_the_southern_resource_area }
		x = 0
		y = 1
		relative_position_id = JAP_strike_on_the_southern_resource_area

		cost = 5

		ai_will_do = {
			factor = 10
		}

		available = {
			
		}

		bypass = {

		}

		cancel_if_invalid = yes
		continue_if_invalid = no
		available_if_capitulated = no


		search_filters = { FOCUS_FILTER_INDUSTRY }
		completion_reward = { 
			282 = {
				add_resource = {
					type = rubber
					amount = 20
				}
				add_resource = {
					type = steel
					amount = 20
				}
				add_resource = {
					type = chromium
					amount = 20
				}
				add_resource = {
					type = tungsten
					amount = 20
				}
				add_resource = {
					type = oil
					amount = 20
				}
			}
		}
	}


	focus = {
		id = JAP_sign_tripartite_pact
		icon = GFX_goal_anschluss
		prerequisite = { focus = JAP_liaison_conference }
		x = 1
		y = 1
		relative_position_id = JAP_liaison_conference

		cost = 5

		ai_will_do = {
			factor = 3
			modifier = {
				factor = 0
				NOT = { GER = { is_in_faction_with = ITA } }
			}
		}

		available = {
			
		}

		bypass = {
			
		}

		cancel_if_invalid = yes
		continue_if_invalid = no
		available_if_capitulated = no


		completion_reward = {
			add_political_power = 120
		}
	}

	focus = {
		id = JAP_guide_the_zaibatsus
		icon = GFX_focus_jap_zaibatsu
		prerequisite = { focus = JAP_purge_the_kodoha_faction }
		mutually_exclusive = {
			focus = JAP_develop_homeland
		}
		x = 1
		y = 1
		relative_position_id = JAP_purge_the_kodoha_faction

		cost = 5

		ai_will_do = {
			factor = 3
		}

		available = {

		}

		bypass = {

		}

		cancel_if_invalid = yes
		continue_if_invalid = no
		available_if_capitulated = no

		search_filters = { FOCUS_FILTER_INDUSTRY }
		complete_tooltip = {
		}

		completion_reward = {
			282 = {
			add_extra_state_shared_building_slots = 2
			add_building_construction = {
				type = industrial_complex
				level = 2
				instant_build = yes
			}
			set_state_flag = JAP_zaibatsus_factories
			}
			swap_ideas = {
				remove_idea = JAP_zaibatsus
				add_idea = JAP_guide_the_zaibatsus
			}
		}
	}

	focus = {
		id = JAP_develop_homeland
		text = "Nationalize the Zaibatsu"
		icon = GFX_focus_jap_pacific_guardian
		mutually_exclusive = {
			focus = JAP_guide_the_zaibatsus
		}
		prerequisite = { focus = JAP_purge_the_kodoha_faction }
		x = 3
		y = 1
		relative_position_id = JAP_purge_the_kodoha_faction

		cost = 5

		ai_will_do = {
			factor = 3
		}

		available = {

		}

		bypass = {

		}

		cancel_if_invalid = yes
		continue_if_invalid = no
		available_if_capitulated = no

		search_filters = { FOCUS_FILTER_INDUSTRY }
		complete_tooltip = {
		}

		completion_reward = {
			533 = {
				add_extra_state_shared_building_slots = 6
				add_building_construction = {
					type = dockyard
					level = 6
					instant_build = yes
				}
			}
			swap_ideas = {
				remove_idea = JAP_zaibatsus
				add_idea = JAP_nationalize_the_zaibatsus
			}
		}
	}
	
	
	focus = {
		id = JAP_nationalize_war_industry
		text = "Expand Civilian Economy"
		icon = GFX_goal_generic_construct_civ_factory
		prerequisite = { focus = JAP_national_mobilization_law }
		x = -1
		y = 2
		relative_position_id = JAP_guide_the_zaibatsus

		cost = 10

		ai_will_do = {
			factor = 3
		}

		available = {

		}

		bypass = {

		}

		cancel_if_invalid = yes
		continue_if_invalid = no
		available_if_capitulated = no

		search_filters = { FOCUS_FILTER_INDUSTRY }
		complete_tooltip = {
			
		}

		completion_reward = {
			528 = {
				add_extra_state_shared_building_slots = 18
				add_building_construction = {
					type = industrial_complex
					level = 12
					instant_build = yes
				}
			}
		}
	}

	focus = {
		id = JAP_coal_liquification
		icon = GFX_goal_generic_oil_refinery
		prerequisite = { focus = JAP_imperial_arsenals }
		x = 3
		y = 3
		relative_position_id = JAP_guide_the_zaibatsus

		cost = 5

		ai_will_do = {
			factor = 2
		}

		available = {
			
		}

		bypass = {

		}

		cancel_if_invalid = yes
		continue_if_invalid = no
		available_if_capitulated = no


		search_filters = { FOCUS_FILTER_INDUSTRY }
		completion_reward = {
			swap_ideas = {
			remove_idea = JAP_militarism
			add_idea = JAP_militarism_2 }
			528 = {
				add_building_construction = {
					type = synthetic_refinery
					level = 3
					instant_build = yes
				}
			}
			282 = {
				add_building_construction = {
					type = synthetic_refinery
					level = 3
					instant_build = yes
				}
			}
			531 = {
				add_building_construction = {
					type = synthetic_refinery
					level = 3
					instant_build = yes
				}
			}
		532 = {
				add_building_construction = {
					type = synthetic_refinery
					level = 3
					instant_build = yes
				}
			}
			add_tech_bonus = {
				name = JAP_coal_liquification
				bonus = 1.5
				uses = 4
				category = synth_resources	
			}
		}
	}

	focus = {
		id = JAP_focus_Urban_Expansion
		text = "Urban Expansion"
		icon = GFX_goal_generic_construct_civilian
		prerequisite = { focus = JAP_nationalize_war_industry }
		x = -1
		y = 3
		relative_position_id = JAP_guide_the_zaibatsus

		cost = 5

		ai_will_do = {
			factor = 2
		}

		available = {
			
		}

		bypass = {

		}

		cancel_if_invalid = yes
		continue_if_invalid = no
		available_if_capitulated = no


		search_filters = { FOCUS_FILTER_INDUSTRY }
		completion_reward = {
			282 = {
				add_extra_state_shared_building_slots = 8
			}
			532 = {
				add_extra_state_shared_building_slots = 9
			}
			531 = {
				add_extra_state_shared_building_slots = 3
			}
			529 = {
				add_extra_state_shared_building_slots = 4
			}
			528 = {
				add_extra_state_shared_building_slots = 6
			}
		}
	}

	focus = {
		id = JAP_national_mobilization_law
		icon = GFX_goal_generic_axis_build_infantry
		prerequisite = { focus = JAP_guide_the_zaibatsus focus= JAP_develop_homeland}
		x = 1
		y = 1
		relative_position_id = JAP_guide_the_zaibatsus

		cost = 5

		ai_will_do = {
			factor = 2
		}

		available = {

		}

		bypass = {

		}

		cancel_if_invalid = yes
		continue_if_invalid = no
		available_if_capitulated = no


		search_filters = { FOCUS_FILTER_INDUSTRY FOCUS_FILTER_WAR_SUPPORT }
		completion_reward = {
			if = {
				limit = {	
					has_war_support < 0.5
				}
				add_war_support = 0.1
			}
			else_if = {
				limit = {
					has_idea = war_economy
				}
				add_political_power = 150
			}
			else = {
				add_ideas = war_economy
			}
		
			282 = {
				add_extra_state_shared_building_slots = 4
			}
			532 = {
				add_extra_state_shared_building_slots = 5
			}
			531 = {
				add_extra_state_shared_building_slots = 2
			}
			529 = {
				add_extra_state_shared_building_slots = 2
			}
			528 = {
				add_extra_state_shared_building_slots = 3
			}
		
		}
	}

	focus = {
		id = JAP_national_research_policy
		icon = GFX_focus_research
		prerequisite = { focus = JAP_national_mobilization_law }
		x = 0
		y = 1
		relative_position_id = JAP_national_mobilization_law

		cost = 5

		ai_will_do = {
			factor = 4
		}

		available = {

		}

		bypass = {

		}

		cancel_if_invalid = yes
		continue_if_invalid = no
		available_if_capitulated = no

		search_filters = { FOCUS_FILTER_RESEARCH }
		completion_reward = {
			add_research_slot = 1
		}
	}

	focus = {
		id = JAP_imperial_arsenals
		icon = GFX_goal_generic_construct_mil_factory
		prerequisite = { focus = JAP_national_mobilization_law }
		x = 2
		y = 1
		relative_position_id = JAP_national_mobilization_law

		cost = 10

		ai_will_do = {
			factor = 3
		}

		available = {

		}

		bypass = {

		}

		cancel_if_invalid = yes
		continue_if_invalid = no
		available_if_capitulated = no

		search_filters = { FOCUS_FILTER_INDUSTRY }
		complete_tooltip = {
			
		}

		completion_reward = {
			528 = {
				add_extra_state_shared_building_slots = 18
				add_building_construction = {
					type = arms_factory
					level = 8
					instant_build = yes
				}
			}
			282 = {
				add_extra_state_shared_building_slots = 14
				add_building_construction = {
					type = arms_factory
					level = 4
					instant_build = yes
				}
			}
		}
	}

	focus = {
		id = JAP_national_defense_state
		icon = GFX_goal_generic_political_pressure
		prerequisite = { focus = JAP_nationalize_war_industry focus = JAP_imperial_arsenals }
		x = -2
		y = 1
		relative_position_id = JAP_imperial_arsenals

		cost = 5

		ai_will_do = {
			factor = 1
		}

		available = {

		}

		bypass = {

		}

		cancel_if_invalid = yes
		continue_if_invalid = no
		available_if_capitulated = no

		search_filters = { FOCUS_FILTER_WAR_SUPPORT }
		completion_reward = {
			if = {
				limit = {
					has_war_support < 0.8
				}
				add_war_support = 0.1
			}
			else_if = {
				limit = {
					has_idea = tot_economic_mobilisation
				}
				add_political_power = 150
			}
			else = {
				add_ideas = tot_economic_mobilisation
			}
		}
	}

	focus = {
		id = JAP_spiritual_mobilization
		icon = GFX_focus_jap_spiritual_mobilization
		prerequisite = { focus = JAP_national_defense_state }
		x = -1
		y = 1
		relative_position_id = JAP_national_defense_state

		cost = 5

		ai_will_do = {
			factor = 4
		}

		available = {

		}

		bypass = {

		}

		cancel_if_invalid = yes
		continue_if_invalid = no
		available_if_capitulated = no

		search_filters = { FOCUS_FILTER_MANPOWER }
		completion_reward = {
			add_ideas = spiritual_mobilization_idea
		}
	}

	focus = {
		id = JAP_warrior_spirit
		icon = GFX_focus_generic_japanese_imperial_glory
		prerequisite = { focus = JAP_national_defense_state }
		x = 1
		y = 1
		relative_position_id = JAP_national_defense_state

		cost = 5

		ai_will_do = {
			
		}

		available = {

		}

		bypass = {

		}

		cancel_if_invalid = yes
		continue_if_invalid = no
		available_if_capitulated = no

		completion_reward = {
		add_ideas = JAP_spirit	
		}
	}

	focus = {
		id = JAP_strengthen_the_divine_wind
		icon = GFX_goal_generic_secret_weapon
		prerequisite = { focus = JAP_spiritual_mobilization }
		prerequisite = { focus = JAP_warrior_spirit }
		x = 1
		y = 1
		relative_position_id = JAP_spiritual_mobilization

		cost = 5

		ai_will_do = {
			factor = 3
		}

		available = {
			
		}

		bypass = {

		}

		cancel_if_invalid = yes
		continue_if_invalid = no
		available_if_capitulated = no

		completion_reward = {
		add_ideas = CAN_the_plan	
		}
	}



	focus = {
		id = JAP_the_manchurian_project
		icon = GFX_focus_jap_manchurian_project
		x = 12
		y = 0


		cost = 5


		available = {
		}

		bypass = {

		}

		cancel_if_invalid = yes
		continue_if_invalid = no
		available_if_capitulated = no

		search_filters = { FOCUS_FILTER_STABILITY FOCUS_FILTER_WAR_SUPPORT }
		completion_reward = {
			MAN = {				
				add_stability = 0.1
				add_war_support = 0.1
				add_political_power = 150
			}
		}
	}

	focus = {
		id = JAP_expand_the_showa_steel_works
		icon = GFX_goal_generic_construct_civilian
		prerequisite = { focus = JAP_the_manchurian_project }
		x = 1
		y = 1
		relative_position_id = JAP_the_manchurian_project

		cost = 5

		ai_will_do = {
			factor = 2
		}

		available = {
			
		}

		bypass = {

		}

		cancel_if_invalid = yes
		continue_if_invalid = no
		available_if_capitulated = no

		search_filters = { FOCUS_FILTER_INDUSTRY }
		completion_reward = {
			716 = {
					add_resource = {
						type = steel
						amount = 233
					}	
					add_resource = {
						type = aluminium
						amount = 122
					}	
					add_resource = {
						type = tungsten
						amount = 131
					}
					add_resource = {
						type = chromium
						amount = 211
					}		
				}
		}
	}

	focus = {
		id = JAP_develop_aluminum_sources
		icon = GFX_goal_generic_construction
		prerequisite = { focus = JAP_expand_the_showa_steel_works }
		x = 0
		y = 1
		relative_position_id = JAP_expand_the_showa_steel_works

		allow_branch = {
			MAN = { has_focus_tree = generic_focus }
		}

		cost = 10

		ai_will_do = {
			factor = 2
		}

		available = {
			328 = { is_fully_controlled_by = MAN }
			MAN = { is_subject_of = ROOT }
		}

		bypass = {

		}

		cancel_if_invalid = yes
		continue_if_invalid = no
		available_if_capitulated = no

		search_filters = { FOCUS_FILTER_INDUSTRY }
		completion_reward = {
			328 = {
				if = {
					limit = {
						MAN = { has_focus_tree = generic_focus }
					}
					add_resource = {
						type = aluminium
						amount = 12
					}
				}
				add_extra_state_shared_building_slots = 2
				add_building_construction = {
					type = industrial_complex
					level = 2
					instant_build = yes
				}
			}
		}
	}

	focus = {
		id = JAP_expand_manchurian_railways
		icon = GFX_goal_generic_construct_infrastructure
		prerequisite = { focus = JAP_the_manchurian_project }
		x = -1
		y = 1
		relative_position_id = JAP_the_manchurian_project

		cost = 5

		ai_will_do = {
			factor = 1
		}

		available = {
			NOT = {
				country_exists = CHI
			}
		}

		bypass = {

		}

		cancel_if_invalid = yes
		continue_if_invalid = no
		available_if_capitulated = no

		search_filters = { FOCUS_FILTER_INDUSTRY }
		complete_tooltip = {
			
		}

		completion_reward = {
			750 = {
				add_building_construction = {
					type = infrastructure
					level = 6
					instant_build = yes
				}
			}
		}
	}

	focus = {
		id = JAP_light_industry_development
		icon = GFX_goal_generic_construct_mil_factory
		prerequisite = { focus = JAP_expand_manchurian_railways }
		x = 0
		y = 1
		relative_position_id = JAP_expand_manchurian_railways

		cost = 5

		ai_will_do = {
			factor = 2
		}

		available = {
			
		}

		bypass = {

		}

		cancel_if_invalid = yes
		continue_if_invalid = no
		available_if_capitulated = no

		search_filters = { FOCUS_FILTER_INDUSTRY }
		completion_reward = {
			715 = {
				add_extra_state_shared_building_slots = 2
				add_building_construction = {
					type = arms_factory
					level = 2
					instant_build = yes
				}
			}
			527 = {
				add_extra_state_shared_building_slots = 2
				add_building_construction = {
					type = arms_factory
					level = 2
					instant_build = yes
				}
			}
		}
	}

	focus = {
		id = JAP_heavy_industry_development
		icon = GFX_goal_generic_build_tank
		prerequisite = { focus = JAP_expand_manchurian_railways }
		x = 2
		y = 1
		relative_position_id = JAP_expand_manchurian_railways

		cost = 5

		ai_will_do = {
			factor = 2
		}

		available = {
			
		}

		bypass = {

		}

		cancel_if_invalid = yes
		continue_if_invalid = no
		available_if_capitulated = no

		search_filters = { FOCUS_FILTER_INDUSTRY }
		completion_reward = {
			716 = {
				add_extra_state_shared_building_slots = 5
				add_building_construction = {
					type = industrial_complex
					level = 5
					instant_build = yes
				}
			}
			527 = {
				add_extra_state_shared_building_slots = 2
				add_building_construction = {
					type = industrial_complex
					level = 2
					instant_build = yes
				}
			}
		}
	}

	focus = {
		id = JAP_japanese_settlement
		icon = GFX_goal_generic_construct_civ_factory
		prerequisite = { focus = JAP_heavy_industry_development }
		prerequisite = { focus = JAP_light_industry_development }
		x = 1
		y = 2
		relative_position_id = JAP_expand_manchurian_railways

		cost = 5

		ai_will_do = {
			factor = 1
		}

		available = {
			
		}

		bypass = {

		}

		cancel_if_invalid = yes
		continue_if_invalid = no
		available_if_capitulated = no

		search_filters = { FOCUS_FILTER_INDUSTRY }
		completion_reward = {
			527 = { add_extra_state_shared_building_slots = 10 }
			525 = { add_extra_state_shared_building_slots = 10 }
		}
	}

	focus = {
		id = JAP_army_expansion_law
		icon = GFX_goal_generic_army_doctrines
		x = 18
		y = 0
		 

		cost = 5


		available = {

		}

		bypass = {

		}

		cancel_if_invalid = yes
		continue_if_invalid = no
		available_if_capitulated = no


		completion_reward = {
			add_tech_bonus = {
				name = "Land Doctrine"
				bonus = 1
				uses = 4
				category = land_doctrine
			}
		}
	}

	focus = {
		id = JAP_small_arms_modernization
		icon = GFX_goal_generic_small_arms
		prerequisite = { focus = JAP_army_expansion_law }
		x = -1
		y = 1
		relative_position_id = JAP_army_expansion_law

		cost = 5


		available = {

		}

		bypass = {

		}

		cancel_if_invalid = yes
		continue_if_invalid = no
		available_if_capitulated = no

		search_filters = { FOCUS_FILTER_RESEARCH }
		completion_reward = {
			add_tech_bonus = {
				name = "Gun Research"
				bonus = 1
				uses = 2
				technology = improved_infantry_weapons
				technology = improved_infantry_weapons_2
				technology = advanced_infantry_weapons
			}
		}
	}

	focus = {
		id = JAP_supremacy_of_technology
		icon = GFX_goal_generic_production
		prerequisite = { focus = JAP_army_expansion_law }
		x = 1
		y = 1
		relative_position_id = JAP_army_expansion_law

		cost = 3


		available = {

		}

		bypass = {

		}

		cancel_if_invalid = yes
		continue_if_invalid = no
		available_if_capitulated = no

		search_filters = { FOCUS_FILTER_RESEARCH }
		completion_reward = {
			add_ideas = JAP_supremacy_of_technology
			add_tech_bonus = {
				name = "Motorized Focus"
				bonus = 3.0
				uses = 1
				category = motorized_equipment
			}
			add_tech_bonus = {
				name = "Motorized Focus"
				bonus = 1.0
				uses = 1
				category = motorized_equipment
			}
		}
	}

	focus = {
		id = JAP_technology
		Text = "Technological Advance"
		icon = GFX_focus_research
		prerequisite = { focus = JAP_army_expansion_law }
		x = 3
		y = 1
		relative_position_id = JAP_army_expansion_law

		cost = 5


		available = {

		}

		bypass = {

		}

		cancel_if_invalid = yes
		continue_if_invalid = no
		available_if_capitulated = no

		search_filters = { FOCUS_FILTER_RESEARCH }
		completion_reward = {
		add_research_slot = 1
		}
	}

	focus = {
		id = JAP_modern_artillery
		text = "Anti Tank Divisions"
		icon = GFX_goal_generic_army_artillery2
		prerequisite = { focus = JAP_small_arms_modernization  }
		x = -2
		y = 2
		relative_position_id = JAP_army_expansion_law

		cost = 5

		ai_will_do = {
			factor = 1
		}

		available = {

		}

		bypass = {

		}

		cancel_if_invalid = yes
		continue_if_invalid = no
		available_if_capitulated = no

		search_filters = { FOCUS_FILTER_RESEARCH }
		completion_reward = {
			
			add_tech_bonus = {
				name = "Anti Tank"
				bonus = 0.75
				uses = 5
				technology = antitank1
				technology = antitank2
				technology = antitank3
				technology = antitank4
				technology = antitank5
			}
		}
	}

	focus = {
		id = JAP_armored_divisions
		icon = GFX_goal_generic_army_tanks
		prerequisite = { focus = JAP_supremacy_of_technology }
		x = 0
		y = 2
		relative_position_id = JAP_supremacy_of_technology

		cost = 3

		ai_will_do = {
			factor = 1
		}

		available = {

		}

		bypass = {

		}

		cancel_if_invalid = yes
		continue_if_invalid = no
		available_if_capitulated = no

		search_filters = { FOCUS_FILTER_RESEARCH }
		completion_reward = {
			add_tech_bonus = {
				name = armor_bonus
				bonus = 3.0
				uses = 1
				technology = basic_medium_tank
				technology = basic_heavy_tank
			}
				add_tech_bonus = {
				name = armor_bonus
				bonus = 1.0
				uses = 1
				technology = improved_medium_tank
				technology = improved_heavy_tank
			}
			add_tech_bonus = {
				name = armor_bonus
				bonus = 1.0
				uses = 1
				technology = advanced_medium_tank
				technology = advanced_heavy_tank
			}
			add_tech_bonus = {
				name = armor_bonus
				bonus = 1.0
				uses = 1
				technology = advanced_light_tank
			}
		}
	}

	focus = {
		id = JAP_bicycle_battalions
		icon = GFX_goal_generic_special_forces
		prerequisite = { focus = JAP_supremacy_of_technology}
		x = 1
		y = 1
		relative_position_id = JAP_supremacy_of_technology

		cost = 3

		ai_will_do = {
			factor = 1
		}

		available = {

		}

		bypass = {

		}

		cancel_if_invalid = yes
		continue_if_invalid = no
		available_if_capitulated = no

		search_filters = { FOCUS_FILTER_RESEARCH }
		completion_reward = {
			set_technology = { bicycle_infantry = 1 }
		}
	}

	focus = {
		id = JAP_army_expansion
		icon = GFX_goal_generic_army_artillery
		prerequisite = { focus = JAP_small_arms_modernization }
		x = 0
		y = 2
		relative_position_id = JAP_army_expansion_law

		cost = 5


		available = {

		}

		bypass = {

		}

		cancel_if_invalid = yes
		continue_if_invalid = no
		available_if_capitulated = no


		completion_reward = {
			add_tech_bonus = {
				name = "Rocket Arty"
				bonus = 0.5
				uses = 4
				category = rocketry
			}
			add_tech_bonus = {
				name = "Arty Bonus"
				bonus = 1.0
				uses = 2
				technology = artillery3
				technology = artillery4
			}
		}
	}

	focus = {
		id = JAP_supremacy_of_will
		icon = GFX_goal_demand_sudetenland
		prerequisite = { focus = JAP_army_expansion focus = JAP_modern_artillery }
		x = -1
		y = 1
		relative_position_id = JAP_army_expansion

		cost = 5


		available = {

		}

		bypass = {

		}

		cancel_if_invalid = yes
		continue_if_invalid = no
		available_if_capitulated = no


		completion_reward = {
			add_ideas = JAP_superior_will
		}
	}

	focus = {
		id = JAP_fighter_modernization
		icon = GFX_goal_generic_air_fighter2
		prerequisite = { focus = JAP_army_expansion_law focus = JAP_new_naval_estimates }
		x = 5
		y = 2
		relative_position_id = JAP_army_expansion_law

		cost = 5

		available = {

		}

		bypass = {

		} 
 
		cancel_if_invalid = yes
		continue_if_invalid = no
		available_if_capitulated = no

		search_filters = { FOCUS_FILTER_RESEARCH }
		completion_reward = {
			add_ideas = JAP_air_modernization
		}
	}

	focus = {
		id = JAP_range_focus
		icon = GFX_goal_generic_air_production
		prerequisite = { focus = JAP_fighter_modernization }
		x = -1
		y = 1
		relative_position_id = JAP_fighter_modernization

		cost = 5

		ai_will_do = {
			factor = 1
		}

		available = {

		}

		bypass = {

		}

		cancel_if_invalid = yes
		continue_if_invalid = no
		available_if_capitulated = no
 

		completion_reward = {
			add_ideas = JAP_range_focus
		}
	}

	focus = {
		id = JAP_agility_focus
		icon = GFX_goal_generic_air_production
		prerequisite = { focus = JAP_fighter_modernization }
		x = 1
		y = 1
		relative_position_id = JAP_fighter_modernization

		cost = 5

		ai_will_do = {
		
		}

		available = {

		}

		bypass = {

		}

		cancel_if_invalid = yes
		continue_if_invalid = no
		available_if_capitulated = no


		completion_reward = {
			add_ideas = mitsubishi
		}
	}

	focus = {
		id = JAP_the_zero
		icon = GFX_focus_jap_zero
		prerequisite = { focus = JAP_agility_focus }
		x = 1
		y = 1
		relative_position_id = JAP_agility_focus

		cost = 1

		ai_will_do = {
			factor = 1
			modifier = {
				factor = 2
				has_completed_focus = JAP_purge_the_kodoha_faction
			}
		}

		available = {
			date > 1938.1.1
		}

		bypass = {
		}

		cancel_if_invalid = yes
		continue_if_invalid = no
		available_if_capitulated = no

		search_filters = { FOCUS_FILTER_RESEARCH }
		completion_reward = {
			add_ideas = mitsubishi
			custom_effect_tooltip = JAP_the_zero_tt
			hidden_effect = { set_technology = { cv_fighter3 = 1 } }
			
		}
	}

	focus = {
		id = JAP_bomber_modernization
		icon = GFX_goal_generic_CAS
		prerequisite = { focus = JAP_range_focus }
		x = -2
		y = 2
		relative_position_id = JAP_fighter_modernization

		cost = 5

		ai_will_do = {
			factor = 1
		}

		available = {

		}

		bypass = {

		}

		cancel_if_invalid = yes
		continue_if_invalid = no
		available_if_capitulated = no

		search_filters = { FOCUS_FILTER_RESEARCH }
		completion_reward = {
			add_tech_bonus = {
				name = JAP_bomber_modernization
				bonus = 1.0
				uses = 2
				category = cas_bomber					
			}
		}
	}

	focus = {
		id = JAP_focus_naval_bomber
		text = "Naval Bomber"
		icon = GFX_goal_generic_navy_carrier
		prerequisite = { focus = JAP_range_focus focus = JAP_agility_focus}
		x = 0
		y = 2
		relative_position_id = JAP_fighter_modernization

		cost = 5

		ai_will_do = {
			factor = 1
		}

		available = {

		}

		bypass = {

		}

		cancel_if_invalid = yes
		continue_if_invalid = no
		available_if_capitulated = no

		search_filters = { FOCUS_FILTER_RESEARCH }
		completion_reward = {
			add_tech_bonus = {
				name = JAP_bomber_modernization
				bonus = 1.0
				uses = 2
				category = naval_bomber					
			}
		}
	}

	focus = {
		id = JAP_strategic_bomber_effort
		icon = GFX_goal_generic_air_bomber
		prerequisite = { focus = JAP_range_focus }
		prerequisite = { focus = JAP_bomber_modernization }
		x = -1
		y = 3
		relative_position_id = JAP_fighter_modernization

		cost = 5

		ai_will_do = {
			factor = 1
		}

		available = {

		}

		bypass = {

		}

		cancel_if_invalid = yes
		continue_if_invalid = no
		available_if_capitulated = no

		search_filters = { FOCUS_FILTER_RESEARCH }
		completion_reward = {
			add_tech_bonus = {
				name = JAP_strategic_bomber_effort
				bonus = 1.0
				uses = 2
				category = tactical_bomber	
			}
		}
	}

	focus = {
		id = JAP_unified_fighter_development
		icon = GFX_goal_generic_air_fighter
		prerequisite = { focus = JAP_agility_focus }
		prerequisite = { focus = JAP_the_zero }
		x = 1
		y = 3
		relative_position_id = JAP_fighter_modernization

		cost = 5

		ai_will_do = {
			factor = 2
		}

		available = {

		}

		bypass = {

		}

		cancel_if_invalid = yes
		continue_if_invalid = no
		available_if_capitulated = no

		search_filters = { FOCUS_FILTER_RESEARCH }
		completion_reward = {
			remove_ideas = JAP_duplicate_research_efforts
		}
	}

	focus = {
		id = JAP_jet_prototypes
		icon = GFX_goal_generic_build_airforce
		prerequisite = { focus = JAP_unified_fighter_development focus = JAP_strategic_bomber_effort }
		x = 0
		y = 4
		relative_position_id = JAP_fighter_modernization

		cost = 5

		ai_will_do = {
			factor = 1
		}

		available = {

		}

		bypass = {

		}

		cancel_if_invalid = yes
		continue_if_invalid = no
		available_if_capitulated = no

		search_filters = { FOCUS_FILTER_RESEARCH }
		completion_reward = {
			add_tech_bonus = {
				name = JAP_jet_prototypes
				bonus = 1.0
				uses = 2
				category = jet_technology
			}
		}
	}

	focus = {
		id = JAP_new_naval_estimates
		icon = GFX_goal_generic_construct_naval_dockyard
		x = 12
		y = 0
		relative_position_id = JAP_army_expansion_law

		cost = 5

		

		available = {

		}

		bypass = {

		}

		cancel_if_invalid = yes
		continue_if_invalid = no
		available_if_capitulated = no

		search_filters = { FOCUS_FILTER_INDUSTRY }
		complete_tooltip = {
			
		}

		completion_reward = {
			529 = {
				add_extra_state_shared_building_slots = 10
				add_building_construction = {
					type = dockyard
					level = 10
					instant_build = yes
				}
			
			}
			
		}
	}

	focus = {
		id = JAP_focus_new_dockyards
		text = "New Dockyards"
		icon = GFX_goal_generic_construct_naval_dockyard
		x = -3
		y = 1
		relative_position_id = JAP_new_naval_estimates
		prerequisite = {
			focus = JAP_new_naval_estimates
		}
		cost = 5

		ai_will_do = {
			
		}

		available = {

		}

		bypass = {

		}

		cancel_if_invalid = yes
		continue_if_invalid = no
		available_if_capitulated = no

		search_filters = { FOCUS_FILTER_INDUSTRY }
		complete_tooltip = {
			
		}

		completion_reward = {
			529 = {
				add_extra_state_shared_building_slots = 10
				add_building_construction = {
					type = dockyard
					level = 10
					instant_build = yes
				}
			}
		}
	}

	focus = {
		id = JAP_focus_nagasaki
		text = "Nagasaki Shipyards"
		icon = GFX_goal_generic_construct_naval_dockyard
		x = -3
		y = 2
		relative_position_id = JAP_new_naval_estimates
		prerequisite = {
			focus = JAP_focus_new_dockyards
		}
		cost = 5

		ai_will_do = {
			
		}

		available = {

		}

		bypass = {

		}

		cancel_if_invalid = yes
		continue_if_invalid = no
		available_if_capitulated = no

		search_filters = { FOCUS_FILTER_INDUSTRY }
		complete_tooltip = {
			
		}

		completion_reward = {
			528 = {
				add_extra_state_shared_building_slots = 15
				add_building_construction = {
					type = dockyard
					level = 15
					instant_build = yes
				}
			}
		}
	}

	focus = {
		id = JAP_focus_navy_modernization
		text = "A Modern Fleet"
		icon = GFX_goal_generic_construct_naval_dockyard
		x = -3
		y = 3
		relative_position_id = JAP_new_naval_estimates
		prerequisite = {
			focus = JAP_focus_nagasaki
		}
		cost = 5

		ai_will_do = {
			
		}

		available = {

		}

		bypass = {

		}

		cancel_if_invalid = yes
		continue_if_invalid = no
		available_if_capitulated = no

		search_filters = { FOCUS_FILTER_INDUSTRY }
		complete_tooltip = {
			
		}

		completion_reward = {
			536 = {
				add_extra_state_shared_building_slots = 10
				add_building_construction = {
					type = dockyard
					level = 10
					instant_build = yes
				}
			}
		}
	}

	focus = {
		id = JAP_carrier_warfare_experiments
		text = "Form the Kido Butai"
		icon = GFX_goal_generic_navy_doctrines_tactics
		prerequisite = { focus = JAP_new_naval_estimates }
		mutually_exclusive = { focus = JAP_supremacy_of_the_battlefleet }
		x = -1
		y = 1
		relative_position_id = JAP_new_naval_estimates

		cost = 5

		ai_will_do = {
			
		}

		available = {

		}

		bypass = {

		}

		cancel_if_invalid = yes
		continue_if_invalid = no
		available_if_capitulated = no

		search_filters = { FOCUS_FILTER_RESEARCH }
		completion_reward = {
			add_tech_bonus = {
				name = JAP_carrier_warfare_experiments
				bonus = 1.00
				uses = 2
				category = naval_doctrine
			}
		add_ideas = yokosuka_naval_arsenal
		
		}
	}

	focus = {
		id = JAP_expand_the_snlf
		icon = GFX_goal_generic_amphibious_assault
		prerequisite = { focus = JAP_carrier_warfare_experiments focus = JAP_supremacy_of_the_battlefleet }
		x = 0
		y = 2
		relative_position_id = JAP_new_naval_estimates

		cost = 5

		ai_will_do = {
			factor = 1
			modifier = {
				factor = 2
				has_completed_focus = JAP_purge_the_kodoha_faction
			}
		}

		available = {

		}

		bypass = {

		}

		cancel_if_invalid = yes
		continue_if_invalid = no
		available_if_capitulated = no

		search_filters = { FOCUS_FILTER_RESEARCH }
		completion_reward = {
			add_tech_bonus = {
				name = JAP_expand_the_snlf
				bonus = 1.0
				uses = 2
				category = marine_tech	
			}
			add_tech_bonus = {
				name = JAP_expand_the_snlf
				bonus = 1.0
				uses = 2
				category = mountaineers_tech	
			}
		}
	}

	focus = {
		id = JAP_first_air_fleet
		icon = GFX_goal_generic_navy_carrier
		prerequisite = { focus = JAP_carrier_warfare_experiments }
		x = 0
		y = 2
		relative_position_id = JAP_carrier_warfare_experiments

		cost = 5

		available = {

		}

		bypass = {

		}

		cancel_if_invalid = yes
		continue_if_invalid = no
		available_if_capitulated = no


		completion_reward = {
			add_ideas = JAP_first_air_fleet
			add_ideas = yokosuka_naval_arsenal
			
			add_tech_bonus = {
				name = cv_bonus
				bonus = 1.0
				uses = 2
				category = cv_tech
			}
			custom_effect_tooltip = "Researches Carrier III"
			hidden_effect = {
				set_technology = { improved_carrier = 1 }
				
			}
		}
	}

	
	
	



	focus = {
		id = JAP_supremacy_of_the_battlefleet
		text = "Follow Kantai Kessen Doctrine"
		mutually_exclusive = { focus = JAP_carrier_warfare_experiments }
		icon = jap_fleet
		prerequisite = { focus = JAP_new_naval_estimates }
		x = 1
		y = 1
		relative_position_id = JAP_new_naval_estimates

		cost = 5

		ai_will_do = {
			factor = 1
		}

		available = {

		}

		bypass = {

		}

		cancel_if_invalid = yes
		continue_if_invalid = no
		available_if_capitulated = no

		search_filters = { FOCUS_FILTER_RESEARCH }
		completion_reward = {
			add_tech_bonus = {
				name = JAP_supremacy_of_the_battlefleet
				bonus = 1.0
				uses = 1
				category = bb_tech
			}
			custom_effect_tooltip = available_designer
			show_ideas_tooltip = kure_naval_arsenal
			add_ideas = germaniawerft_jap
		}
	}

	focus = {
		id = JAP_the_ultimate_battleship
		text = "THE Battleship"
		icon = goal_JAP_the_ultimate_battleship
		prerequisite = { focus = JAP_supremacy_of_the_battlefleet }
		x = 0
		y = 2
		relative_position_id = JAP_supremacy_of_the_battlefleet

		cost = 5

		ai_will_do = {
			factor = 1
		}

		available = {

		}	

		cancel_if_invalid = yes
		continue_if_invalid = no
		available_if_capitulated = no

		search_filters = { FOCUS_FILTER_RESEARCH }
		completion_reward = {   set_technology = { ship_hull_super_heavy = 1  }
				create_equipment_variant = {
					name = "Yamato Class"
					type = ship_hull_super_heavy_1
					name_group = JAP_BB_HISTORICAL
					parent_version = 0
					modules = {
						fixed_ship_battery_slot = ship_super_heavy_battery_1
						fixed_ship_anti_air_slot = ship_anti_air_4
						fixed_ship_fire_control_system_slot = ship_fire_control_system_3
						fixed_ship_radar_slot = ship_radar_4
						fixed_ship_engine_slot = heavy_ship_engine_3
						fixed_ship_secondaries_slot = ship_secondaries_2
						fixed_ship_armor_slot = ship_armor_shbb
						front_1_custom_slot = ship_anti_air_4
						front_2_custom_slot = ship_super_heavy_battery_1
						mid_1_custom_slot = ship_anti_air_4
						mid_2_custom_slot = ship_anti_air_4
						mid_3_custom_slot = ship_anti_air_4
						rear_1_custom_slot = ship_anti_air_4
						rear_2_custom_slot = ship_super_heavy_battery_1
					}
				}
				custom_effect_tooltip = JAP_yamato_tt_2
				hidden_effect = {
					add_equipment_production = {
						equipment = {
							type = ship_hull_super_heavy_1
							creator = "JAP" 
							version_name = "Yamato Class"
						}
						name = "Yamato" 
						requested_factories = 1
						progress = 0.75
						amount = 1
					}
					add_equipment_production = {
						equipment = {
							type = ship_hull_super_heavy_1
							creator = "JAP" 
							version_name = "Yamato Class"
						}
						name = "Musashi" 
						requested_factories = 1
						progress = 0.75
						amount = 1

					}
					add_equipment_production = {
						equipment = {
							type = ship_hull_super_heavy_1
							creator = "JAP" 
							version_name = "Yamato Class"
						}
						name = "Nagato" 
						requested_factories = 1
						progress = 0.75
						amount = 1
					}
					}
	
				
				  
				
				}	
		}	



	focus = {
		id = JAP_focus_Quality_Battleships
		text = "Expand our Ships Supremacy"
		icon = GFX_goal_generic_navy_anti_submarine
		prerequisite = {  focus = JAP_the_ultimate_battleship }
		mutually_exclusive = { focus = JAP_focus_expendable_ships }
		mutually_exclusive = { focus = JAP_focus_Carrier_Fleet }
		x = 1
		y = 1
		relative_position_id = JAP_the_ultimate_battleship
		
		cost = 3

		ai_will_do = {
			factor = 1
		}

		available = {
		
		}

		bypass = {

		}

		cancel_if_invalid = yes
		continue_if_invalid = no
		available_if_capitulated = no

		search_filters = { FOCUS_FILTER_RESEARCH }
		completion_reward = {
			
			set_technology = { advanced_ship_hull_heavy = 1}

			add_ideas =JAP_Ship_Supremacy

		}	
				
			
	}

	focus = {
		id = JAP_focus_expendable_ships
		text = "Try to match american production"
		mutually_exclusive = {  focus = JAP_focus_Carrier_Fleet }
		mutually_exclusive = { focus = JAP_focus_Quality_Battleships}
		icon = GFX_goal_generic_navy_anti_submarine
		prerequisite = { focus = JAP_first_air_fleet focus = JAP_the_ultimate_battleship }
		x = 1
		y = 1
		relative_position_id = JAP_first_air_fleet

		cost = 3

	

		available = {

		}

		bypass = {

		}

		cancel_if_invalid = yes
		continue_if_invalid = no
		available_if_capitulated = no

		completion_reward = {
			set_technology = { improved_ship_hull_heavy = 1}
			add_ideas =JAP_Cheap_Ships
		}
	}
	focus = {
		id = JAP_focus_Carrier_Fleet
		text = "Built our Fleet around Carriers"
		mutually_exclusive = { focus = JAP_focus_expendable_ships }
		mutually_exclusive = { focus = JAP_focus_Quality_Battleships }
		icon = GFX_goal_generic_navy_anti_submarine
		prerequisite = { focus = JAP_first_air_fleet  }
		x = -1
		y = 1
		relative_position_id = JAP_first_air_fleet

		cost = 3

	

		available = {

		}

		bypass = {

		}

		cancel_if_invalid = yes
		continue_if_invalid = no
		available_if_capitulated = no

		search_filters = { FOCUS_FILTER_RESEARCH }
		completion_reward = {
			set_technology = { advanced_ship_hull_carrier = 1}
			add_ideas= JAP_Train_naval_aviators	
		
		}
	}

	

	focus = {
		id = JAP_long_lance_torpedoes
		icon = GFX_goal_generic_occupy_start_war
		prerequisite = { focus = JAP_focus_expendable_ships focus = JAP_focus_Carrier_Fleet focus = JAP_focus_Quality_Battleships}
		x = 0
		y = 1
		relative_position_id = JAP_focus_expendable_ships

		cost = 1

		ai_will_do = {
			factor = 4
		}

		available = {

		}

		bypass = {

		}

		cancel_if_invalid = yes
		continue_if_invalid = no
		available_if_capitulated = no


		completion_reward = {
			add_ideas = the_long_lance
		}
	}
	focus = {
		id = JAP_cruiser_modernization
		icon = GFX_goal_generic_navy_cruiser
		prerequisite = { focus = JAP_long_lance_torpedoes }
		x = 2
		y = 1
		relative_position_id = JAP_long_lance_torpedoes
		mutually_exclusive={ focus= JAP_new_fleet_escorts }
		mutually_exclusive = { focus = JAP_torpedo_cruisers}

		cost = 2

		

		available = {

		}

		bypass = {

		}

		cancel_if_invalid = yes
		continue_if_invalid = no
		available_if_capitulated = no

		search_filters = { FOCUS_FILTER_RESEARCH }
		completion_reward = {
			set_technology = { improved_ship_hull_cruiser = 1}	
		}
	}

	focus = {
		id = JAP_torpedo_cruisers
		icon = GFX_goal_generic_navy_cruiser
		prerequisite = { focus = JAP_long_lance_torpedoes }
		x = 0
		y = 1
		relative_position_id = JAP_long_lance_torpedoes

		mutually_exclusive={ focus= JAP_new_fleet_escorts }
		mutually_exclusive={ focus= JAP_cruiser_modernization }
		cost = 2

		
		available = {

		}

		bypass = {

		}

		cancel_if_invalid = yes
		continue_if_invalid = no
		available_if_capitulated = no

		search_filters = { FOCUS_FILTER_RESEARCH }
		completion_reward = {
			if = {
				limit = {
					not = { has_dlc = "Man the Guns" }
				}
				set_technology = { torpedo_cruiser = 1 }
			}
			else = {
				set_technology = { torpedo_cruiser_mtg = 1 }
			}
		}
	}
	focus={
    id=JAP_new_fleet_escorts
	text = "New Fleet Escorts"
	icon = GFX_goal_generic_navy_cruiser
	cost = 2

		prerequisite = { focus = JAP_long_lance_torpedoes }
		x = -2
		y = 1
		relative_position_id = JAP_long_lance_torpedoes
		mutually_exclusive = { focus = JAP_torpedo_cruisers}
		mutually_exclusive = { focus = JAP_cruiser_modernization }

		completion_reward = {
			set_technology = { improved_ship_hull_light = 1}
		}

	}
}

