﻿### search_filters = {FOCUS_FILTER_POLITICAL}
### search_filters = {FOCUS_FILTER_RESEARCH}
### search_filters = {FOCUS_FILTER_INDUSTRY}
### search_filters = {FOCUS_FILTER_STABILITY}
### search_filters = {FOCUS_FILTER_WAR_SUPPORT} 
### search_filters = {FOCUS_FILTER_MANPOWER}
### search_filters = {FOCUS_FILTER_ANNEXATION}

focus_tree = {
	id = british_focus
	
	country = {
		factor = 0
		
		modifier = {
			add = 10
			tag = ENG
		}
	}
	default = no

	continuous_focus_position = { x = 1200 y = 700 }

	focus = {
		id = limited_rearmament_focus
		icon = GFX_goal_generic_build_tank
		x = 11
		y = 0   
		cost = 10
		ai_will_do = {
			factor = 1
		}

		available_if_capitulated = yes
		search_filters = {FOCUS_FILTER_RESEARCH}
		complete_tooltip = {
			
		}
		search_filters = {FOCUS_FILTER_INDUSTRY}
		completion_reward = {
			custom_effect_tooltip = ENG_civs_bei_minor_annex
			if = {
				limit = {
					UAC = {
						country_exists = THIS
					}
					AST = {
						country_exists = THIS
					}
				}
				126 = {
					add_extra_state_shared_building_slots = 17
					add_building_construction = {
						type = industrial_complex
						level = 17
						instant_build = yes
					}
				}
			}

			else_if = {
				limit = {
					UAC = {
						country_exists = THIS
					}
				}
				126 = {
					add_extra_state_shared_building_slots = 12
					add_building_construction = {
						type = industrial_complex
						level = 12
						instant_build = yes
					}
				}
			}

			else_if = {
				limit = {
					AST = {
						country_exists = THIS
					}
				}
				126 = {
					add_extra_state_shared_building_slots = 12
					add_building_construction = {
						type = industrial_complex
						level = 12
						instant_build = yes
					}
				}
			}
			
			else = {
				126 = {
					add_extra_state_shared_building_slots = 8
					add_building_construction = {
						type = industrial_complex
						level = 8
						instant_build = yes
					}
				}
			}
			
			every_state = {     
				limit = { is_core_of = ENG}
					add_state_modifier = { modifier = { local_building_slots_factor = 0.6  }
				} 
			}
		}
	}

	focus = {
		id = air_defense_focus
		prerequisite = { focus = limited_rearmament_focus }
		available = {
					threat > 0.05
			}
		

		continue_if_invalid = yes
		available_if_capitulated = yes

		icon = GFX_goal_generic_construct_military
		x = -10
		y = 1
		relative_position_id = limited_rearmament_focus
		cost = 5
		ai_will_do = {
			factor = 1
		}

		bypass = {
			custom_trigger_tooltip =  {
				tooltip = air_defense_focus_bypass_tt
				NOT = {
					any_owned_state = {
						free_building_slots = {
							building = anti_air_building
							size > 0
						}
					}
				}
			}
		}

		complete_tooltip = {
			if = {
				limit = { has_country_flag = air_defense_focus_built_max }
				custom_effect_tooltip = air_defense_focus_tt			
			}
			if = {
				limit = { NOT = { has_country_flag = air_defense_focus_built_max } }
				every_state = {
					limit = { has_state_flag = ENG_air_defense_focus_built_2 }
					add_building_construction = {
						type = anti_air_building
						level = 2
						instant_build = yes
					}
				}
			}
		}

		completion_reward = {
			if = {
				limit = {
					NOT = {
						OR = {
							123 = {
								free_building_slots = {
									building = anti_air_building
									size > 1
								}
							}
							125 = {
								free_building_slots = {
									building = anti_air_building
									size > 1
								}
							}
							127 = {
								free_building_slots = {
									building = anti_air_building
									size > 1
								}
							}
						}
					}
					NOT = {
						any_owned_state = {
							free_building_slots = {
								building = anti_air_building
								size > 1
							}
							OR = {
								region = 1
								region = 2
								region = 3
							}
						}
					}
				}
				random_owned_controlled_state = {
					limit = {
						free_building_slots = {
							building = anti_air_building
							size > 1
						}
					}
					add_building_construction = {
						type = anti_air_building
						level = 2
						instant_build = yes
					}
					set_state_flag = ENG_air_defense_focus_built_2
				}
				random_owned_controlled_state = {
					limit = {
						free_building_slots = {
							building = anti_air_building
							size > 1
						}			
					}
					add_building_construction = {
						type = anti_air_building
						level = 2
						instant_build = yes
					}
					set_state_flag = ENG_air_defense_focus_built_2
				}
			}
			if = {
				limit = {
					NOT = {
						OR = {
							123 = {
								free_building_slots = {
									building = anti_air_building
									size > 1
								}
							}
							125 = {
								free_building_slots = {
									building = anti_air_building
									size > 1
								}
							}
							127 = {
								free_building_slots = {
									building = anti_air_building
									size > 1
								}
							}
						}
					}
				}
				random_owned_controlled_state = {
					limit = {
						free_building_slots = {
							building = anti_air_building
							size > 1
						}
						OR = {
							region = 1
							region = 2
							region = 3
						}
					}
					add_building_construction = {
						type = anti_air_building
						level = 2
						instant_build = yes
					}
					set_state_flag = ENG_air_defense_focus_built_2
				}
				random_owned_controlled_state = {
					limit = {
						free_building_slots = {
							building = anti_air_building
							size > 1
						}
						OR = {
							region = 1
							region = 2
							region = 3
						}						
					}
					add_building_construction = {
						type = anti_air_building
						level = 2
						instant_build = yes
					}
					set_state_flag = ENG_air_defense_focus_built_2
				}
				random_owned_controlled_state = {
					limit = {
						free_building_slots = {
							building = anti_air_building
							size > 1
						}
						OR = {
							region = 1
							region = 2
							region = 3
						}						
					}
					add_building_construction = {
						type = anti_air_building
						level = 2
						instant_build = yes
					}
					set_state_flag = ENG_air_defense_focus_built_2
				}
			}			
			if = {
				limit = {
					OR = {
						123 = {
							free_building_slots = {
								building = anti_air_building
								size > 1
							}
						}
						125 = {
							free_building_slots = {
								building = anti_air_building
								size > 1
							}
						}
						127 = {
							free_building_slots = {
								building = anti_air_building
								size > 1
							}
						}
					}
				}
				custom_effect_tooltip = air_defense_focus_tt
				hidden_effect = {
					123 = {
						add_building_construction = {
							type = anti_air_building
							level = 5
							instant_build = yes
						}
					}
					125 = {
						add_building_construction = {
							type = anti_air_building
							level = 5
							instant_build = yes
						}
					}
					127 = {
						add_building_construction = {
							type = anti_air_building
							level = 5
							instant_build = yes
						}
					}
					set_country_flag = air_defense_focus_built_max
				}
			}
		}
	}
	focus = {
		id = radar_focus
		prerequisite = { focus = air_defense_focus }
		icon = GFX_goal_generic_radar
		x = 0
		y = 1
		relative_position_id = air_defense_focus
		cost = 5
		ai_will_do = {
			factor = 1
		}

		available_if_capitulated = yes
		search_filters = {FOCUS_FILTER_RESEARCH}
		completion_reward = {
			add_tech_bonus = {
				name = radar_focus
				bonus = 1.0
				uses = 3
				category = radar_tech
			}
		}
	}
	focus = {
		id = tizard_mission_focus
		available = {				
		
		} 
		prerequisite = { focus = radar_focus }
		icon = GFX_goal_generic_scientific_exchange
		x = 0
		y =1
		relative_position_id = radar_focus
		cost = 5
		ai_will_do = {
			factor = 1
		}
		search_filters = {FOCUS_FILTER_RESEARCH}	
		completion_reward = {
			add_tech_bonus = {
				name = maud_focus
				bonus = 1.0
				uses = 1
				category = nuclear
			}
		
		}
	}
	focus = {
		id = maud_focus
		available = {  }
		prerequisite = { focus = tizard_mission_focus }
		icon = GFX_focus_wonderweapons
		x = 0
		y = 1
		relative_position_id = tizard_mission_focus
		cost = 5
		ai_will_do = {
			factor = 1
		}

		available_if_capitulated = yes
		search_filters = {FOCUS_FILTER_RESEARCH}
		completion_reward = {
			add_tech_bonus = {
				name = maud_focus
				bonus = 1.0
				uses = 1
				category = nuclear
			}
		}
	}
	
	
	
	focus = {
		id = ENG_motorized_focus
		prerequisite = { focus = limited_rearmament_focus }
		available = { 			
		}
		icon = GFX_goal_generic_army_motorized
		x = 6
		y = 1
		relative_position_id = limited_rearmament_focus
		cost = 5
		ai_will_do = {
			factor = 1
		}

		available_if_capitulated = yes
		search_filters = {FOCUS_FILTER_RESEARCH}
		completion_reward = {
			add_tech_bonus = {
				name = armor_bonus
				bonus = 1.0
				uses = 1
				category = motorized_equipment
			}
			set_technology = { armored_car_at_upgrade = 1 }
		}
	}
	focus = {
		id = "The British armored corps"
		prerequisite = { focus = limited_rearmament_focus }
		icon = GFX_ENG_queen_of_the_desert
		x = 8
		y = 1
		relative_position_id = limited_rearmament_focus
		cost = 5
		ai_will_do = {
			factor = 1
		}
		search_filters = {FOCUS_FILTER_RESEARCH}
		available_if_capitulated = yes
		
		completion_reward = {
			hidden_effect = {country_event = { id = bhutan.7 }}
			add_tech_bonus = {
				name = armor_bonus
				bonus = 1.0
				uses = 1
				technology = basic_medium_tank
				technology = basic_heavy_tank
			}
			add_tech_bonus = {
				name = armor_bonus
				bonus = 1.0
				uses = 1
				technology = improved_medium_tank
				technology = improved_heavy_tank
			}
			add_tech_bonus = {
				name = armor_bonus
				bonus = 1.0
				uses = 1
				technology = advanced_medium_tank
				technology = advanced_heavy_tank
			}
			add_tech_bonus = {
				name = armor_bonus
				bonus = 2
				uses = 1
				technology = advanced_light_tank
			}
		}
	}

	focus = {
		id = "Learn from Africa"
		prerequisite = { focus = ENG_motorized_focus focus = "The British armored corps" }
		icon = GFX_ENG_western_desert_force
		x = -1
		y = 1
		relative_position_id = "The British armored corps"
		cost = 5
		ai_will_do = {
			factor = 1
		}

		available = {date > 1941.1.1}
		search_filters = {FOCUS_FILTER_RESEARCH}
		available_if_capitulated = yes
		
		completion_reward = {			
			create_field_marshal = {
				name = "Bernard Montgomery" # Aristocrat
				id = 996
				picture = "Portrait_Britain_Bernard_Montgomery.dds"
				traits = {  trickster brilliant_strategist panzer_leader panzer_expert logistics_wizard desert_fox trait_mountaineer expert_improviser thorough_planner aggressive_assaulter}
				skill = 8 
				attack_skill = 7
				defense_skill = 4
				planning_skill = 5
				logistics_skill = 7
			}
		}
	}
	


	
	
	focus = {
		id = shadow_scheme_focus
		prerequisite = { focus = limited_rearmament_focus }
		available = {
		}

		continue_if_invalid = yes
		available_if_capitulated = yes
		
		icon = GFX_goal_generic_construct_mil_factory
		x = -8
		y = 1
		relative_position_id = limited_rearmament_focus
		cost = 5
		ai_will_do = {
			factor = 1
		}
		search_filters = {FOCUS_FILTER_INDUSTRY}	
		completion_reward = {
			126 = {
				add_extra_state_shared_building_slots = 12
				add_building_construction = {
					type = arms_factory
					level = 12
					instant_build = yes
				}
			}
			
			
			
		}
	}

	focus = {
		id = uk_industrial_focus
		text = industrial_effort
		prerequisite = { focus = shadow_scheme_focus }
		icon = GFX_goal_generic_construct_civ_factory
		x = 0
		y = 1
		relative_position_id = shadow_scheme_focus
		cost = 5
		ai_will_do = {
			factor = 1
		}	

		available_if_capitulated = yes
		search_filters = {FOCUS_FILTER_INDUSTRY}
		completion_reward = {
			add_tech_bonus = {
				name = industrial_bonus
				bonus = 1.0
				uses = 2
				technology = assembly_line_production
				technology = streamlined_line
				technology = flexible_line
			}
			add_tech_bonus = {
				name = ship_tools
				bonus = 1.0
				uses = 2
				category = ship_tools
			}
		}
	}

	focus = {
		id = uk_extra_tech_slot
		text = extra_tech_slot
		icon = GFX_focus_research
		prerequisite = { focus = uk_industrial_focus }
		x = 0
		y = 1
		relative_position_id = uk_industrial_focus
		cost = 5

		available_if_capitulated = yes
		search_filters = {FOCUS_FILTER_RESEARCH}
		completion_reward = {
			add_research_slot = 1
		}
	}
	
	focus = {
		id = general_rearmament_focus
		prerequisite = { focus = limited_rearmament_focus }
		
		

		continue_if_invalid = yes

		icon = GFX_goal_generic_consumer_goods
		x = 0
		y = 1
		relative_position_id = limited_rearmament_focus
		cost = 10
		ai_will_do = {
			factor = 1
		}
		search_filters = {FOCUS_FILTER_INDUSTRY}	
		completion_reward = {
			add_war_support = 0.15
		}
	}

	focus = {
		id = "We took Einstein"
		icon = GFX_focus_research
		prerequisite = { focus = general_rearmament_focus }
		x = -4
		y = 1
		relative_position_id = general_rearmament_focus
		cost = 5
		available = {				
			date > 1940.6.1		
		} 
		available_if_capitulated = yes
		search_filters = {FOCUS_FILTER_RESEARCH}
		completion_reward = {
			add_tech_bonus = {
				name = "Einstein"
				bonus = 1.0
				uses = 1
				category = nuclear
			}
		}
	}

	focus = {
		id = ENG_special_air_service
		prerequisite = { focus = general_rearmament_focus }
		available = { 
			
		}

		continue_if_invalid = yes

		icon = GFX_focus_eng_special_air_service
		x = 2
		y = 1
		relative_position_id = general_rearmament_focus
		cost = 5
		ai_will_do = {
			factor = 1
		}	
		completion_reward = {
			add_ideas = ENG_special_air_service_idea
			custom_effect_tooltip = available_political_advisor
			show_ideas_tooltip = ENG_david_stirling
		}
	}

	focus = {
		id = ENG_focus_army_training
		text = "Army Training"
		prerequisite = { focus = general_rearmament_focus }
		available = { 
			
		}

		continue_if_invalid = yes

		icon = GFX_focus_generic_commonwealth_build_infantry
		x = 4
		y = 1
		relative_position_id = general_rearmament_focus
		cost = 5
		ai_will_do = {
			factor = 1
		}	
		completion_reward = {
			add_tech_bonus = {
				name = land_doctrine
				bonus = 1
				uses = 4
				category = land_doctrine
			}
		}
	}

	focus = {
		id = ENG_focus_arty_bonus
		text = "Long-Range Artillery"
		prerequisite = { focus = ENG_focus_army_training }
		available = { 
			
		}

		continue_if_invalid = yes

		icon = GFX_goal_generic_army_artillery
		x = 0
		y = 1
		relative_position_id = ENG_focus_army_training
		cost = 5
		ai_will_do = {
			factor = 1
		}	
		completion_reward = {
			add_tech_bonus = {
				name = arty_bonus
				bonus = 1.0
				uses = 2
				technology = artillery3
				technology = artillery4
			}
			add_tech_bonus = {
				name = UK_secret_focus
				bonus = 0.5
				uses = 4
				category = rocketry
			}
		}
	}

	focus = {
		id = ENG_focus_at_bonus
		text = "17-Pounder AT Gun"
		prerequisite = { focus = ENG_focus_army_training }
		available = { 
			
		}

		continue_if_invalid = yes

		icon = GFX_goal_generic_army_artillery2
		x = 2
		y = 1
		relative_position_id = ENG_focus_army_training
		cost = 5
		ai_will_do = {
			factor = 1
		}	
		completion_reward = {
			add_tech_bonus = {
				name = arty_bonus
				bonus = 0.75
				uses = 4
				technology = antitank2
				technology = antitank3
				technology = antitank4
				technology = antitank5
			}
		}
	}
	focus = {
		id = uk_amphibious_focus
		prerequisite = { focus = ENG_special_air_service }
		icon = GFX_goal_generic_amphibious_assault
		x = 0
		y = 1
		relative_position_id = ENG_special_air_service
		cost = 5
		ai_will_do = {
			factor = 1
		}

		available_if_capitulated = yes	
		search_filters = {FOCUS_FILTER_RESEARCH}
		completion_reward = {
			add_tech_bonus = {
				name = uk_amphibious_focus
				bonus = 1.0
				uses = 1
				category = marine_tech
			}
			add_tech_bonus = {
				name = uk_amphibious_focus
				bonus = 1.0
				uses = 2
				category = tp_tech
			}
		}
	}


	focus = {
		id = "Royal Ordinance"
		available = {
				date > 1938.1.1
			}
		#at war with major or ger in rhineland or high threat
		prerequisite = { focus = uk_extra_tech_slot }
		icon = GFX_goal_generic_construct_mil_factory
		x = 0
		y = 1
		relative_position_id = uk_extra_tech_slot
		cost = 5
		ai_will_do = {
			factor = 1
		}

		continue_if_invalid = yes

		bypass = {
			
		}

		search_filters = {FOCUS_FILTER_INDUSTRY}
		completion_reward = {
			add_ideas = british_austerity_idea
			custom_effect_tooltip = ENG_mills_bei_minor_annex
			if = {
				limit = {
					UAC = {
						country_exists = THIS
					}
					AST = {
						country_exists = THIS
					}
				}
				122 = {
					add_extra_state_shared_building_slots = 34
					add_building_construction = {
						type = arms_factory
						level = 34
						instant_build = yes
					}
				}
			}

			else_if = {
				limit = {
					UAC = {
						country_exists = THIS
					}
				}
				122 = {
					add_extra_state_shared_building_slots = 24
					add_building_construction = {
						type = arms_factory
						level = 24
						instant_build = yes
					}
					set_state_flag = royal_ordinance_focus_2AF
				}
			}

			else_if = {
				limit = {
					AST = {
						country_exists = THIS
					}
				}
				122 = {
					add_extra_state_shared_building_slots = 24
					add_building_construction = {
						type = arms_factory
						level = 24
						instant_build = yes
					}
					set_state_flag = royal_ordinance_focus_2AF
				}
			}
			
			else = {
				122 = {
					add_extra_state_shared_building_slots = 6
					add_building_construction = {
						type = arms_factory
						level = 6
						instant_build = yes
					}
				}
			}
		}
	}
	
	focus = {
		id = uk_small_arms_focus
		prerequisite = { focus = ENG_focus_army_training }
		icon = GFX_goal_generic_production2
		x = 1
		y = 2
		relative_position_id = ENG_focus_army_training
		cost = 5
		ai_will_do = {
			factor = 1
		}

		available_if_capitulated = yes
		search_filters = {FOCUS_FILTER_INDUSTRY}
		completion_reward = {
			add_ideas = british_arms_discount
			add_tech_bonus = {
				name = UK_secret_focus
				bonus = 1.0
				uses = 1
				technology = advanced_infantry_weapons
			}
		}
	}
	focus = {
		id = UK_secret_focus
		prerequisite = { focus = "Royal Ordinance" focus = maud_focus }
	
		icon = GFX_goal_generic_secret_weapon
		x = -1
		y = 1
		relative_position_id = "Royal Ordinance"
		cost = 5
		ai_will_do = {
			factor = 1
		}

		available_if_capitulated = yes
		search_filters = {FOCUS_FILTER_RESEARCH}
		completion_reward = {
			add_tech_bonus = {
				name = UK_secret_focus
				bonus = 1.0
				uses = 2
				category = electronics
			}
			
			add_tech_bonus = {
				name = UK_secret_focus
				bonus = 1.0
				uses = 1
				category = nuclear
			}
		}
	}
	focus = {
		id = air_rearmament_focus
		prerequisite = { focus = general_rearmament_focus }
		icon = GFX_goal_generic_air_doctrine
		x = -2
		y = 1
		relative_position_id = general_rearmament_focus
		cost = 5
		ai_will_do = {
			factor = 3
		}
		available = {	OR = { threat > 0.1 date > 1938.1.1 }	}
		complete_tooltip = {

		}

		completion_reward = {
		if = { limit = { NOT = { has_idea = supermarine }} add_ideas = supermarine add_political_power = -50  }
		set_technology = { fighter2 = 1 }
			hidden_effect = {
				ENG = {
					add_equipment_production = {
						equipment = {
							type = fighter_equipment_2
						}		
						requested_factories = 150
						amount = 0
					}
				}
			}
		}
	}

	focus = {
		id = "Air Rearmament II"
		prerequisite = { focus = air_rearmament_focus }
		icon = GFX_goal_generic_air_doctrine
		x = -2
		y = 2
		relative_position_id = general_rearmament_focus
		cost = 1
		ai_will_do = {
			factor = 3
		}
		available = {				
			date > 1941.1.1		
		} 

		completion_reward = {
			if = { limit = { NOT = { has_idea = supermarine }} add_ideas = supermarine add_political_power = -50  }
		set_technology = { fighter3 = 1 }
		}
	}

	focus = {
		id = ENG_chiefs_of_staff_committee
		prerequisite = { focus = general_rearmament_focus }
		
		
		available = { 
			
		}

		continue_if_invalid = yes

		icon = GFX_focus_eng_chiefs_of_staff_committee
		x = 2
		y = 0
		relative_position_id = air_rearmament_focus
		cost = 5
		ai_will_do = {
			factor = 1
		}	
		completion_reward = {
			add_ideas = ENG_chiefs_of_staff_committee_idea
		}
	}


	focus = {
		id = bomber_command_focus
		prerequisite = { focus = air_rearmament_focus }
		icon = GFX_goal_generic_air_bomber
		x = 2
		y = 1
		relative_position_id = air_rearmament_focus
		cost = 5
		ai_will_do = {
			factor = 1
		}

		available_if_capitulated = yes
		search_filters = {FOCUS_FILTER_RESEARCH}
		completion_reward = {
			add_tech_bonus = {
				name = bomber_command_focus
				bonus = 1.0
				uses = 2
				category = tactical_bomber
			}
			
		}
	}

	focus = {
		id = "Buy American Bombers"
		prerequisite = { focus = bomber_command_focus }
		mutually_exclusive = { focus = "Mass produce our own Bombers" }
		icon = GFX_focus_chi_mission_to_the_us
		x = 1
		y = 2
		relative_position_id = air_rearmament_focus
		cost = 5
		ai_will_do = {
			factor = 1
		}
		available = {				
			date > 1940.6.1		
		} 

		available_if_capitulated = yes
		search_filters = {FOCUS_FILTER_RESEARCH}
		completion_reward = { 
			add_ideas = ENG_american_bombers
		}
	}

	focus = {
		id = "Mass produce our own Bombers"
		prerequisite = { focus = bomber_command_focus }
		mutually_exclusive = { focus = "Buy American Bombers" }
		icon = GFX_focus_usa_escort_fighters
		x = 3
		y = 2
		relative_position_id = air_rearmament_focus
		cost = 5
		ai_will_do = {
			factor = 1
		}
		available = {				
			date > 1940.6.1		
		} 

		available_if_capitulated = yes
		search_filters = {FOCUS_FILTER_RESEARCH}
		completion_reward = {
			add_ideas = ENG_bombers_mass_production
		}
	}

	
	focus = {
		id = aircraft_production_focus
		prerequisite = {  focus = air_rearmament_focus }
		icon = GFX_goal_generic_air_production
		x = -4
		y = 0
		relative_position_id = bomber_command_focus
		cost = 5
		ai_will_do = {
			factor = 3
		}

		available_if_capitulated = yes
		search_filters = {FOCUS_FILTER_INDUSTRY}
		completion_reward = {
			custom_effect_tooltip = annex_ast_tt
			if = {
				limit = {
					AST = {
						has_country_flag = ast_annex
					}
				}
				add_ideas = CAN_the_plan
				else = {
					add_ideas = CAN_the_plan2
				}
			}
			
		}
	}	
	focus = {
		id = UK_focus_cas
		text = "Hawker Typhoon"
		prerequisite = {  focus = air_rearmament_focus }
		icon = GFX_goal_generic_CAS
		x = -6
		y = 0
		relative_position_id = bomber_command_focus
		cost = 5
		ai_will_do = {
			factor = 3
		}

		available_if_capitulated = yes
		search_filters = {FOCUS_FILTER_INDUSTRY}
		completion_reward = {
			add_tech_bonus = {
				name = bomber_command_focus
				bonus = 3.0
				uses = 1
				category = cas_bomber
			}
			add_tech_bonus = {
				name = bomber_command_focus
				bonus = 1.0
				uses = 1
				category = cas_bomber
			}
			
		}
	}	
	focus = {
		id = uk_empire_focus 
		available = {
		} 
		icon = GFX_focus_eng_imperial_federation
		x = 22
		y = 0

		cost = 5
			

		available_if_capitulated = yes
		search_filters = {FOCUS_FILTER_POLITICAL}
		completion_reward = {
			add_stability = 0.1
			
		}
	}


	focus = {
		id = uk_service_focus 
		prerequisite = { focus = uk_empire_focus }
		available = {
			
		} 
		icon = GFX_goal_generic_position_armies
		x = 0
		y = 1
		
		relative_position_id = uk_empire_focus
		cost = 5

		available_if_capitulated = yes

		completion_reward = {
			add_ideas = ENG_colonial_elite 
			add_ideas = ENG_service_overseas_idea
		}
	}
	
	focus = {
		id = uk_waves_focus
		icon = GFX_ENG_waves_focus
		x = 6
		y = 5
		cost = 5
		ai_will_do = {
			factor = 1
		}

		available_if_capitulated = yes
		search_filters = {FOCUS_FILTER_RESEARCH}
		completion_reward = {
			add_ideas = electric_boat_company
			add_tech_bonus = {
				name = "Mare Nostrum"
				bonus = 2
				uses = 5
				category = naval_doctrine
			}
			
			
		}

	}

	focus = {
		id = naval_rearmament_focus
		prerequisite = { focus = uk_waves_focus }
		icon = GFX_goal_generic_construct_naval_dockyard 
		x = 0
		y = 1
		relative_position_id = uk_waves_focus
		cost = 5
		ai_will_do = {
			factor = 1
		}

		available_if_capitulated = yes

		bypass = {
			
		}

		complete_tooltip = {
			126 = {
				add_extra_state_shared_building_slots = 5
				add_building_construction = {
					type = dockyard
					level = 5
					instant_build = yes
				}
			}
			
		}

		completion_reward = {
			
			126 = {
				add_extra_state_shared_building_slots = 5
				add_building_construction = {
					type = dockyard
					level = 5
					instant_build = yes
				}
			
				set_state_flag = ENG_naval_rearmament_focus_1dockyard
			}
		}
	}



	focus = {
		id = "Screening Focus"
		prerequisite = { focus = uk_waves_focus }
		icon = GFX_goal_generic_navy_cruiser
		x = -3
		y = 1
		relative_position_id = uk_waves_focus
		cost = 5
		ai_will_do = {
			factor = 1
		}
 
		available_if_capitulated = yes
		search_filters = {FOCUS_FILTER_RESEARCH}
		completion_reward = {
			add_ideas = ENG_screening_focus
		}
	}

	focus = {
		id = "Destroyer Modernization"
		prerequisite = { focus = "Screening Focus" }
		icon = GFX_focus_generic_destroyer
		x = -2
		y = 2
		relative_position_id = uk_waves_focus
		cost = 5
		ai_will_do = {
			factor = 1
		}

		available_if_capitulated = yes
		search_filters = {FOCUS_FILTER_RESEARCH}
		completion_reward = {
			add_tech_bonus = {
				name = dd_bonus
				bonus = 1.0
				uses = 1
				category = dd_tech
			}
			add_tech_bonus = {
				name = dd_bonus
				bonus = 0.5
				uses = 1
				category = light_gun
			}
		}
	}

	focus = {
		id = "Anti-Submarine Warfare"
		prerequisite = { focus = "Destroyer Modernization" }
		icon = GFX_goal_generic_navy_anti_submarine
		x = -3
		y = 3
		relative_position_id = uk_waves_focus
		cost = 5
		ai_will_do = {
			factor = 1
		}

		available_if_capitulated = yes
		search_filters = {FOCUS_FILTER_RESEARCH}
		completion_reward = {
			add_tech_bonus = {
				name = "Anti Submarine Research"
				bonus = 1.0
				uses = 3
				technology = improved_sonar
				technology = improved_depth_charges
				technology = advanced_depth_charges
			}
		}
	}

	focus = {
		id = "Cruiser Modernization"
		prerequisite = { focus = "Screening Focus" }
		icon = GFX_focus_generic_cruiser2
		x = -4
		y = 2
		relative_position_id = uk_waves_focus
		cost = 5
		ai_will_do = {
			factor = 1
		}

		available_if_capitulated = yes
		search_filters = {FOCUS_FILTER_RESEARCH}
		completion_reward = {
			add_tech_bonus = {
				name = cr_bonus
				bonus = 1.0
				uses = 2
				category = cl_tech
				category = ca_tech
			}
			
		}
	}

	focus = {
		id = UK_focus_cruiser_equipment
		text = "Improved Cruiser Armaments"
		prerequisite = { focus = "Cruiser Modernization" }
		icon = GFX_focus_generic_cruiser2
		x = -4
		y = 4
		relative_position_id = uk_waves_focus
		cost = 5
		ai_will_do = {
			factor = 1
		}

		available_if_capitulated = yes
		search_filters = {FOCUS_FILTER_RESEARCH}
		completion_reward = {
			add_tech_bonus = {
				name = cr_bonus
				bonus = 0.5
				uses = 2
				category = cruiser_gun
				category = cl_armor
			}
			
		}
	}

	focus = {
		id = "Capital Ship Focus"
		prerequisite = { focus = uk_waves_focus }
		icon = GFX_goal_generic_navy_doctrines_tactics
		x = 3
		y = 1
		relative_position_id = uk_waves_focus
		cost = 5
		ai_will_do = {
			factor = 1
		}

		available_if_capitulated = yes
		search_filters = {FOCUS_FILTER_RESEARCH}
		completion_reward = {
			add_ideas = ENG_capital_ship_focus
		}
	}

	
	focus = {
		id = "Carrier Modernization"
		prerequisite = { focus = "Capital Ship Focus" }
		icon = GFX_goal_generic_navy_carrier
		x = -1
		y = 1
		relative_position_id = "Capital Ship Focus"
		cost = 5
		ai_will_do = {
			factor = 0.25
		}

		available_if_capitulated = yes
		search_filters = {FOCUS_FILTER_RESEARCH}
		completion_reward = {
			add_tech_bonus = {
				name = cv_bonus
				bonus = 3.0
				uses = 1
				category = cv_tech
			}
			add_tech_bonus = {
				name = cv_bonus
				bonus = 1.0
				uses = 1
				category = cv_tech
			}
		}
	}
	focus = {
		id = "Battleship Modernization"
		prerequisite = { focus = "Capital Ship Focus" }
		icon = GFX_goal_generic_navy_battleship
		x = 1
		y = 1
		relative_position_id = "Capital Ship Focus"
		cost = 5
		ai_will_do = {
			factor = 1
		}

		available_if_capitulated = yes
		search_filters = {FOCUS_FILTER_RESEARCH}
		completion_reward = {
			add_tech_bonus = {
				name = bb_bonus
				bonus = 1.0
				uses = 2
				category = bb_tech
			}
			
		}
	}

	focus = {
		id = UK_focus_bb_equipment
		text = "Modernize Battleship Modules"
		prerequisite = { focus = "Battleship Modernization" }
		icon = GFX_goal_generic_navy_battleship
		x = 1
		y = 3
		relative_position_id = "Capital Ship Focus"
		cost = 5
		ai_will_do = {
			factor = 1
		}

		available_if_capitulated = yes
		search_filters = {FOCUS_FILTER_RESEARCH}
		completion_reward = {
			add_tech_bonus = {
				name = bb_bonus
				bonus = 0.5
				uses = 2
				category = bb_armor
				category = bb_gun
			}
		}
	}

	focus = {
		id = coastal_command_focus
		prerequisite = { focus = "Carrier Modernization" }
		icon = GFX_goal_generic_air_naval_bomber
		x = 1
		y = 1
		relative_position_id = "Carrier Modernization"
		cost = 5
		ai_will_do = {
			factor = 1
		}

		available_if_capitulated = yes
		search_filters = {FOCUS_FILTER_RESEARCH}
		completion_reward = {
			add_tech_bonus = {
				name = coastal_command_focus
				bonus = 1.0
				uses = 2
				category = naval_bomber
			}
		}
	}
	

	focus = {
		id = "Force the Arms Race"
		prerequisite = { focus = naval_rearmament_focus }
		icon = GFX_goal_generic_production
		x = 0
		y = 2
		relative_position_id = uk_waves_focus
		cost = 5
		ai_will_do = {
			factor = 1
		}

		available_if_capitulated = yes

		complete_tooltip = {
			
		}

		completion_reward = {
			126 = {
				add_extra_state_shared_building_slots = 10
				add_building_construction = {
					type = dockyard
					level = 10
					instant_build = yes

				}
			}
			add_ideas = ENG_expand_the_repair_yards
			
		}
	}

	focus = {
		id = "Face the Italian Threat"
		prerequisite = { focus = "Focus on Quality" focus = "Focus on Quantity" }
		mutually_exclusive = { focus = "Focus on the Kriegsmarine" }
		icon = GFX_focus_generic_adriatic_sea_focus
		x = -1
		y = 4
		relative_position_id = uk_waves_focus
		cost = 5
		ai_will_do = {
			factor = 1
		}

		available_if_capitulated = yes

		complete_tooltip = {
			
		}

		completion_reward = {
			add_ideas = ENG_face_the_italian_threat
			add_tech_bonus = {
				name = "Super Heavy"
				bonus = 1
				uses = 1
				category = shbb_tech
			}
		}
	}

	focus = {
		id = "Focus on the Kriegsmarine"
		prerequisite = { focus = "Focus on Quality" focus = "Focus on Quantity" }
		mutually_exclusive = { focus = "Face the Italian Threat" }
		icon = GFX_focus_ger_accept_british_naval_dominance
		x = 1
		y = 4
		relative_position_id = uk_waves_focus
		cost = 5
		ai_will_do = {
			factor = 1
		}

		available_if_capitulated = yes

		complete_tooltip = {
			
		}

		completion_reward = {
			add_ideas = ENG_focus_on_the_kriegsmarine
			add_tech_bonus = {
				name = "Super Heavy"
				bonus = 1
				uses = 1
				category = shbb_tech
			}
		}
	}

	focus = {
		id = "Focus on Quality"
		prerequisite = { focus = naval_rearmament_focus }
		icon = GFX_focus_generic_navy_battleship2
		mutually_exclusive = { focus = "Focus on Quantity" }
		x = -1
		y = 3
		relative_position_id = uk_waves_focus
		cost = 5
		ai_will_do = {
			factor = 1
		}

		available_if_capitulated = yes

		complete_tooltip = {
			
		}

		completion_reward = {
			add_ideas = ENG_focus_on_quality
		}
	}

	focus = { 
		id = "Focus on Quantity"
		prerequisite = { focus = naval_rearmament_focus }
		icon = GFX_goal_generic_production
		mutually_exclusive = { focus = "Focus on Quality" }
		x = 1
		y = 3
		relative_position_id = uk_waves_focus
		cost = 5
		ai_will_do = {
			factor = 1
		}

		available_if_capitulated = yes

		complete_tooltip = {
			
		}

		completion_reward = {
			add_ideas = ENG_focus_on_quantity
		}
	}

	
	
	#focus = {
	#	id = uk_embargo_focus
	#	available = { threat > 0.1 }
	#	icon = GFX_goal_support_democracy
	#	x = 12
	#	y = 0
	#	cost = 10
	#	ai_will_do = {
	#		factor = 1
	#	}	
	#	completion_reward = {
	#		every_other_country = {
	#			limit = { NOT = { has_government = democratic } }
	#			add_opinion_modifier = { target = ENG modifier = minor_sanctions }
	#			add_opinion_modifier = { target = ENG modifier = minor_sanctions_relations } 
	#		}
	#	}
	#}

	### EMPIRE ###

	
	
	focus = {
		id = uk_mediterranean_focus 
		prerequisite = { focus = uk_colonial_focus focus = UK_focus_desertroad }
		available = {
			447 = {
				CONTROLLER = {
					OR = {
						tag = ENG
						is_subject_of = ENG
					}
				}
			}
		} 
		icon = GFX_goal_generic_construct_military
		x = 1
		y = 2
		relative_position_id = uk_service_focus
		cost = 5
		completion_reward = {
			add_timed_idea = {
				idea = ENG_fortify_the_empire_1
				days = 120
			}
		}	
	}


	

	### END OF DECOLONIZATION ###
	
	focus = {
		id = uk_colonial_focus 
		prerequisite = { focus = uk_service_focus }
		mutually_exclusive = {
			focus = UK_focus_desertroad
		}
		icon = GFX_focus_eng_global_defense
		x = 1
		y = 1
		relative_position_id = uk_service_focus
		cost = 5

		available_if_capitulated = yes
		search_filters = {FOCUS_FILTER_RESEARCH}
		completion_reward = {
			539 = {
				add_extra_state_shared_building_slots = 2
				add_building_construction = {
					type = industrial_complex
					level = 1
				}
				add_building_construction = {
					type = arms_factory
					level = 1
				}
			}
			276 = {
				add_extra_state_shared_building_slots = 2
				add_building_construction = {
					type = industrial_complex
					level = 1
				}
				add_building_construction = {
					type = arms_factory
					level = 1
				}
			}
			285 = {
				add_extra_state_shared_building_slots = 2
				add_building_construction = {
					type = industrial_complex
					level = 1
				}
				add_building_construction = {
					type = arms_factory
					level = 1
				}
			}
			549 = {
				add_extra_state_shared_building_slots = 2
				add_building_construction = {
					type = industrial_complex
					level = 1
				}
				add_building_construction = {
					type = arms_factory
					level = 1
				}
			}
		}
	}

	focus = {
		id = UK_focus_desertroad
		text = "Construct the DesertRoad" 
		mutually_exclusive = {
			focus = uk_colonial_focus
		}
		prerequisite = { focus = uk_service_focus }
		icon = GFX_focus_generic_africa_infrastructure
		x = -1
		y = 1
		relative_position_id = uk_service_focus
		cost = 5

		available_if_capitulated = yes
		search_filters = {FOCUS_FILTER_RESEARCH}
		completion_reward = {
			126 = {
				add_extra_state_shared_building_slots = 8
				add_building_construction = {
					type = industrial_complex
					level = 1
				}
				add_building_construction = {
					type = arms_factory
					level = 1
				}
				add_building_construction = {
					type = dockyard
					level = 6
				}
				add_building_construction = {
					type = infrastructure
					level = 1
				}
			}
		}
	}

	focus = {
		id = uk_asia_focus 
		prerequisite = { focus = uk_colonial_focus focus = UK_focus_desertroad }
		
		available = {
			
		}

		icon = GFX_goal_generic_construct_civilian
		x = -2
		y = 1
		relative_position_id = uk_colonial_focus
		cost = 5

		available_if_capitulated = yes

		bypass = {
			
		}
		search_filters = {FOCUS_FILTER_INDUSTRY}
		completion_reward = {
			326 = {
				add_extra_state_shared_building_slots = 2
				add_building_construction = {
						type = industrial_complex
						level = 2
						instant_build = yes
				}
			}
		}
	}
	
	

	focus = {
		id = ENG_imperial_conference
		prerequisite = { focus = uk_colonial_focus focus = UK_focus_desertroad }

		available = {

		}

		continue_if_invalid = no

		icon = GFX_ENG_imperial_conference

		x = -1
		y =2 
		relative_position_id = uk_colonial_focus

		cost = 10
		ai_will_do = {
			factor = 1
			#modifier = {
			#	factor = 0
			#}
		}
		search_filters = {FOCUS_FILTER_POLITICAL}	
		completion_reward = {
			add_political_power = 120
			ENG = { add_timed_idea = { idea = ENG_imperial_conference_defense_dominion days = 365 } add_timed_idea = { idea = ENG_imperial_conference_economy_dominion days = 365 } }
			
	}
	}


	### DEMOCRATIC BRANCH - STEADY AS SHE GOES ###

	focus = {
		id = ENG_steady_as_she_goes
		available = { 
			if = {
				limit = {
					NOT = { has_country_flag = ENG_abdication_crisis_changed_mind }
		}
				NOT = { has_country_flag = edward_viii_refused_to_abdicate_flag }
			}
		}

		cancel_if_invalid = yes

		icon = GFX_goal_support_democracy

		x = 26
		y = 0
		
		cost = 5
		ai_will_do = {
			factor = 1
			modifier = {
				factor = 0
				OR = {
					has_country_flag = ENG_abdication_crisis_normal_marriage
					has_country_flag = ENG_abdication_crisis_morganatic_marriage
				}
			}
		}
		search_filters = {FOCUS_FILTER_POLITICAL FOCUS_FILTER_STABILITY}	
		completion_reward = {
			add_timed_idea = { idea = ENG_steady_as_she_goes_idea days = 365 }
		}
	}



	### GERMAN WAR ###

	focus = {
		id = ENG_home_defence
		prerequisite = { focus = ENG_steady_as_she_goes }
		icon = GFX_focus_generic_home_defense
		x = 0
		y = 1
		
		relative_position_id = ENG_steady_as_she_goes
		cost = 5
		ai_will_do = {
			factor = 1
		}
		search_filters = {FOCUS_FILTER_WAR_SUPPORT}	
		completion_reward = {
			add_war_support = 0.05
			# Ipswich
			125 = {
				if = {
					limit = { is_controlled_by = ROOT }
					#Plymouth
					add_building_construction = {
						type = coastal_bunker
						level = 2
						province = 271
						instant_build = yes
					}
				}
			}
			# Greater London Area
			126 = {
				if = {
					limit = { is_controlled_by = ROOT }
					#London
					add_building_construction = {
						type = coastal_bunker
						level = 2
						province = 11374
						instant_build = yes
					}
				}
			}
			# Sussex
			127 = {
				if = {
					limit = { is_controlled_by = ROOT }
					#Dover
					add_building_construction = {
						type = coastal_bunker
						level = 2
						province = 3501
						instant_build = yes
					}
					#Portsmouth
					add_building_construction = {
						type = coastal_bunker
						level = 2
						province = 9458
						instant_build = yes
					}
				}								
			}
			# Cornwall
			123 = {
				if = {
					limit = { is_controlled_by = ROOT }
					#Plymouth
					add_building_construction = {
						type = coastal_bunker
						level = 2
						province = 540
						instant_build = yes
					}
				}
			}
		}
	}

	

	focus = {
		id = ENG_issue_gasmasks
		available = {
			OR = {
				threat > 0.2
				has_war = yes
			}
		}

		available_if_capitulated = yes

		prerequisite = { focus = ENG_home_defence }
		icon = GFX_goal_generic_construct_military
		x = 1
		y = 1
		
		relative_position_id = ENG_home_defence
		cost = 5
		ai_will_do = {
			factor = 1
		}
		search_filters = {FOCUS_FILTER_WAR_SUPPORT FOCUS_FILTER_STABILITY}	
		completion_reward = {
			add_war_support = 0.05
			add_stability = 0.1
		}
	}

	focus = {
		id = ENG_prepare_for_the_inevitable
		available = {

		}		
		prerequisite = { focus = ENG_home_defence }

		icon = GFX_goal_generic_construction

		x = -1
		y = 1

		relative_position_id = ENG_home_defence
		cost = 5
		ai_will_do = {
			factor = 1
		}
		search_filters = {FOCUS_FILTER_INDUSTRY}	
		completion_reward = {
			add_ideas = ENG_prepare_for_the_inevitable_idea
		}
	}

	focus = {
		id = "War of Survival"
		available = { has_war = yes
		} 
		icon = GFX_focus_attack_germany
		prerequisite = {
			focus = ENG_imperial_conference
		}
		relative_position_id = ENG_imperial_conference
		x = 0
		y = 1

		cost = 5
			

		available_if_capitulated = yes
		search_filters = {FOCUS_FILTER_POLITICAL}
		completion_reward = {
			remove_ideas = ENG_the_war_to_end_all_wars
		}
	}

	focus = {
		id = "Evacuation of Dunkerque"
		available = {
		} 
		bypass = {
			date > 1940.6.1
		}
		prerequisite = { focus = "War of Survival" }
		mutually_exclusive = {
			focus = "Operation Compass"
		}
		icon = GFX_goal_generic_navy_cruiser
		x = -1
		y = 1

		cost = 0
			
		relative_position_id = "War of Survival"
		available_if_capitulated = yes 
		search_filters = {FOCUS_FILTER_POLITICAL}
		completion_reward = {
			add_manpower = 300000
			add_timed_idea = {
				idea = ENG_evacuation_of_dunkerque
				days = 250
			} 
		}
	}

	focus = {
		id = ENG_focus_US_LL
		text = "American Aid"
		available = {
			AND = {
				SOV = {
					has_war = yes
				} 
				date > 1941.6.22
			}
			
		} 
		prerequisite = { focus = "Evacuation of Dunkerque" focus = "Operation Compass" }
		icon = GFX_focus_chi_mission_to_the_us
		x = 1
		y = 1

		cost = 0
			
		relative_position_id = "Evacuation of Dunkerque"
		available_if_capitulated = yes 
		search_filters = {FOCUS_FILTER_POLITICAL}
		completion_reward = {
			#add_ideas = ENG_air_production 
			every_country = {
				limit = {
					is_in_faction_with = ENG
				}
				add_ideas = tot_economic_mobilisation
			}
		}
	}

	focus = {
		id = "Operation Compass"
		available = {
		} 
		bypass = {
			date > 1940.6.1
		}
		prerequisite = { focus = "War of Survival" }
		mutually_exclusive = {
			focus = "Evacuation of Dunkerque"
		}
		icon = GFX_goal_generic_occupy_states_ongoing_war
		x = 1
		y = 1

		cost = 0
			
		relative_position_id = "War of Survival"
		available_if_capitulated = yes
		search_filters = {FOCUS_FILTER_POLITICAL}
		completion_reward = {
			custom_effect_tooltip = compass_text
			hidden_effect = {
				BHU = { country_event = news.6001 }
				every_state = {
					limit={OR={state=663 state=451 state=450 state=662 state=449 state=661 state=448 state=665 state=458 state=452 state=447 state=446 }}
					add_dynamic_modifier = { modifier = statsdigga days=90  }
				}
			}	
			every_country = {
				limit = {
					NOT = {
						tag = FRA
					}
					is_in_faction_with = ENG
				}
				add_timed_idea = {
					idea = ENG_compass
					days = 90
				}
			}
		}
	}

	focus = {
		id = ENG_focus_gibraltar_lost
		text = "Focus on Naval Supremacy"
		available = {
			any_country = {
				is_in_faction_with = ITA
				controls_state = 118		
			}
		} 
		bypass = {
			
		}
		prerequisite = { focus = "War of Survival" }
		mutually_exclusive = {
			focus = ENG_focus_retake_gibraltar
		}
		icon = GFX_goal_generic_navy_battleship
		x = 3
		y = 1

		cost = 3
			
		relative_position_id = "War of Survival"
		available_if_capitulated = yes
		search_filters = {FOCUS_FILTER_POLITICAL}
		completion_reward = {
			custom_effect_tooltip = "The mighty italian fleet is a huge threat to the safety of our homeland. We have to act quickly..."
			126 = {
				add_extra_state_shared_building_slots = 30
				add_building_construction = {
					type = dockyard
					level = 30
					instant_build = yes
				}
				add_resource = {
					type = rubber
					amount = 300
				}
			}
			every_state = {
				limit = {
					is_coastal = yes
					is_core_of = ENG
				}
				add_extra_state_shared_building_slots = 1
			}
			add_timed_idea = {
				idea = ENG_gibraltar_lost
				days = 200
			}
			add_equipment_to_stockpile = {
				type = convoy
			
				amount = 1000
			
			}
		}
	}

	focus = {
		id = ENG_focus_retake_gibraltar
		text = "Retake The Mediterranean"
		available = {
			any_country = {
				is_in_faction_with = ITA
				controls_state = 118		
			}
		} 
		bypass = {
			
		}
		prerequisite = { focus = "War of Survival" }
		mutually_exclusive = {
			focus = ENG_focus_gibraltar_lost
		}
		icon = GFX_goal_generic_occupy_states_ongoing_war
		x = 5
		y = 1

		cost = 3
			
		relative_position_id = "War of Survival"
		available_if_capitulated = yes
		search_filters = {FOCUS_FILTER_POLITICAL}
		completion_reward = {
			126 = {
				add_resource = {
					type = rubber
					amount = 300
				}
			}
			custom_effect_tooltip = gibraltar_retake_tt_1
			118 = {
				add_dynamic_modifier = { modifier = Gibraltar_retake }
				add_core_of = ENG
			}
			461 = {
				add_building_construction = {
					type = air_base
					level = 32
					instant_build = yes
				}
			}
			
			custom_effect_tooltip = gibraltar_retake_tt_2
			add_timed_idea = {
				idea = ENG_production_output 
				days = 200
			}
			add_equipment_to_stockpile = {
				type = convoy
			
				amount = 1000
			
			}
		}
	}

	focus = {
		id = "Operation Husky"
		available = {
			date > 1942.1.1
		} 
		prerequisite = { focus = "Operation Compass" focus = "Evacuation of Dunkerque" }
		
		icon = GFX_focus_attack_italy
		x = 2
		y = 2

		cost = 5
			
		relative_position_id = "War of Survival"
		available_if_capitulated = yes
		search_filters = {FOCUS_FILTER_POLITICAL}
		completion_reward = {
			custom_effect_tooltip = husky_text
			hidden_effect = {
				every_state = {
					limit={OR={state=114 state=1 state=21 state=735 state=158 state=162 state=2 state=117 state=115 state=116 }}
					add_dynamic_modifier = { modifier = HUSKY_attack }
				}
			}	
		}
	}

	focus = {
		id = "Operation Overlord"
		available = {
			date > 1942.1.1
		} 
		prerequisite = { focus = "Operation Compass" focus = "Evacuation of Dunkerque" }
		
		icon = GFX_focus_ger_break_anglo_french_colonial_hegemony
		x = -1
		y = 3
		cost = 5
			
		relative_position_id = "War of Survival"
		available_if_capitulated = yes
		search_filters = {FOCUS_FILTER_POLITICAL}
		completion_reward = {
			custom_effect_tooltip = dday_text
			hidden_effect = {
				every_state = {
					limit={OR={state=806 state=19 state=23 state=30 state=14 state=15 state=785 state=29 state=6 state=35 state=7 state=36 state=56 state=59 state=58 state=99 }}
					add_dynamic_modifier = { modifier = DDAY_attack }
				}
				CAN = {
					transfer_state = 675
					transfer_state = 676
				}
			}	
		}
	}

	focus = {
		id = eng_focus_emergency_dday
		available = { 
			SOV = {
				surrender_progress > 0.45
			}
		} 
		prerequisite = { focus = "Operation Compass" focus = "Evacuation of Dunkerque" }
		
		icon = GFX_focus_ger_break_anglo_french_colonial_hegemony
		x = 1
		y = 3

		cost = 5
			
		relative_position_id = "War of Survival"
		available_if_capitulated = yes
		search_filters = {FOCUS_FILTER_POLITICAL}
		completion_reward = {
			add_timed_idea = {
				idea = ENG_emergency_dday
				days = 40
			}
			hidden_effect = {
				CAN = {
					add_timed_idea = {
						idea = ENG_emergency_dday
						days = 40
					}
				}
				FRA = {
					add_timed_idea = {
						idea = ENG_emergency_dday
						days = 40
					}
				}
				AST = {
					add_timed_idea = {
						idea = ENG_emergency_dday
						days = 40
					}
				}
				UAC = {
					add_timed_idea = {
						idea = ENG_emergency_dday
						days = 40
					}
				}
			}
		}
	}

	focus = {
		id = "Plan R4"
		available = {
			date > 1942.6.1
		} 
		prerequisite = { focus = "Operation Compass" focus = "Evacuation of Dunkerque" }
		
		icon = GFX_goal_generic_territory_or_war
		x = -2
		y = 2
		
		cost = 5
			
		relative_position_id = "War of Survival"
		available_if_capitulated = yes
		search_filters = {FOCUS_FILTER_POLITICAL}
		completion_reward = {
			custom_effect_tooltip = norway_text
			hidden_effect = {
				every_state = {
					limit={OR={state=806 state=19 state=23 state=30 state=14 state=15 state=785 state=29 state=6 state=35 state=7 state=36 state=56 state=59 state=58 state=99 }}
					add_dynamic_modifier = { modifier = NORWAY_attack }
				}
			}	
		}
	}
}
