state= {
	id=122
	name="STATE_122"
	manpower = 2309230
	
	state_category = city
	
	resources={
		steel=13
		#steel=11 # was: 16
		#aluminium=3 # was: 4
	}

	history=
	{
		owner = ENG
		victory_points = { 377 5 }
		buildings = {
			infrastructure = 5
			377 = {
				naval_base = 3
			}
		}
		add_core_of = ENG
	
	}

	provinces=
	{
253 311 377 407 3274 6363 9364 11361 	}
}
