state= {
	id=123
	name="STATE_123"
	manpower = 1221013
	
	state_category = town

	history= {
		owner = ENG
		victory_points = { 540 10 }
		victory_points = { 6526 1 }
		buildings = {
			infrastructure = 7
			industrial_complex = 1
			anti_air_building = 2
			radar_station = 1
			540 = {
				naval_base = 8
			}

		}
		add_core_of = ENG
	
	}

	provinces= {
		540 3422 3463 6526 9562 11406
 	}
}
