
state=
{
	id=134
	name="STATE_134"
	manpower = 667100
	
	state_category = town

	history=
	{
		owner = ENG
		buildings = {
			infrastructure = 6
		}
		add_core_of = ENG
	
	}

	provinces=
	{
337 3396 9255 9303 9321 9369 11238 11287 11371 	}
}
