
state={
	id=135
	name="STATE_135"
	manpower = 941400

	state_category = town

	history={
		owner = ENG
		buildings = {
			infrastructure = 6
			industrial_complex = 3
		}
		victory_points = {
			7394 1 
		}
		add_core_of = ENG

	
	}

	provinces={
		6289 6313 6405 7394 9284 9310 9405 11237 11267 11334 
	}
}
