state = {
	id=182
	name="STATE_182"
	manpower = 387900
	
	state_category = town
	history = {
		owner = GRE
		victory_points = {
			9940 5
		}
		victory_points = {
			12058 3
		}
		buildings = {
			infrastructure = 4
			air_base = 4
			anti_air_building = 3
			12058 = {
				naval_base = 1
			}
			9940 = {
				naval_base = 3
			}
		}
		add_core_of = GRE
		
	}
	provinces = {
		1164 4170 9940 12058
	}
}
