
state={
	id=185
	name="STATE_185"
	manpower = 760900
	
	state_category = rural
	
	resources={
		#chromium=14 # was: 20
		#steel = 14 # was: 20
	}

	history={
		victory_points = {
			10203 1
		}
		victory_points = {
			3914 3
		}
		victory_points = {
			1205 1
		}
		owner = GRE
		buildings = {
			infrastructure = 4
			air_base = 4
			dockyard = 3
			industrial_complex = 1
			arms_factory = 1
			9805 = {
				naval_base = 1
			}
		}
		add_core_of = GRE
		add_extra_state_shared_building_slots = 4
		
	}

	provinces = {
		841 1106 1205 3914 3980 9805 9837 9916 10203 11786 11895 12001 
	}
}
