
state={
	id=201
	name="STATE_201"
	manpower = 1417834
	
	state_category = town

	history={
		victory_points = {
			6593 3
		}
		owner = SOV
		buildings = {
			infrastructure = 5
			air_base = 4
		}
		add_core_of = SOV

						 
		
	}

	provinces={
		441 550 3470 3570 6593 9466 9493 9533 11464 11477 11490 11514 
	}
}
