
state={
	id=210
	name="STATE_210" # Nevel
	manpower = 830133
	
	state_category = rural

	history={
		owner = SOV
		buildings = {
			infrastructure = 5
		}
		add_core_of = SOV
		victory_points = {
			11234 1
		}
		victory_points = {
			3333 1
		}
	}

	provinces={
		207 248 354 387 3333 6242 6293 9254 9331 9353 9386 11234 11259 
	}
}
