
state={
	id=220
	name="STATE_220"
	manpower = 1680086
	state_category = city
	resources={
		steel = 36
	}
	history={
		owner = SOV
		victory_points = { 
			3580 25
		}
		buildings = {
			infrastructure = 5
			air_base = 20
		}
		add_core_of = SOV
						 
		
	}

	provinces={
		457 558 580 3554 3580 6254 6304 6543 6603 9260 9542 9579 11244 11526 
	}
}
