
state={
	id=239
	name="STATE_239"
	manpower = 1226088
	
	state_category = town

	history={
		owner = SOV
		buildings = {
			infrastructure = 6
			industrial_complex = 1
			air_base = 20
		}
		victory_points = {
			3578 5 
		}
		victory_points = {
			3465 3
		}
		victory_points = {
			11551 1
		}
		add_core_of = SOV
	}

	provinces={
		326 353 433 483 578 3304 3316 3343 3426 3465 3477 3578 6328 6366 6450 6492 6539 9326 9352 9460 9564 11308 11408 11449 11551 
	}
}
