
state={
	id=243
	name="STATE_243"
	manpower = 576210
	
	state_category = rural

	history={
		owner = SOV
		buildings = {
			infrastructure = 5
			air_base = 4
		}
		add_core_of = SOV
		victory_points = {
			11336 1
		}
						 
		
	}

	provinces={
		223 236 3210 3278 3297 6243 9253 9351 11336 
	}
}
