
state={
	id=246
	name="STATE_246"
	manpower = 1025458
	
	state_category = rural
	resources={
		#steel=16 # was: 24
	}

	history={
		owner = SOV
		victory_points = {
			11349 1
		}
		add_extra_state_shared_building_slots = 5
		buildings = {
			infrastructure = 5
			industrial_complex = 1
			arms_factory = 2
		}
		add_core_of = SOV
	}

	provinces={
		187 226 287 333 2999 3101 3215 3235 3321 3344 6264 6303 6367 6400 9242 9265 9287 9333 9343 11224 11272 11315 11326 11349 
	}
}
