
state={
	id=281
	name="STATE_281"
	manpower=79300
	
	state_category = enclave

	history={
		owner = ENG
		buildings = {
			infrastructure = 3
			4967 = {
				naval_base = 1
			}
		}
		victory_points = {
			4967 1
		}
		
	}

	provinces={
		4967 
	}
}
