
state={
	id=290
	name="STATE_290"
	manpower = 1
	
	history = {
		owner = SPR
		buildings = {
			infrastructure = 3
			anti_air_building = 7
		}
		
	}
	
	state_category = rural
	

	provinces={
		4199 7215 9945 10113 12087 12100 
	}
}
