state=
{
	id=298
	name="STATE_298"
	manpower = 745000
	
	state_category = rural
	resources={
		#rubber=6 # was: 7
	}	
	

	history= {
		owner = ENG
		buildings = {
			infrastructure = 2
			7959 = {
				naval_base = 2
			}
		}
		victory_points = {
			7959 3
		}
	
	}
	provinces={
		7959 8006
	}
}
