
state={
	id=309
	name="STATE_309"
	manpower = 152000

	resources={
		#aluminium=60 # was: 104
	}	
	
	state_category = rural

	history={
		owner = HOL
		victory_points = {
			10906 1
		}
		buildings = {
			infrastructure = 3
			industrial_complex = 1
			12828 = {
				naval_base = 1
			}
		}
		
	}

	provinces={
		1928 10906 12828 
	}
}
