state=
{
	id=327
	name="STATE_327" # Luzon
	manpower = 3548684
	
	state_category = town

history={
		1936.1.1.13 = {
owner = USA
		buildings = {
			infrastructure = 5
			arms_factory = 1
			industrial_complex = 3
			air_base = 6
			10265 = {
				naval_base = 5
			}
		}
		victory_points = {
			10265 15 
		}
		victory_points = {
			1221 1 
		}
		}
	}


	provinces={
		1221 1288 7275 7323 7351 10165 10236 10265 12236 
	}
}
