
state={
	id=338
	name="STATE_338"
	manpower = 1800615
	resources={
		steel=9 # was: 16
	}

	state_category = city

	history={
		owner = ENG
		victory_points = {
			3369 5 
		}
		buildings = {
			infrastructure = 7
			industrial_complex = 1
			3369 = {
				naval_base = 2
			}
		}
		add_core_of = ENG

		
	}

	provinces={
		3369 6221 6351 6378 9484 11471 
	}
}
