state={
	id=357
	name="STATE_357"


	state_category = metropolis
	provinces={
		715 718 733 905 908 1282 1338 1619 3710 3712 3715 3732 3906 4287 4445 6719 6732 6909 7462 7629 9675 9832 9847 9850  10247 10318 10481 11830 12202 12221 12459 13158 
	}
	manpower=8404713
			resources={
		steel=12 # was: 20.000
		}
	history={
		1936.1.1.13 = {
			owner = USA
		buildings = {
			infrastructure = 7
			arms_factory = 1
			industrial_complex = 5
			dockyard = 4
			air_base = 10
			6732 = {
				naval_base = 8

			}
			9832 = {
				naval_base = 3

			}

		}
		add_core_of = USA
		victory_points = {
			6732 20 
		}
		victory_points = {
			12459 1 
		}
		victory_points = {
			9832 1 
		}
	 
		}
	}
}
