
state={
	id=367
	name="STATE_367"
	manpower = 2646247
	
	state_category = city

	history={
		1936.1.1.13 = {
			owner = USA
		buildings = {
			infrastructure = 5
			7480 = {
				naval_base = 3
			}
		}
		add_core_of = USA
		victory_points = {
			7480 1 
		}
		victory_points = {
			12735 1 
		}
		}
	}

	provinces={
		492 860 1587 4594 4622 4756 5059 7422 7480 7640 10192 10520 11509 11942 12735 12803 
	}
}
