state={
	id=430
	name="STATE_430"

	history={

		owner = ENG
		victory_points = {
			11929 1 
		}
		buildings = {
			infrastructure = 5
			industrial_complex = 2
			11968 = {
				naval_base = 3

			}

		}
		1936.1.1.13 = {
			owner = RAJ
			add_core_of = RAJ
		}

	}

	provinces={
		2843 4162 4616 7078 7124 7179 7662 9935 9991 9993 10035 10389 10416 10443 11911 11929 11968 12010 12423 13208
	}
	manpower=31973300
	buildings_max_level_factor=1.000
	state_category=town
}
