
state={
	id=437
	name="STATE_437" # Indore
	manpower = 8402500

	state_category = rural

	history={
		owner = ENG
		buildings = {
			infrastructure = 4
			industrial_complex = 1
		}
		1936.1.1.13 = {
			owner = RAJ
			add_core_of = RAJ
		}
	}

	provinces={
		1949 2036 2092 2105 4106 7080 7205 8076 10807 10816 11993 11995 12080 
	}
}
