
state={
	id=440
	name="STATE_440"
	manpower = 13665000
	
	state_category = town

	history={
		victory_points = {
			10887 5
		}
		owner = ENG
		buildings = {
			infrastructure = 5
		}
		1936.1.1.13 = {
			owner = RAJ
			add_core_of = RAJ
		}
	}

	provinces={
		4979 8007 8022 8106 9084 10066 10139 10173 10772 10843 10887 10898 12005 12792 12822 
	}
}
