
state={
	id=445
	name="STATE_445" # Quetta
	manpower = 405100
	
	state_category = wasteland

	history={
		victory_points = {
			5105 1
		}
		owner = ENG
		buildings = {
			infrastructure = 3
			air_base = 4
		}
		
		1936.1.1.13 = {
			owner = RAJ
			add_core_of = RAJ
		}
	

	}

	provinces={
		1107 4990 5105 7847 7903 7975 8044 8098 10813 
	}
}
