state={
	id=45
	name="STATE_45"

	history={
		victory_points = { 619 3 }
		owner = YUG
		buildings = {
			infrastructure = 6
			industrial_complex = 1

		}
		add_core_of = YUG

	}

	provinces={
		619 3617 3623 9608 9621
	}
	manpower=838621
	buildings_max_level_factor=1.000
	state_category=town
}
