
state={
	id=461
	name="STATE_461"
	resources={
		#chromium=12.000 #added due to portugal setup
	}

	manpower = 3197719
	resources={
		oil=4 #oil=90 # was: 70
		rubber=4
	}
	state_category = rural
	
	history={
		owner = FRA
		set_demilitarized_zone = yes
		victory_points = {
			7069 1
		}
		buildings = {
			infrastructure = 10
			industrial_complex = 1
			air_base = 8
			7069 = {
				naval_base = 20
			}
		}
		
	}

	provinces={
		989 1079 1111 1194 4084 4097 4139 7069 7100 7116 7173 10013 10023 10070 11943 11987 12042 
	}
}
