
state={
	id=47
	name="STATE_47" # Thessaly
	manpower=2312500
	resources={
		aluminium=42
		#steel=3 # was: 4
		#chromium=12 # was: 22
		#aluminium=30 # was: 58
		#tungsten = 10 # was: 20
	}
	
	state_category = city

	history={
		owner = GRE
		victory_points = {
			4109 20 
		}
		victory_points = {
			3973 3
		}
		#victory_points = {
		#	863 1
		#}
		#victory_points = {
		#	3864 3
		#}
		#victory_points = {
		#	976 1
		#}
		victory_points = {
			7127 3
		}
		victory_points = {
			3988 1
		}
		buildings = {
			infrastructure = 10
						dockyard = 1
			air_base = 4
						arms_factory = 3
				3973 = {
				naval_base = 1
			}
						4109 = {
				naval_base = 15
			}
		}
		add_core_of = GRE

	}

	provinces={
		863 976 1109 3864 3973 3988 4109 6930 7127 
	}
}
