
state={
	id=471
	name="STATE_471" # Northwestern Canada
	manpower = 27681
	
	state_category = wasteland

	history={
		owner = CAN
		buildings = {
			infrastructure = 1
			10548 = {
				naval_base = 1
			}
		}
		add_core_of = CAN
		
	}

	provinces={
		917 1411 1799 1872 3606 4678 7869 7891 10548 12508 12571 5403
	}
}
