
state={
	id=519
	name="STATE_519"
	manpower = 200800
	
	state_category = pastoral

	history={
		owner = AST
		buildings = {
			infrastructure = 2

		}
		add_core_of = AST
		
	}

	provinces={
		1526 2191 2219 5183 5197 5211 5225 7567 8165 8186 8200 8220 10925 10927 10949 10969 10997 11011 12948 12962 12976 12990 
	}
}
