
state={
	id=52
	name="STATE_52"
	manpower = 2679413
	resources={
		#aluminium=18 # was: 30
	}
	
	state_category = city

	history={
		owner = GER
		victory_points = {
			692 20
		}
		victory_points = {
			708 3 #10
		}
		buildings = {
			infrastructure = 7
			arms_factory = 2
			industrial_complex = 1
			air_base = 16
		}
		add_core_of = GER
		
	}

	provinces={
		692 707 708 3688 3705 6540 6693 9652 9666 11620 11638 11653 
	}
}
