
state={
	id=526
	name="STATE_526"
	manpower = 578000
	
	state_category = small_island

	history={
		1936.1.1.13 = {
			set_state_flag = JAP_controls
owner = JAP
		add_core_of = JAP
		buildings = {
			infrastructure = 3
			air_base = 3
			11932 = {
				naval_base = 3

			}

		}
		victory_points = {
			11932 10 
		}
		}
	}

	provinces={
		1123 7115 10124 11932 
	}
}
