
state={
	id=538
	name="STATE_538" # Central Congo
	manpower = 1693974
	
	state_category = wasteland
	resources={
		#rubber=5 # was: 5
	}
	history={
		owner = BEL
		buildings = {
			infrastructure = 10
		}
		
	}

	provinces={
		988 7219 7931 8016 8048 10071 10883 10951 12741 12775 12824 
	}
}
