
state={
	id=57
	name="STATE_57"
	manpower = 5109333
	state_category = large_city

	history={
		owner = GER
		victory_points = {
			495 5 
		}
		#victory_points = {
		#	9509 1
		#}
		buildings = {
			infrastructure = 8
			arms_factory = 3
			industrial_complex = 1
			air_base = 4

		}
		add_core_of = GER


		
	}

	provinces={
		405 495 3355 3398 6535 6622 9443 9509 11346 11431 
	}
}
