
state={
	id=598
	name="STATE_598"
	
	state_category = town

	history={
		1936.1.1.13 = {
		owner = CHI
		add_core_of = CHI
		buildings = {
			infrastructure = 3

		}
		}
	}

	provinces={
		1001 1029 1076 1121 1161 4001 4005 4031 4082 4123 4148 7025 7142 7181 7200 9953 9956 10095 11973 12055 12067 13144 
	}
	manpower=23669300

}
