state= {
	id=599
	name="STATE_599"
	manpower = 8685200
	state_category = town
	resources={
		tungsten=15 # was: 20
		steel= 15 # was: 20
		chromium = 3 # was: 4
	}

	history={
		1936.1.1.13 = {
		owner = CHI
		add_core_of = CHI
		buildings = {
			infrastructure = 3
			industrial_complex = 2
			arms_factory = 1
			air_base = 2
		}
		victory_points = { 
			10404 3 
		}
		}
	}

	provinces={
		1023 1469 1597 1625 4028 4077 4085 4134 4152 4628 4656 7095 7128 7168 7210 7650 10039 10121 10404 10431 10459 12407 12436 
	}
}