state={
	id=606
	name="STATE_606"
	resources={
		steel=11.000
	}

	history={
		1936.1.1.13 = {
		owner = CHI
		add_core_of = CHI
		buildings = {
			infrastructure = 4
			industrial_complex = 1

		}
		victory_points = {
			7222 1 
		}
		}
	}

	provinces={
		1083 1146 4079 4158 4203 7035 7094 7222 9937 10008 10017 10040 10064 10079 11916 11994 12036 12061 
	}
	manpower=18265400

	state_category=town
}
