
state={
	id=607
	name="STATE_607"
	manpower=34289800
	
	state_category = town
	
	history={
		1936.1.1.13 = {
		owner = CHI
		add_core_of = CHI
		buildings = {
			infrastructure = 5
			industrial_complex = 2
		}
		victory_points = {
			9958 1 
		}

		}
	}


	provinces={
		1004 1139 1603 4010 4066 4114 4144 4519 4547 4606 6932 7074 7085 7126 7129 7459 7508 7540 7568 7656 9958 9995 10098 10364 10434 10446 11931 12012 12426 
	}
}
