
state={
	id=62
	name="STATE_62"
	manpower = 1006221
	
	
	state_category = town

	history={
		victory_points = {
			9388 1
		}
		owner = GER
		buildings = {
			infrastructure = 6
			fuel_silo = 1
			arms_factory = 2
		}
		add_core_of = GER

		
	}

	provinces={
		349 3207 3258 3312 3340 9388 
	}
}
