state=
{
	id=631
	name="STATE_631"
	manpower=2159	
	state_category = tiny_island

	history={
		1936.1.1.13 = {
			set_state_flag = USA_controls
	owner = USA
		buildings = {
			infrastructure = 3
			13052 = {
				naval_base = 1
			}
		}
		victory_points = {
			13052 1
		 }
		}
	}


	provinces={
		13052 13495	
	}
}
