state=
{
	id=645
	name="STATE_645"
	manpower=1018
	state_category = small_island

history={
		1936.1.1.13 = {
			set_state_flag = JAP_controls
owner = JAP
		add_core_of = JAP
		buildings = {
			infrastructure = 3
			air_base = 1
			13025 = {
				naval_base = 1

			}
		}
		victory_points = {
			13025 5
		 }
		}
	}

	provinces={
		13025 13489 13490
	}
}
