
state={
	id=65
	name="STATE_65"
	manpower = 5592576
	resources={
		steel=109
		oil = 300
		#steel=53 # was: 90
	}

	state_category = metropolis


	history={
		owner = GER
		buildings = {
			infrastructure = 7
			arms_factory = 2
			industrial_complex = 7
			air_base = 16
		}
		victory_points = {
			514 5 
		}
		victory_points = {
			3535 5 
		}
		add_core_of = GER

		
	}

	provinces={
		514 573 3514 3535 6441 6559 9441 9471 9535 11481 11545 
	}
}
