state={
	id=676
	name="Overlord"
	manpower = 1
	
	state_category = wasteland



	history={
		buildings = {
			infrastructure = 10
			anti_air_building = 5
		}
		owner = ENG
		
	}
	
	provinces={
		221 
	}
}
