state={
	id=687
	name="STATE_687"
	manpower = 309000
	
	state_category = pastoral
	
	resources={
		aluminium=60 # was: 112
	}

	history={
		owner = ENG
		victory_points = {
			4982 1
		}
		buildings = {
			infrastructure = 2
			4982 = {
				naval_base = 1
			}
		}
		
	}
	
	provinces={
		4982 8107 12716 
	}
}
