state={
	id=696
	name="STATE_696"
	manpower=37516
	state_category = small_island

	history={
		owner = ENG
		victory_points = {
			13010 1
		}
		buildings = {
			infrastructure = 4
			air_base = 4
			13010 = {
				naval_base = 1
			}
		}

	}
	
	provinces={
		13010 
	}
}
