state={
	id=703
	name="STATE_703"
	manpower=458
	state_category = tiny_island
	history= {
		owner = ENG
		buildings = {
			infrastructure = 1
			air_base = 4
			13013 = {
				naval_base = 1
			}
		
		}

	}
	
	provinces={
		13013 
	}
}
