state={
	id=707
	name="STATE_707"
	manpower = 404458
	
	state_category = small_island

	history={
		owner = ENG
		buildings = {
			infrastructure = 3
			13018 = {
				naval_base = 1
			}
		}

	}
	
	provinces={
		13018 
	}
}
