state={
	id=712
	name="STATE_712"
	manpower=42	
	state_category = tiny_island
	
	history=
	{
		owner = ENG
		buildings = {
			infrastructure = 3
			air_base = 4
			13002 = {
				naval_base = 1
			}
		}
		
	}
	
	provinces={
		13002 
	}
}
