
state={
	id=731
	name="STATE_731"

	history={
		owner = GRE
		victory_points = {
			11818 5 
		}
		buildings = {
			infrastructure = 6
			air_base = 4
			11818 = {
				naval_base = 3
			}
		}
		add_core_of = GRE

	}

	provinces={
		895 936 966 3526 3844 3936 6990 10163 11818 
	}
	manpower=1155700
	buildings_max_level_factor=1.000
	state_category=town
}
