state={
	id=736
	name="STATE_736"
	
	state_category = city

	history={
		victory_points = {
			6626 1 
		}
		owner = ITA
		add_extra_state_shared_building_slots = 27
		add_core_of = ITA
		buildings = {
			infrastructure = 2
			arms_factory = 13
			dockyard = 10
			industrial_complex = 2
			6626 = {
				naval_base = 5

			}

		}

	}

	provinces={
		599 6626 11595 11735 
	}
	manpower=1063159
	buildings_max_level_factor=1.000
}
