state=
{
	id=74
	name="STATE_74"
	manpower = 820000
	
	state_category = rural
	
	
	history=
	{
		victory_points = {
			3583 5
		}
		owner = CZE
		buildings = {
			infrastructure = 7
			arms_factory = 1
			industrial_complex = 1
		}
		add_core_of = CZE

		
		
	}
	provinces= {
		421 3414 3583 6485
 	}
}
