state={
	id=749
	name="STATE_749"
	provinces={
		1099 1125 1153 1171 4105 4173 7007 7104 10044 11937 12019 
	}
	manpower=5000000

	history={
		1936.1.1.13 = {
		owner = CHI
		add_core_of = CHI
		buildings = {
			infrastructure = 4
		}
		victory_points = {
			12019 1
		}
		}
	}

	state_category=town

}
