state={
	id=761
	name="STATE_761"
	provinces={
		1776 4745 4852 7697 7743 10541 10567 10612 10638 12537 12690 13150 
	}
	manpower=2000000

	state_category = pastoral

	history={
		1936.1.1.13 = {
owner = MAN

		add_core_of = MAN

		buildings = {
			infrastructure = 4

		}
		}
	}

}
