state={
	id=768
	name="STATE_768" # Rwanda
	
	state_category = pastoral

	history={
		owner = BEL
		victory_points = {
			9962 1
		}
		buildings = {
			infrastructure = 2

		}
		
	}

	provinces={
		9962
	}
	manpower=1716564
	buildings_max_level_factor=1.000
}
