
state={
	id=77
	name="STATE_77"
	manpower = 378000
	
	state_category = rural

	history={
		victory_points = {
			11597 1
		}
		owner = ROM
		buildings = {
			infrastructure = 5
			
		}
		add_core_of = ROM
		add_claim_by = BUL

		
	}

	provinces={
		9614 11597 
	}
}
