state={
	id=787
	name="STATE_787" # Northern Kashmir
	manpower = 1415800
	
	state_category = rural

	history={
		victory_points = {
			1910 1
		}
		owner = ENG
		buildings = {
			infrastructure = 2
		}
		1936.1.1.13 = {
			owner = RAJ
			add_core_of = RAJ
		}
	}

	provinces={
		1910 2041 2084 10821 
	}
}