state=
{
	id=79
	name="STATE_79"
	manpower = 2806400
	
	state_category = rural
	
	history=
	{
		owner = ROM
		buildings = {
			infrastructure = 5
			industrial_complex = 1
			air_base = 20
		}
		victory_points = {
			9716 1 
		}
		victory_points = {
			6706 1 
		}
		add_core_of = ROM
		
		}
	provinces=
	{
723 744 3728 3741 6584 6706 6729 6747 6761 9701 9716 11534 11652 11655 11672 11689 	}
}
