state={
	id=790
	name="STATE_790"

	history={
		owner = SPR
		victory_points = {
			11707 3
		}
		buildings = {
			infrastructure = 6
			
			arms_factory = 1
			anti_air_building = 7
			

		}
		add_core_of = SPR
		

	}

	provinces={
		738 3729 3744 6749 9703 9719 11688 11707 13218 
	}
	manpower=1197252
	buildings_max_level_factor=1.000
	state_category=large_town
}
