state={
	id=80
	name="STATE_80"
	manpower = 474600
	
	state_category = rural
	
	history=
	{
		victory_points = {
			577 1 
		}
		owner = ROM
		buildings = {
			infrastructure = 6
			arms_factory = 1
		}
		add_core_of = ROM

		

	}
	provinces={
		577 9548
	}
}
