state={
	id=81
	name="STATE_81"
	manpower=1519300
	
	
	state_category = rural
	
	history={
		victory_points = {
			6652 1
		}
		owner = ROM
		buildings = {
			infrastructure = 5
			industrial_complex = 1
		}
		add_core_of = ROM

		
	}
	provinces={
		637 3630 3645 6652 6667 11588 11605 11657 
	}
}
