state={
	id=91
	name="STATE_91" # Lwow
	manpower = 3227800
	
	state_category = city
	
	history={
		owner = POL
		victory_points = {
			11479 3
		}
		#victory_points = {
		#	3483 5
		#}
		buildings = {
			infrastructure = 6
			industrial_complex = 3
			air_base = 4
		}
		add_core_of = POL
				 
		
	}

	provinces={
		438 491 536 3483 3562 9454 9468 9558 11427 11479 
	}
}
