state={
	id=96
	name="STATE_96"
	manpower = 726000
	
	state_category = rural
	
	history={
		victory_points = {
			406 1
		}
		owner = POL
		buildings = {
			infrastructure = 4
			air_base = 4
		}
		add_core_of = POL
			 
		
	}

	provinces={
		233 277 358 406 6340 9341 11391 
	}
}
