state={
	id=97
	name="STATE_97"

	history={
		owner = POL
		
		victory_points = {
			3393 3
		}
		
		buildings = {
			infrastructure = 5
			industrial_complex = 1
			air_base = 4

		}
		add_core_of = POL
						 
		
	}

	provinces={
		290 347 400  11247 11274 11301 11329 11357 
	}
	manpower=1157200
	buildings_max_level_factor=1.000
	state_category=rural
}
