equipments = {

	mechanized_equipment = {
		year = 1936

		is_archetype = yes
		picture = archetype_motorized_equipment		
		is_buildable = no
		is_convertable = yes
		type = {
			#infantry #Removing inf type 
			mechanized
		}
		group_by = archetype
		
		interface_category = interface_category_land
		
		#Misc Abilities
		maximum_speed = 8
		reliability = 0.8
		
		#Defensive Abilities
		defense = 10
		breakthrough = 2
		hardness = 0.5
		armor_value = 10

		#Offensive Abilities
		ap_attack = 11
		air_attack = 0

		#Space taken in convoy
		lend_lease_cost = 5
		
		build_cost_ic = 5.5
		resources = {
			steel = 2
			#oil = 1
		}
		
		fuel_consumption = 0.6
	}

	# ~1941
	mechanized_equipment_1 = {
		year = 1940
		archetype = mechanized_equipment
		priority = 40
		visual_level = 0
	}

	# ~1943
	mechanized_equipment_2 = {
		year = 1942

		archetype = mechanized_equipment
		parent = mechanized_equipment_1

		can_convert_from = { 
			mechanized_equipment_1
		}
		priority = 40
		visual_level = 1

		maximum_speed = 10

		#Defensive Abilities
		defense = 12
		breakthrough = 3
		hardness = 0.6
		armor_value = 15

		#Offensive Abilities
		ap_attack = 16
		
		build_cost_ic = 6
		resources = {
			steel = 3
			#oil = 1
		}
	}

	# ~1945
	mechanized_equipment_3 = {
		year = 1944
		archetype = mechanized_equipment
		
		parent = mechanized_equipment_2

		can_convert_from = { 
			mechanized_equipment_2
		}
		priority = 40
		visual_level = 2
		
		maximum_speed = 12

		#Defensive Abilities
		defense = 16
		breakthrough = 4
		hardness = 0.7
		armor_value = 20

		#Offensive Abilities
		ap_attack = 21
		
		build_cost_ic = 7
		resources = {
			steel = 4
			#oil = 2
		}
	}
}
