﻿division_template = {
	name = "Infantry Division"		# Same for "Active" and "Reserve" Infantry Divisions
	division_names_group = ENG_INF_01
	is_locked = yes

	regiments = {
		infantry = { x = 0 y = 0 }
		infantry = { x = 0 y = 1 }
		infantry = { x = 0 y = 2 }
		infantry = { x = 1 y = 0 }
		infantry = { x = 1 y = 1 }
		infantry = { x = 1 y = 2 }
		infantry = { x = 2 y = 0 }
		infantry = { x = 2 y = 1 }
		infantry = { x = 2 y = 2 }
		infantry = { x = 2 y = 3 }
		
	}

}

units = {
		division= {	
		location = 6287  # Hoeselt
		division_template = "Infantry Division"
		start_experience_factor = 0.3
		start_equipment_factor = 1
	}
			division= {	
		location = 6287  # Hoeselt
		division_template = "Infantry Division"
		start_experience_factor = 0.3
		start_equipment_factor = 1
	}
		division= {	
		location = 6287  # Hoeselt
		division_template = "Infantry Division"
		start_experience_factor = 0.3
		start_equipment_factor = 1
	}
		division= {	
		location = 6287  # Hoeselt
		division_template = "Infantry Division"
		start_experience_factor = 0.3
		start_equipment_factor = 1
	}
		division= {	
		location = 6287  # Hoeselt
		division_template = "Infantry Division"
		start_experience_factor = 0.3
		start_equipment_factor = 1
	}
			division= {	
		location = 6287  # Hoeselt
		division_template = "Infantry Division"
		start_experience_factor = 0.3
		start_equipment_factor = 1
	}
		division= {	
		location = 6287  # Hoeselt
		division_template = "Infantry Division"
		start_experience_factor = 0.3
		start_equipment_factor = 1
	}
		division= {	
		location = 6287  # Hoeselt
		division_template = "Infantry Division"
		start_experience_factor = 0.3
		start_equipment_factor = 1
	}
		division= {	
		location = 6287  # Hoeselt
		division_template = "Infantry Division"
		start_experience_factor = 0.3
		start_equipment_factor = 1
	}
		division= {	
		location = 6287  # Hoeselt
		division_template = "Infantry Division"
		start_experience_factor = 0.3
		start_equipment_factor = 1
	}	
}