﻿	division_template = {

		name = "Torch Converts"
		regiments = {
			Converts = { x = 0 y = 0 }
			Converts = { x = 0 y = 1 }
			Converts = { x = 0 y = 2 }		
			Converts = { x = 0 y = 3}
			Converts = { x = 0 y = 4 }
			Converts = { x = 1 y = 0 }
			Converts = { x = 1 y = 1 }
			Converts = { x = 1 y = 2 }
			Converts = { x = 1 y = 3 }
			Converts = { x = 1 y = 4 }
			Converts = { x = 2 y = 0 }

		}


		support = {
		anti_air = { x = 0 y = 0 }
		engineer = { x = 0 y = 1 }
		}
	}

	units = {

		division = {	
			start_equipment_factor = 1 start_experience_factor = 0.3
			location = 7069
			division_template = "Torch Converts"
			force_equipment_variants = { infantry_equipment_0 = { owner = "ENG" } }
		}
		division = {	
			start_equipment_factor = 1 start_experience_factor = 0.3
			location = 7069
			division_template = "Torch Converts"
			force_equipment_variants = { infantry_equipment_0 = { owner = "ENG" } }
		}
		division = {	
			start_equipment_factor = 1 start_experience_factor = 0.3
			location = 7069
			division_template = "Torch Converts"
			force_equipment_variants = { infantry_equipment_0 = { owner = "ENG" } }
		}
		division = {	
			start_equipment_factor = 1 start_experience_factor = 0.3
			location = 7069
			division_template = "Torch Converts"
			force_equipment_variants = { infantry_equipment_0 = { owner = "ENG" } }
		}
		division = {	
			start_equipment_factor = 1 start_experience_factor = 0.3
			location = 7069
			division_template = "Torch Converts"
			force_equipment_variants = { infantry_equipment_0 = { owner = "ENG" } }
		}
		division = {	
			start_equipment_factor = 1 start_experience_factor = 0.3
			location = 7069
			division_template = "Torch Converts"
			force_equipment_variants = { infantry_equipment_0 = { owner = "ENG" } }
		}
		division = {	
			start_equipment_factor = 1 start_experience_factor = 0.3
			location = 7069
			division_template = "Torch Converts"
			force_equipment_variants = { infantry_equipment_0 = { owner = "ENG" } }
		}
		division = {	
			start_equipment_factor = 1 start_experience_factor = 0.3
			location = 7069
			division_template = "Torch Converts"
			force_equipment_variants = { infantry_equipment_0 = { owner = "ENG" } }
		}
		division = {	
			start_equipment_factor = 1 start_experience_factor = 0.3
			location = 7069
			division_template = "Torch Converts"
			force_equipment_variants = { infantry_equipment_0 = { owner = "ENG" } }
		}
		division = {	
			start_equipment_factor = 1 start_experience_factor = 0.3
			location = 7069
			division_template = "Torch Converts"
			force_equipment_variants = { infantry_equipment_0 = { owner = "ENG" } }
		}
		division = {	
			start_equipment_factor = 1 start_experience_factor = 0.3
			location = 7069
			division_template = "Torch Converts"
			force_equipment_variants = { infantry_equipment_0 = { owner = "ENG" } }
		}
		division = {	
			start_equipment_factor = 1 start_experience_factor = 0.3
			location = 7069
			division_template = "Torch Converts"
			force_equipment_variants = { infantry_equipment_0 = { owner = "ENG" } }
		}
		division = {	
			start_equipment_factor = 1 start_experience_factor = 0.3
			location = 7069
			division_template = "Torch Converts"
			force_equipment_variants = { infantry_equipment_0 = { owner = "ENG" } }
		}
		division = {	
			start_equipment_factor = 1 start_experience_factor = 0.3
			location = 7069
			division_template = "Torch Converts"
			force_equipment_variants = { infantry_equipment_0 = { owner = "ENG" } }
		}
		division = {	
			start_equipment_factor = 1 start_experience_factor = 0.3
			location = 7069
			division_template = "Torch Converts"
			force_equipment_variants = { infantry_equipment_0 = { owner = "ENG" } }
		}
		division = {	
			start_equipment_factor = 1 start_experience_factor = 0.3
			location = 7069
			division_template = "Torch Converts"
			force_equipment_variants = { infantry_equipment_0 = { owner = "ENG" } }
		}
		division = {	
			start_equipment_factor = 1 start_experience_factor = 0.3
			location = 7069
			division_template = "Torch Converts"
			force_equipment_variants = { infantry_equipment_0 = { owner = "ENG" } }
		}
		division = {	
			start_equipment_factor = 1 start_experience_factor = 0.3
			location = 7069
			division_template = "Torch Converts"
			force_equipment_variants = { infantry_equipment_0 = { owner = "ENG" } }
		}
		division = {	
			start_equipment_factor = 1 start_experience_factor = 0.3
			location = 7069
			division_template = "Torch Converts"
			force_equipment_variants = { infantry_equipment_0 = { owner = "ENG" } }
		}
		division = {	
			start_equipment_factor = 1 start_experience_factor = 0.3
			location = 7069
			division_template = "Torch Converts"
			force_equipment_variants = { infantry_equipment_0 = { owner = "ENG" } }
		}
		division = {	
			start_equipment_factor = 1 start_experience_factor = 0.3
			location = 7069
			division_template = "Torch Converts"
			force_equipment_variants = { infantry_equipment_0 = { owner = "ENG" } }
		}
		division = {	
			start_equipment_factor = 1 start_experience_factor = 0.3
			location = 7069
			division_template = "Torch Converts"
			force_equipment_variants = { infantry_equipment_0 = { owner = "ENG" } }
		}
		division = {	
			start_equipment_factor = 1 start_experience_factor = 0.3
			location = 7069
			division_template = "Torch Converts"
			force_equipment_variants = { infantry_equipment_0 = { owner = "ENG" } }
		}
		division = {	
			start_equipment_factor = 1 start_experience_factor = 0.3
			location = 7069
			division_template = "Torch Converts"
			force_equipment_variants = { infantry_equipment_0 = { owner = "ENG" } }
		}
		division = {	
			start_equipment_factor = 1 start_experience_factor = 0.3
			location = 7069
			division_template = "Torch Converts"
			force_equipment_variants = { infantry_equipment_0 = { owner = "ENG" } }
		}
		division = {	
			start_equipment_factor = 1 start_experience_factor = 0.3
			location = 7069
			division_template = "Torch Converts"
			force_equipment_variants = { infantry_equipment_0 = { owner = "ENG" } }
		}
		division = {	
			start_equipment_factor = 1 start_experience_factor = 0.3
			location = 7069
			division_template = "Torch Converts"
			force_equipment_variants = { infantry_equipment_0 = { owner = "ENG" } }
		}
		division = {	
			start_equipment_factor = 1 start_experience_factor = 0.3
			location = 7069
			division_template = "Torch Converts"
			force_equipment_variants = { infantry_equipment_0 = { owner = "ENG" } }
		}
		division = {	
			start_equipment_factor = 1 start_experience_factor = 0.3
			location = 7069
			division_template = "Torch Converts"
			force_equipment_variants = { infantry_equipment_0 = { owner = "ENG" } }
		}
		division = {	
			start_equipment_factor = 1 start_experience_factor = 0.3
			location = 7069
			division_template = "Torch Converts"
			force_equipment_variants = { infantry_equipment_0 = { owner = "ENG" } }
		}
		
		
		
	}



