﻿	division_template = {

			name = "40w Tank Convert"
			regiments = {
				converts = { x = 0 y = 0 } converts = { x = 1 y = 0 } converts = { x = 2 y = 0 } converts = { x = 3 y = 0 }
				converts = { x = 0 y = 1 } converts = { x = 1 y = 1 } converts = { x = 2 y = 1 } converts = { x = 3 y = 1 }
				converts = { x = 0 y = 2 } converts = { x = 1 y = 2 } converts = { x = 2 y = 2 } converts = { x = 3 y = 2 }
				converts = { x = 0 y = 3 } converts = { x = 1 y = 3 } converts = { x = 2 y = 3 } converts = { x = 3 y = 3 }
				converts = { x = 0 y = 4 } converts = { x = 1 y = 4 } converts = { x = 2 y = 4 } converts = { x = 3 y = 4 }
			}
		support = {}
		}

	units = {

		division = {	
			start_equipment_factor = 1 start_experience_factor = 0.3
			location = 9994
			division_template = "40w Tank Convert"
			force_equipment_variants = { infantry_equipment_0 = { owner = "GER" } }
		}
		division = {	
			start_equipment_factor = 1 start_experience_factor = 0.3
			location = 9994
			division_template = "40w Tank Convert"
			force_equipment_variants = { infantry_equipment_0 = { owner = "GER" } }
		}
		division = {	
			start_equipment_factor = 1 start_experience_factor = 0.3
			location = 9994
			division_template = "40w Tank Convert"
			force_equipment_variants = { infantry_equipment_0 = { owner = "GER" } }
		}
		division = {	
			start_equipment_factor = 1 start_experience_factor = 0.3
			location = 9994
			division_template = "40w Tank Convert"
			force_equipment_variants = { infantry_equipment_0 = { owner = "GER" } }
		}
		division = {	
			start_equipment_factor = 1 start_experience_factor = 0.3
			location = 9994
			division_template = "40w Tank Convert"
			force_equipment_variants = { infantry_equipment_0 = { owner = "GER" } }
		}
		division = {	
			start_equipment_factor = 1 start_experience_factor = 0.3
			location = 9994
			division_template = "40w Tank Convert"
			force_equipment_variants = { infantry_equipment_0 = { owner = "GER" } }
		}
		division = {	
			start_equipment_factor = 1 start_experience_factor = 0.3
			location = 9994
			division_template = "40w Tank Convert"
			force_equipment_variants = { infantry_equipment_0 = { owner = "GER" } }
		}
		division = {	
			start_equipment_factor = 1 start_experience_factor = 0.3
			location = 9994
			division_template = "40w Tank Convert"
			force_equipment_variants = { infantry_equipment_0 = { owner = "GER" } }
		}
		division = {	
			start_equipment_factor = 1 start_experience_factor = 0.3
			location = 9994
			division_template = "40w Tank Convert"
			force_equipment_variants = { infantry_equipment_0 = { owner = "GER" } }
		}
		division = {	
			start_equipment_factor = 1 start_experience_factor = 0.3
			location = 9994
			division_template = "40w Tank Convert"
			force_equipment_variants = { infantry_equipment_0 = { owner = "GER" } }
		}
		
		
		
	}



